[
	{
		"ID": 1,
		"GamePlayName": "世界地图",
		"TeamType": 1,
		"BattleType": 1,
		"SubGameTypeID": 0
	},
	{
		"ID": 2,
		"GamePlayName": "时空裂缝",
		"TeamType": 1,
		"BattleType": 2,
		"SubGameTypeID": 0
	},
	{
		"ID": 3,
		"GamePlayName": "众神的试炼",
		"TeamType": 2,
		"BattleType": 3,
		"SubGameTypeID": 0
	},
	{
		"ID": 4,
		"GamePlayName": "兄贵健身房",
		"TeamType": 3,
		"BattleType": 4,
		"SubGameTypeID": 0
	},
	{
		"ID": 5,
		"GamePlayName": "竞技场挑战",
		"TeamType": 4,
		"BattleType": 5,
		"SubGameTypeID": 0
	},
	{
		"ID": 6,
		"GamePlayName": "英雄副本关卡",
		"TeamType": 5,
		"BattleType": 6,
		"SubGameTypeID": 0
	},
	{
		"ID": 7,
		"GamePlayName": "主线剧情",
		"TeamType": 1,
		"BattleType": 7,
		"SubGameTypeID": 0
	},
	{
		"ID": 8,
		"GamePlayName": "藏宝盗贼",
		"TeamType": 6,
		"BattleType": 8,
		"SubGameTypeID": 0
	},
	{
		"ID": 9,
		"GamePlayName": "羁绊之地",
		"TeamType": 7,
		"BattleType": 9,
		"SubGameTypeID": 0
	},
	{
		"ID": 10,
		"GamePlayName": "英雄特训屋",
		"TeamType": 8,
		"BattleType": 10,
		"SubGameTypeID": 0
	},
	{
		"ID": 12,
		"GamePlayName": "英雄幻影",
		"TeamType": 9,
		"BattleType": 12,
		"SubGameTypeID": 0
	},
	{
		"ID": 13,
		"GamePlayName": "协力战",
		"TeamType": 10,
		"BattleType": 13,
		"SubGameTypeID": 0
	},
	{
		"ID": 15,
		"GamePlayName": "秘境积分活动挑战关",
		"TeamType": 11,
		"BattleType": 15,
		"SubGameTypeID": 0
	},
	{
		"ID": 16,
		"GamePlayName": "秘境积分活动积分关",
		"TeamType": 11,
		"BattleType": 16,
		"SubGameTypeID": 0
	},
	{
		"ID": 17,
		"GamePlayName": "爬塔",
		"TeamType": 12,
		"BattleType": 17,
		"SubGameTypeID": 0
	},
	{
		"ID": 18,
		"GamePlayName": "公会合战",
		"TeamType": 13,
		"BattleType": 18,
		"SubGameTypeID": 0
	},
	{
		"ID": 19,
		"GamePlayName": "组队战斗1人阵",
		"TeamType": 14,
		"BattleType": 0,
		"SubGameTypeID": 0
	},
	{
		"ID": 20,
		"GamePlayName": "组队战斗2人阵",
		"TeamType": 15,
		"BattleType": 0,
		"SubGameTypeID": 0
	},
	{
		"ID": 21,
		"GamePlayName": "组队战斗3人阵",
		"TeamType": 16,
		"BattleType": 0,
		"SubGameTypeID": 0
	},
	{
		"ID": 22,
		"GamePlayName": "永恒的神殿",
		"TeamType": 17,
		"BattleType": 22,
		"SubGameTypeID": 0
	},
	{
		"ID": 23,
		"GamePlayName": "组队战斗4人阵",
		"TeamType": 18,
		"BattleType": 0,
		"SubGameTypeID": 0
	},
	{
		"ID": 24,
		"GamePlayName": "组队战斗5人阵",
		"TeamType": 19,
		"BattleType": 0,
		"SubGameTypeID": 0
	},
	{
		"ID": 25,
		"GamePlayName": "集换活动剧情关",
		"TeamType": 20,
		"BattleType": 25,
		"SubGameTypeID": 0
	},
	{
		"ID": 26,
		"GamePlayName": "集换活动挑战关",
		"TeamType": 20,
		"BattleType": 26,
		"SubGameTypeID": 0
	},
	{
		"ID": 27,
		"GamePlayName": "集换活动重复关",
		"TeamType": 20,
		"BattleType": 27,
		"SubGameTypeID": 0
	},
	{
		"ID": 28,
		"GamePlayName": "英雄赞歌",
		"TeamType": 21,
		"BattleType": 28,
		"SubGameTypeID": 0
	},
	{
		"ID": 29,
		"GamePlayName": "兄贵安东",
		"TeamType": 22,
		"BattleType": 4,
		"SubGameTypeID": 1
	},
	{
		"ID": 30,
		"GamePlayName": "兄贵琼斯",
		"TeamType": 23,
		"BattleType": 4,
		"SubGameTypeID": 2
	},
	{
		"ID": 31,
		"GamePlayName": "兄贵巴兰",
		"TeamType": 24,
		"BattleType": 4,
		"SubGameTypeID": 3
	},
	{
		"ID": 32,
		"GamePlayName": "兄贵洛基",
		"TeamType": 25,
		"BattleType": 4,
		"SubGameTypeID": 4
	},
	{
		"ID": 33,
		"GamePlayName": "兄贵萨姆森",
		"TeamType": 26,
		"BattleType": 4,
		"SubGameTypeID": 5
	},
	{
		"ID": 34,
		"GamePlayName": "兄贵尼姆",
		"TeamType": 27,
		"BattleType": 4,
		"SubGameTypeID": 6
	},
	{
		"ID": 35,
		"GamePlayName": "火龙·法夫尼尔",
		"TeamType": 28,
		"BattleType": 3,
		"SubGameTypeID": 1
	},
	{
		"ID": 36,
		"GamePlayName": "冰龙·艾辛迪斯",
		"TeamType": 29,
		"BattleType": 3,
		"SubGameTypeID": 2
	},
	{
		"ID": 37,
		"GamePlayName": "雷龙·卡尔克萨",
		"TeamType": 30,
		"BattleType": 3,
		"SubGameTypeID": 3
	},
	{
		"ID": 38,
		"GamePlayName": "暗龙·提娅玛特",
		"TeamType": 31,
		"BattleType": 3,
		"SubGameTypeID": 4
	},
	{
		"ID": 39,
		"GamePlayName": "步兵训练",
		"TeamType": 32,
		"BattleType": 10,
		"SubGameTypeID": 1
	},
	{
		"ID": 40,
		"GamePlayName": "枪兵训练",
		"TeamType": 33,
		"BattleType": 10,
		"SubGameTypeID": 2
	},
	{
		"ID": 41,
		"GamePlayName": "骑兵训练",
		"TeamType": 34,
		"BattleType": 10,
		"SubGameTypeID": 3
	},
	{
		"ID": 42,
		"GamePlayName": "魔物训练",
		"TeamType": 35,
		"BattleType": 10,
		"SubGameTypeID": 4
	},
	{
		"ID": 43,
		"GamePlayName": "羁绊之地-拉卡斯之影",
		"TeamType": 36,
		"BattleType": 9,
		"SubGameTypeID": 1
	},
	{
		"ID": 44,
		"GamePlayName": "羁绊之地-卡尔萨斯之影",
		"TeamType": 37,
		"BattleType": 9,
		"SubGameTypeID": 2
	},
	{
		"ID": 45,
		"GamePlayName": "羁绊之地-雷加尔德之影",
		"TeamType": 38,
		"BattleType": 9,
		"SubGameTypeID": 3
	},
	{
		"ID": 46,
		"GamePlayName": "羁绊之地-萨尔拉斯之影",
		"TeamType": 39,
		"BattleType": 9,
		"SubGameTypeID": 4
	},
	{
		"ID": 47,
		"GamePlayName": "羁绊之地-巴尔迪亚之影",
		"TeamType": 40,
		"BattleType": 9,
		"SubGameTypeID": 5
	},
	{
		"ID": 48,
		"GamePlayName": "羁绊之地-神殿之影",
		"TeamType": 41,
		"BattleType": 9,
		"SubGameTypeID": 6
	},
	{
		"ID": 49,
		"GamePlayName": "羁绊之地-瓦尔赛利亚之影",
		"TeamType": 42,
		"BattleType": 9,
		"SubGameTypeID": 7
	},
	{
		"ID": 50,
		"GamePlayName": "永恒的神殿-瓦尔基里",
		"TeamType": 43,
		"BattleType": 22,
		"SubGameTypeID": 1
	},
	{
		"ID": 51,
		"GamePlayName": "永恒的神殿-利维艾尔",
		"TeamType": 44,
		"BattleType": 22,
		"SubGameTypeID": 2
	},
	{
		"ID": 52,
		"GamePlayName": "永恒的神殿-斯库拉",
		"TeamType": 45,
		"BattleType": 22,
		"SubGameTypeID": 3
	},
	{
		"ID": 53,
		"GamePlayName": "永恒的神殿-菲尼克斯",
		"TeamType": 46,
		"BattleType": 22,
		"SubGameTypeID": 4
	},
	{
		"ID": 54,
		"GamePlayName": "世界竞技场",
		"TeamType": 47,
		"BattleType": 0,
		"SubGameTypeID": 0
	},
	{
		"ID": 55,
		"GamePlayName": "集换活动事件战斗",
		"TeamType": 20,
		"BattleType": 30,
		"SubGameTypeID": 0
	}
]