[
	{
		"ID": 1,
		"Name": "Realm of Darkness",
		"Desc": "Realm of Darkness",
		"TeamName": "Joint Battle",
		"Image": "UI/TextImages/English_Uncharted_ABS/1/TimeLimit_DarkArea.png",
		"BriefView": "UI/CooperateBattle_ABS/TimeLimit_DarkArea.png",
		"LevelList": [
			1,
			2,
			3,
			4,
			5,
			6,
			7,
			8,
			9
		],
		"OpenHour": "14:00:00",
		"CloseHour": "15:00:00",
		"OpenHour2": "21:00:00",
		"CloseHour2": "22:00:00",
		"OpenWeekDays": [
			1,
			2
		]
	},
	{
		"ID": 3,
		"Name": "Imperial Invasion",
		"Desc": "Imperial Invasion",
		"TeamName": "Joint Battle",
		"Image": "UI/TextImages/English_Uncharted_ABS/1/TimeLimit_EmpireAttack.png",
		"BriefView": "UI/CooperateBattle_ABS/TimeLimit_EmpireAttack.png",
		"LevelList": [
			11,
			12,
			13,
			14,
			15,
			16,
			17,
			18,
			19
		],
		"OpenHour": "14:00:00",
		"CloseHour": "15:00:00",
		"OpenHour2": "21:00:00",
		"CloseHour2": "22:00:00",
		"OpenWeekDays": [
			3,
			4
		]
	},
	{
		"ID": 5,
		"Name": "Angelica's Guardians",
		"Desc": "Angelica's Guardians",
		"TeamName": "Joint Battle",
		"Image": "UI/TextImages/English_Uncharted_ABS/1/TimeLimit_Guard.png",
		"BriefView": "UI/CooperateBattle_ABS/TimeLimit_Guard.png",
		"LevelList": [
			21,
			22,
			23,
			24,
			25,
			26,
			27,
			28,
			29
		],
		"OpenHour": "14:00:00",
		"CloseHour": "15:00:00",
		"OpenHour2": "21:00:00",
		"CloseHour2": "22:00:00",
		"OpenWeekDays": [
			5,
			6
		]
	},
	{
		"ID": 7,
		"Name": "Light's Illumination",
		"Desc": "Light's Illumination",
		"TeamName": "Joint Battle",
		"Image": "UI/TextImages/English_Uncharted_ABS/1/TimeLimit_LightTeach.png",
		"BriefView": "UI/CooperateBattle_ABS/TimeLimit_LightTeach.png",
		"LevelList": [
			31,
			32,
			33,
			34,
			35,
			36,
			37,
			38,
			39
		],
		"OpenHour": "14:00:00",
		"CloseHour": "15:00:00",
		"OpenHour2": "21:00:00",
		"CloseHour2": "22:00:00",
		"OpenWeekDays": [
			7
		]
	}
]