[
	{
		"ID": 1,
		"RefluxPoints": 1,
		"ActivateTime": 1296000,
		"DeactivateTime": 2160000
	},
	{
		"ID": 2,
		"RefluxPoints": 1,
		"ActivateTime": 1382400,
		"DeactivateTime": 2160000
	},
	{
		"ID": 3,
		"RefluxPoints": 1,
		"ActivateTime": 1468800,
		"DeactivateTime": 2160000
	},
	{
		"ID": 4,
		"RefluxPoints": 1,
		"ActivateTime": 1555200,
		"DeactivateTime": 2160000
	},
	{
		"ID": 5,
		"RefluxPoints": 1,
		"ActivateTime": 1641600,
		"DeactivateTime": 2160000
	}
]