[
	{
		"ID": 1,
		"Items": [
			2801,
			803,
			5201,
			5101
		]
	},
	{
		"ID": 2,
		"Items": [
			5301,
			5401,
			2801,
			803
		]
	},
	{
		"ID": 3,
		"Items": [
			5501,
			5601,
			5301,
			5401
		]
	},
	{
		"ID": 4,
		"Items": [
			7001,
			1302,
			5501,
			5601
		]
	},
	{
		"ID": 5,
		"Items": [
			2502,
			1401,
			2601,
			2902,
			1502,
			603
		]
	},
	{
		"ID": 6,
		"Items": [
			7201,
			1002,
			7001,
			1302
		]
	},
	{
		"ID": 7,
		"Items": [
			902,
			1401,
			2601,
			2902,
			1502,
			603
		]
	},
	{
		"ID": 8,
		"Items": [
			6001,
			6101,
			602,
			1202,
			5201,
			5101
		]
	},
	{
		"ID": 9,
		"Items": [
			5701,
			1204,
			2801,
			803,
			5301,
			5401
		]
	},
	{
		"ID": 10,
		"Items": [
			5402,
			1401,
			2601,
			2902,
			1502,
			603
		]
	},
	{
		"ID": 11,
		"Items": [
			7901,
			8001,
			5501,
			5601,
			6001,
			6101
		]
	},
	{
		"ID": 96,
		"Items": [
			5402,
			1401,
			2601,
			2902,
			1502,
			502
		]
	},
	{
		"ID": 97,
		"Items": [
			2502,
			1401,
			2601,
			2902,
			1502,
			502
		]
	},
	{
		"ID": 98,
		"Items": [
			603,
			1502,
			2902,
			2601
		]
	},
	{
		"ID": 99,
		"Items": [
			502,
			1401,
			2601,
			2902
		]
	}
]