[
	{
		"ID": 1,
		"UseableJobConnectionsID": [
			10,
			11,
			13,
			12,
			15,
			18,
			17
		]
	},
	{
		"ID": 2,
		"UseableJobConnectionsID": [
			10,
			11,
			13,
			14,
			16,
			18,
			19
		]
	},
	{
		"ID": 3,
		"UseableJobConnectionsID": [
			10,
			11,
			13,
			15,
			14,
			18,
			20
		]
	},
	{
		"ID": 4,
		"UseableJobConnectionsID": [
			10,
			11,
			13,
			16,
			12,
			18,
			21
		]
	}
]