[
	{
		"ID": 1,
		"Name": "Queen",
		"Descript": "One day my life will come to an end and you will be crowned king.",
		"Icon": "UI/Activity_ABS/TarotCard/Tarot_Empress.png"
	},
	{
		"ID": 2,
		"Name": "World",
		"Descript": "What is the world but a giant rock?\nWatch me as I lift it with my biceps.",
		"Icon": "UI/Activity_ABS/TarotCard/Tarot_Word.png"
	},
	{
		"ID": 3,
		"Name": "Wheel of Fate",
		"Descript": "The wheel of fate turns and turns,\nbut Aniki will always wait for you.",
		"Icon": "UI/Activity_ABS/TarotCard/Tarot_WheelOfFortune.png"
	},
	{
		"ID": 4,
		"Name": "Power",
		"Descript": "Do you yearn for power?",
		"Icon": "UI/Activity_ABS/TarotCard/Tarot_Lovers.png"
	},
	{
		"ID": 5,
		"Name": "Sun",
		"Descript": "Praise the Sun.",
		"Icon": "UI/Activity_ABS/TarotCard/Tarot_Sun.png"
	},
	{
		"ID": 6,
		"Name": "Star",
		"Descript": "A star on Aniki's face,\nshining for all to see.",
		"Icon": "UI/Activity_ABS/TarotCard/Tarot_Stars.png"
	},
	{
		"ID": 7,
		"Name": "Sword",
		"Descript": "I used to be an adventurer as well,\nthen I was cut down by the Sword of Learning.",
		"Icon": "UI/Activity_ABS/TarotCard/Tarot_Sword.png"
	},
	{
		"ID": 8,
		"Name": "Star Coin",
		"Descript": "All mortals will die,\nall mortals need training.",
		"Icon": "UI/Activity_ABS/TarotCard/Tarot_Garren.png"
	},
	{
		"ID": 9,
		"Name": "Holy Grail",
		"Descript": "My will and actions are clear,\nmy will and actions are righteous.",
		"Icon": "UI/Activity_ABS/TarotCard/Tarot_Chalice.png"
	},
	{
		"ID": 10,
		"Name": "Staff",
		"Descript": "If I had a fairy wand,\nI'd grow, shrink and be oh so pretty.",
		"Icon": "UI/Activity_ABS/TarotCard/Tarot_Leangle.png"
	},
	{
		"ID": 11,
		"Name": "Emperor",
		"Descript": "Let the king undertake, let the king approve. Let the king bear the whole world!",
		"Icon": "UI/Activity_ABS/TarotCard/Tarot_King.png"
	}
]