[
	{
		"ID": 101,
		"Name": "Alhazard",
		"Image": "UI/Icon/HeroSkin_ABS/Skin/Skin_Sherry_01.png",
		"SpineAssetPath": "Spine/Char/Flakia_ABS/Flakia_prefab.prefab"
	},
	{
		"ID": 1201,
		"Name": "Dragon Slayer",
		"Image": "UI/Icon/HeroSkin_ABS/Skin/Skin_Elwin_01.png",
		"SpineAssetPath": "Spine/Char/Elwin_ABS/Elwin_Skin_Prefab.prefab"
	},
	{
		"ID": 1501,
		"Name": "Cherry Miko",
		"Image": "UI/Icon/HeroSkin_ABS/Skin/Skin_Riana_01.png",
		"SpineAssetPath": "Spine/Char/Riana_ABS/Riana_Skin_Prefab.prefab"
	},
	{
		"ID": 601,
		"Name": "Gunslinger",
		"Image": "UI/Icon/HeroSkin_ABS/Skin/Skin_Leon_01.png",
		"SpineAssetPath": "Spine/Char/Leon_ABS/Leon_Skin_Prefab.prefab"
	},
	{
		"ID": 701,
		"Name": "Dark Warlord",
		"Image": "UI/Icon/HeroSkin_ABS/Skin/Skin_Bernhardt_01.png",
		"SpineAssetPath": "Spine/Char/Bernhardt_ABS/Bernhardt_skin_Prefab.prefab"
	},
	{
		"ID": 801,
		"Name": "Sonic Fairy",
		"Image": "UI/Icon/HeroSkin_ABS/Skin/Skin_Lana_01.png",
		"SpineAssetPath": "Spine/Char/Lana_ABS/Lana_Skin_Prefab.prefab"
	},
	{
		"ID": 1401,
		"Name": "Runaway Angel",
		"Image": "UI/Icon/HeroSkin_ABS/Skin/Skin_Sherry_02.png",
		"SpineAssetPath": "Spine/Char/Sherry_ABS/SherryAngel_Skin_Prefab.prefab"
	},
	{
		"ID": 1402,
		"Name": "Princess of Kalxath",
		"Image": "UI/Icon/HeroSkin_ABS/Skin/Skin_Sherry_01.png",
		"SpineAssetPath": "Spine/Char/Sherry_ABS/Sherry_Skin_Prefab.prefab"
	},
	{
		"ID": 602,
		"Name": "Tidal Blade",
		"Image": "UI/Icon/HeroSkin_ABS/Skin/Skin_Leon_02.png",
		"SpineAssetPath": "Spine/Char/Leon_ABS/Leon_Skin2_Prefab.prefab"
	},
	{
		"ID": 1202,
		"Name": "Shogun's Spear",
		"Image": "UI/Icon/HeroSkin_ABS/Skin/Skin_Elwin_02.png",
		"SpineAssetPath": "Spine/Char/Elwin_ABS/Elwin_Skin02_Prefab.prefab"
	},
	{
		"ID": 1001,
		"Name": "Burning Passion",
		"Image": "UI/Icon/HeroSkin_ABS/Skin/Skin_Ledyn_01.png",
		"SpineAssetPath": "Spine/Char/Ledin_ABS/Ledin_Skin_Prefab.prefab"
	},
	{
		"ID": 2501,
		"Name": "X-Rigüler",
		"Image": "UI/Icon/HeroSkin_ABS/Skin/Skin_Alutemurat_01.png",
		"SpineAssetPath": "Spine/Char/Alutemurat_ABS/Alutemurat_Skin_Prefab.prefab"
	},
	{
		"ID": 2101,
		"Name": "Mobile Suit Guardian",
		"Image": "UI/Icon/HeroSkin_ABS/Skin/Skin_Bargas_01.png",
		"SpineAssetPath": "Spine/Char/Bargas_ABS/Bargas_skin_Prefab.prefab"
	},
	{
		"ID": 1801,
		"Name": "Pirate Queen",
		"Image": "UI/Icon/HeroSkin_ABS/Skin/Skin_Imelda_01.png",
		"SpineAssetPath": "Spine/Char/Imelda_ABS/Imelda_Skin_Prefab.prefab"
	},
	{
		"ID": 501,
		"Name": "Riot Police",
		"Image": "UI/Icon/HeroSkin_ABS/Skin/Skin_Chris_01.png",
		"SpineAssetPath": "Spine/Char/Chris_ABS/Chris_Skin_Prefab.prefab"
	},
	{
		"ID": 2601,
		"Name": "Goddess of War",
		"Image": "UI/Icon/HeroSkin_ABS/Skin/Skin_Luna_01.png",
		"SpineAssetPath": "Spine/Char/Luna_ABS/Luna_Skin_Prefab.prefab"
	},
	{
		"ID": 5201,
		"Name": "Drakesoul Blade",
		"Image": "UI/Icon/HeroSkin_ABS/Skin/Skin_Angelina_01.png",
		"SpineAssetPath": "Spine/Char/Angelina_ABS/Angelina_Skin_Prefab.prefab"
	},
	{
		"ID": 5101,
		"Name": "Shining Shoot",
		"Image": "UI/Icon/HeroSkin_ABS/Skin/Skin_SchelFaniel_01.png",
		"SpineAssetPath": "Spine/Char/Schelfaniel_ABS/Schelfaniel_Skin01_Prefab.prefab"
	},
	{
		"ID": 1301,
		"Name": "Magical Mystery",
		"Image": "UI/Icon/HeroSkin_ABS/Skin/Skin_Hein_01.png",
		"SpineAssetPath": "Spine/Char/Hein_ABS/Hein_Skin_Prefab.prefab"
	},
	{
		"ID": 4901,
		"Name": "Shadows of Summer",
		"Image": "UI/Icon/HeroSkin_ABS/Skin/Skin_Fana_SP01.png",
		"SpineAssetPath": "Spine/Char/Fana_ABS/Fana_Skin_Prefab.prefab"
	},
	{
		"ID": 3301,
		"Name": "Sunshine Dream",
		"Image": "UI/Icon/HeroSkin_ABS/Skin/Skin_Freya_SP01.png",
		"SpineAssetPath": "Spine/Char/Freya_ABS/Freya_Skin02_Prefab.prefab"
	},
	{
		"ID": 802,
		"Name": "Coastal Beauty",
		"Image": "UI/Icon/HeroSkin_ABS/Skin/Skin_Lana_SP01.png",
		"SpineAssetPath": "Spine/Char/Lana_ABS/Lana_Skin3_Prefab.prefab"
	},
	{
		"ID": 2602,
		"Name": "Water Bomb Attack",
		"Image": "UI/Icon/HeroSkin_ABS/Skin/Skin_Luna_SP01.png",
		"SpineAssetPath": "Spine/Char/Luna_ABS/Luna_Skin02_Prefab.prefab"
	},
	{
		"ID": 1101,
		"Name": "Romantic Summer",
		"Image": "UI/Icon/HeroSkin_ABS/Skin/Skin_Norm_SP01.png",
		"SpineAssetPath": "Spine/Char/Nahm_ABS/Nahm_Skin02_Prefab.prefab"
	},
	{
		"ID": 2901,
		"Name": "Beach Babe",
		"Image": "UI/Icon/HeroSkin_ABS/Skin/Skin_Tialice_SP01.png",
		"SpineAssetPath": "Spine/Char/Tialice_ABS/Tialice_Skin01_Prefab.prefab"
	},
	{
		"ID": 803,
		"Name": "Cherry Moon",
		"Image": "UI/Icon/HeroSkin_ABS/Skin/Skin_Lana_02.png",
		"SpineAssetPath": "Spine/Char/Lana_ABS/Lana_Skin2_Prefab.prefab"
	},
	{
		"ID": 901,
		"Name": "Soul Reaper",
		"Image": "UI/Icon/HeroSkin_ABS/Skin/Skin_Bozel_01.png",
		"SpineAssetPath": "Spine/Char/Bozel_ABS/Bozel_Skin_Prefab.prefab"
	},
	{
		"ID": 3601,
		"Name": "Deadly Gentleman",
		"Image": "UI/Icon/HeroSkin_ABS/Skin/Skin_SilverWolf_01.png",
		"SpineAssetPath": "Spine/Char/SilverWolf_ABS/SilverWolf_Skin_Prefab.prefab"
	},
	{
		"ID": 2801,
		"Name": "Demon Elf",
		"Image": "UI/Icon/HeroSkin_ABS/Skin/Skin_Zalrahda_01.png",
		"SpineAssetPath": "Spine/Char/Zalrahda_ABS/Zalrahda01_Prefab.prefab"
	},
	{
		"ID": 1102,
		"Name": "Galactic Hero",
		"Image": "UI/Icon/HeroSkin_ABS/Skin/Skin_Norm_01.png",
		"SpineAssetPath": "Spine/Char/Nahm_ABS/Nahm_Skin_Prefab.prefab"
	},
	{
		"ID": 2701,
		"Name": "Storm God",
		"Image": "UI/Icon/HeroSkin_ABS/Skin/Skin_Dehault_01.png",
		"SpineAssetPath": "Spine/Char/Dehault_ABS/Dehault_Skin_Prefab.prefab"
	},
	{
		"ID": 3302,
		"Name": "Spartacus",
		"Image": "UI/Icon/HeroSkin_ABS/Skin/Skin_Freya_01.png",
		"SpineAssetPath": "Spine/Char/Freya_ABS/Freya_Skin_Prefab.prefab"
	},
	{
		"ID": 1701,
		"Name": "Beat Breaker",
		"Image": "UI/Icon/HeroSkin_ABS/Skin/Skin_Eggbert_01.png",
		"SpineAssetPath": "Spine/Char/Eggbert_ABS/Eggbert_Skin01_Prefab.prefab"
	},
	{
		"ID": 102,
		"Name": "Wine Connoisseur",
		"Image": "UI/Icon/HeroSkin_ABS/Skin/Skin_Matthew_01.png",
		"SpineAssetPath": "Spine/Char/Mathew_ABS/Mathew_Skin01_Prefab.prefab"
	},
	{
		"ID": 301,
		"Name": "Chef de Cuisine",
		"Image": "UI/Icon/HeroSkin_ABS/Skin/Skin_Grenier_01.png",
		"SpineAssetPath": "Spine/Char/Grenier_ABS/Grenier_Skin_Prefab.prefab"
	},
	{
		"ID": 401,
		"Name": "Magic Maid",
		"Image": "UI/Icon/HeroSkin_ABS/Skin/Skin_Aimeeda_01.png",
		"SpineAssetPath": "Spine/Char/Aimeeda_ABS/Aimeeda_Skin01_Prefab.prefab"
	},
	{
		"ID": 2902,
		"Name": "Godsend",
		"Image": "UI/Icon/HeroSkin_ABS/Skin/Skin_Chris_02.png",
		"SpineAssetPath": "Spine/Char/Tialice_ABS/Tialice_Skin02_Prefab.prefab"
	},
	{
		"ID": 5301,
		"Name": "Dark Hunter",
		"Image": "UI/Icon/HeroSkin_ABS/Skin/Skin_Ranford_01.png",
		"SpineAssetPath": "Spine/Char/Ranford_ABS/Ranford_Skin01_Prefab.prefab"
	},
	{
		"ID": 5401,
		"Name": "Blood Succubus",
		"Image": "UI/Icon/HeroSkin_ABS/Skin/Skin_Listell_01.png",
		"SpineAssetPath": "Spine/Char/Listell_ABS/Listell_Skin01_Prefab.prefab"
	},
	{
		"ID": 1502,
		"Name": "Eternal Love",
		"Image": "UI/Icon/HeroSkin_ABS/Skin/Skin_Riana_02.png",
		"SpineAssetPath": "Spine/Char/Riana_ABS/Riana_Skin02_Prefab.prefab"
	},
	{
		"ID": 5501,
		"Name": "Fallen Angel",
		"Image": "UI/Icon/HeroSkin_ABS/Skin/Skin_Randiovs_01.png",
		"SpineAssetPath": "Spine/Char/Landius_ABS/Landius_Skin01_Prefab.prefab"
	},
	{
		"ID": 5601,
		"Name": "Lesser Thunder Imp",
		"Image": "UI/Icon/HeroSkin_ABS/Skin/Skin_Rachel_01.png",
		"SpineAssetPath": "Spine/Char/Rachel_ABS/Rachel_Skin01_Prefab.prefab"
	},
	{
		"ID": 1403,
		"Name": "雪莉圣诞",
		"Image": "UI/Icon/HeroSkin_ABS/Skin/Skin_Sherry_03.png",
		"SpineAssetPath": "Spine/Char/Sherry_ABS/Sherry_Skin03_Prefab.prefab"
	},
	{
		"ID": 5102,
		"Name": "雪露法妮尔圣诞",
		"Image": "UI/Icon/HeroSkin_ABS/Skin/Skin_SchelFaniel_02.png",
		"SpineAssetPath": "Spine/Char/Schelfaniel_ABS/Schelfaniel_Skin02_Prefab.prefab"
	},
	{
		"ID": 5202,
		"Name": "安洁丽娜圣诞",
		"Image": "UI/Icon/HeroSkin_ABS/Skin/Skin_Angelina_02.png",
		"SpineAssetPath": "Spine/Char/Angelina_ABS/Angelina_Skin02_Prefab.prefab"
	},
	{
		"ID": 1203,
		"Name": "Ruby Knight",
		"Image": "UI/Icon/HeroSkin_ABS/Skin/Skin_Elwin_03.png",
		"SpineAssetPath": "Spine/Char/Elwin_ABS/Elwin_Skin03_Prefab.prefab"
	},
	{
		"ID": 603,
		"Name": "Azure Knight",
		"Image": "UI/Icon/HeroSkin_ABS/Skin/Skin_Leon_03.png",
		"SpineAssetPath": "Spine/Char/Leon_ABS/Leon_Skin3_Prefab.prefab"
	},
	{
		"ID": 1302,
		"Name": "Hyperspace Princess",
		"Image": "UI/Icon/HeroSkin_ABS/Skin/Skin_Hein_02.png",
		"SpineAssetPath": "Spine/Char/Hein_ABS/Hein_Skin02_Prefab.prefab"
	},
	{
		"ID": 7001,
		"Name": "Princess Cecilia",
		"Image": "UI/Icon/HeroSkin_ABS/Skin/Skin_Joshua_01.png",
		"SpineAssetPath": "Spine/Char/Joshua_ABS/Joshua_Skin01_Prefab.prefab"
	},
	{
		"ID": 402,
		"Name": "艾梅达唐僧",
		"Image": "UI/Icon/HeroSkin_ABS/Skin/Skin_Aimeeda_02.png",
		"SpineAssetPath": "Spine/Char/Aimeeda_ABS/Aimeeda_Skin02_Prefab.prefab"
	},
	{
		"ID": 2802,
		"Name": "泽瑞达白龙",
		"Image": "UI/Icon/HeroSkin_ABS/Skin/Skin_Zalrahda_02.png",
		"SpineAssetPath": "Spine/Char/Zalrahda_ABS/Zalrahda_Skin02_Prefab.prefab"
	},
	{
		"ID": 502,
		"Name": "克丽丝猫",
		"Image": "UI/Icon/HeroSkin_ABS/Skin/Skin_Chris_03.png",
		"SpineAssetPath": "Spine/Char/Chris_ABS/Chris_Skin02_Prefab.prefab"
	},
	{
		"ID": 7201,
		"Name": "Dark Knight",
		"Image": "UI/Icon/HeroSkin_ABS/Skin/Skin_Leonhardt.png",
		"SpineAssetPath": "Spine/Char/Leonhardt_ABS/Leonhardt_Skin01_Prefab.prefab"
	},
	{
		"ID": 1002,
		"Name": "战神阿瑞斯",
		"Image": "UI/Icon/HeroSkin_ABS/Skin/Skin_Ledyn_02.png",
		"SpineAssetPath": "Spine/Char/Ledin_ABS/Ledin_Skin02_Prefab.prefab"
	},
	{
		"ID": 2502,
		"Name": "海王元帅",
		"Image": "UI/Icon/HeroSkin_ABS/Skin/Skin_Alutemurat_02.png",
		"SpineAssetPath": "Spine/Char/Alutemurat_ABS/Alutemurat_Skin02_Prefab.prefab"
	},
	{
		"ID": 6001,
		"Name": "Prince of Pop",
		"Image": "UI/Icon/HeroSkin_ABS/Skin/Skin_Sigma_01.png",
		"SpineAssetPath": "Spine/Char/Sigma_ABS/Sigma_Skin01_Prefab.prefab"
	},
	{
		"ID": 6101,
		"Name": "Electro Idol",
		"Image": "UI/Icon/HeroSkin_ABS/Skin/Skin_Lambda_01.png",
		"SpineAssetPath": "Spine/Char/Lambda_ABS/Lambda_Skin01_Prefab.prefab"
	},
	{
		"ID": 902,
		"Name": "Lord of Darkness",
		"Image": "UI/Icon/HeroSkin_ABS/Skin/Skin_Bozel_02.png",
		"SpineAssetPath": "Spine/Char/Bozel_ABS/Bozel_Skin02_Prefab.prefab"
	},
	{
		"ID": 3201,
		"Name": "千年智瞳",
		"Image": "UI/Icon/HeroSkin_ABS/Skin/Skin_EmmaLink_01.png",
		"SpineAssetPath": "Spine/Char/Emmalink_ABS/Emmalink_Skin01_Prefab.prefab"
	},
	{
		"ID": 5701,
		"Name": "Star Commander",
		"Image": "UI/Icon/HeroSkin_ABS/Skin/Skin_Willer_01.png",
		"SpineAssetPath": "Spine/Char/Viler_ABS/Viler_Skin01_Prefab.prefab"
	},
	{
		"ID": 1204,
		"Name": "Overlord",
		"Image": "UI/Icon/HeroSkin_ABS/Skin/Skin_Elwin_04.png",
		"SpineAssetPath": "Spine/Char/Elwin_ABS/Elwin_Skin04_Prefab.prefab"
	},
	{
		"ID": 5402,
		"Name": "Nether Nurse",
		"Image": "UI/Icon/HeroSkin_ABS/Skin/Skin_Listell_02.png",
		"SpineAssetPath": "Spine/Char/Listell_ABS/Listell_Skin02_Prefab.prefab"
	},
	{
		"ID": 2001,
		"Name": "Skysoar",
		"Image": "UI/Icon/HeroSkin_ABS/Skin/Skin_Sonia_01.png",
		"SpineAssetPath": "Spine/Char/Sonia_ABS/Sonia_Skin01_Prefab.prefab"
	},
	{
		"ID": 5502,
		"Name": "Kajishin",
		"Image": "UI/Icon/HeroSkin_ABS/Skin/Skin_Randiovs_02.png",
		"SpineAssetPath": "Spine/Char/Landius_ABS/Landius_Skin02_Prefab.prefab"
	},
	{
		"ID": 7901,
		"Name": "Sakura Force",
		"Image": "UI/Icon/HeroSkin_ABS/Skin/Skin_Sakura_01.png",
		"SpineAssetPath": "Spine/Char/Sakura_ABS/Sakura_Skin01_Prefab.prefab"
	},
	{
		"ID": 8001,
		"Name": "Sakura Blizzard",
		"Image": "UI/Icon/HeroSkin_ABS/Skin/Skin_Sumire_01.png",
		"SpineAssetPath": "Spine/Char/Sumire_ABS/Sumire_Skin01_Prefab.prefab"
	},
	{
		"ID": 8101,
		"Name": "Sakura Sweetheart",
		"Image": "UI/Icon/HeroSkin_ABS/Skin/Skin_Alice_01.png",
		"SpineAssetPath": "Spine/Char/Alice_ABS/Alice_Skin01_Prefab.prefab"
	},
	{
		"ID": 899,
		"Name": "Endless Love",
		"Image": "UI/Icon/HeroSkin_ABS/Skin/Skin_Lana_03.png",
		"SpineAssetPath": "Spine/Char/Lana_ABS/Lana_Skin4_Prefab.prefab"
	},
	{
		"ID": 1499,
		"Name": "Runaway Bride",
		"Image": "UI/Icon/HeroSkin_ABS/Skin/Skin_Sherry_04.png",
		"SpineAssetPath": "Spine/Char/Sherry_ABS/Sherry_Skin05_Prefab.prefab"
	},
	{
		"ID": 2903,
		"Name": "Drummer Girl",
		"Image": "UI/Icon/HeroSkin_ABS/Skin/Skin_Tialice_02.png",
		"SpineAssetPath": "Spine/Char/Tialice_ABS/Tialice_Skin03_Prefab.prefab"
	},
	{
		"ID": 3303,
		"Name": "Flowing Yukata",
		"Image": "UI/Icon/HeroSkin_ABS/Skin/Skin_Freya_02.png",
		"SpineAssetPath": "Spine/Char/Freya_ABS/Freya_Skin03_Prefab.prefab"
	}
]