[
	{
		"ID": 1,
		"SmallExpressionIconPath": "UI/Chat_ABS/Prefab/EmojiAssets/Emojis/1.png"
	},
	{
		"ID": 2,
		"SmallExpressionIconPath": "UI/Chat_ABS/Prefab/EmojiAssets/Emojis/2.png"
	},
	{
		"ID": 3,
		"SmallExpressionIconPath": "UI/Chat_ABS/Prefab/EmojiAssets/Emojis/3.png"
	},
	{
		"ID": 4,
		"SmallExpressionIconPath": "UI/Chat_ABS/Prefab/EmojiAssets/Emojis/5.png"
	},
	{
		"ID": 5,
		"SmallExpressionIconPath": "UI/Chat_ABS/Prefab/EmojiAssets/Emojis/6.png"
	},
	{
		"ID": 6,
		"SmallExpressionIconPath": "UI/Chat_ABS/Prefab/EmojiAssets/Emojis/7.png"
	},
	{
		"ID": 7,
		"SmallExpressionIconPath": "UI/Chat_ABS/Prefab/EmojiAssets/Emojis/8.png"
	},
	{
		"ID": 8,
		"SmallExpressionIconPath": "UI/Chat_ABS/Prefab/EmojiAssets/Emojis/9.png"
	},
	{
		"ID": 9,
		"SmallExpressionIconPath": "UI/Chat_ABS/Prefab/EmojiAssets/Emojis/10.png"
	},
	{
		"ID": 10,
		"SmallExpressionIconPath": "UI/Chat_ABS/Prefab/EmojiAssets/Emojis/11.png"
	},
	{
		"ID": 11,
		"SmallExpressionIconPath": "UI/Chat_ABS/Prefab/EmojiAssets/Emojis/12.png"
	},
	{
		"ID": 12,
		"SmallExpressionIconPath": "UI/Chat_ABS/Prefab/EmojiAssets/Emojis/13.png"
	},
	{
		"ID": 13,
		"SmallExpressionIconPath": "UI/Chat_ABS/Prefab/EmojiAssets/Emojis/14.png"
	},
	{
		"ID": 14,
		"SmallExpressionIconPath": "UI/Chat_ABS/Prefab/EmojiAssets/Emojis/15.png"
	},
	{
		"ID": 15,
		"SmallExpressionIconPath": "UI/Chat_ABS/Prefab/EmojiAssets/Emojis/16.png"
	},
	{
		"ID": 16,
		"SmallExpressionIconPath": "UI/Chat_ABS/Prefab/EmojiAssets/Emojis/17.png"
	},
	{
		"ID": 17,
		"SmallExpressionIconPath": "UI/Chat_ABS/Prefab/EmojiAssets/Emojis/18.png"
	},
	{
		"ID": 18,
		"SmallExpressionIconPath": "UI/Chat_ABS/Prefab/EmojiAssets/Emojis/19.png"
	},
	{
		"ID": 19,
		"SmallExpressionIconPath": "UI/Chat_ABS/Prefab/EmojiAssets/Emojis/20.png"
	},
	{
		"ID": 20,
		"SmallExpressionIconPath": "UI/Chat_ABS/Prefab/EmojiAssets/Emojis/21.png"
	},
	{
		"ID": 21,
		"SmallExpressionIconPath": "UI/Chat_ABS/Prefab/EmojiAssets/Emojis/22.png"
	},
	{
		"ID": 22,
		"SmallExpressionIconPath": "UI/Chat_ABS/Prefab/EmojiAssets/Emojis/23.png"
	},
	{
		"ID": 23,
		"SmallExpressionIconPath": "UI/Chat_ABS/Prefab/EmojiAssets/Emojis/24.png"
	},
	{
		"ID": 24,
		"SmallExpressionIconPath": "UI/Chat_ABS/Prefab/EmojiAssets/Emojis/25.png"
	},
	{
		"ID": 25,
		"SmallExpressionIconPath": "UI/Chat_ABS/Prefab/EmojiAssets/Emojis/26.png"
	},
	{
		"ID": 26,
		"SmallExpressionIconPath": "UI/Chat_ABS/Prefab/EmojiAssets/Emojis/27.png"
	},
	{
		"ID": 27,
		"SmallExpressionIconPath": "UI/Chat_ABS/Prefab/EmojiAssets/Emojis/28.png"
	},
	{
		"ID": 28,
		"SmallExpressionIconPath": "UI/Chat_ABS/Prefab/EmojiAssets/Emojis/29.png"
	},
	{
		"ID": 29,
		"SmallExpressionIconPath": "UI/Chat_ABS/Prefab/EmojiAssets/Emojis/30.png"
	},
	{
		"ID": 30,
		"SmallExpressionIconPath": "UI/Chat_ABS/Prefab/EmojiAssets/Emojis/31.png"
	},
	{
		"ID": 31,
		"SmallExpressionIconPath": "UI/Chat_ABS/Prefab/EmojiAssets/Emojis/32.png"
	},
	{
		"ID": 32,
		"SmallExpressionIconPath": "UI/Chat_ABS/Prefab/EmojiAssets/Emojis/33.png"
	},
	{
		"ID": 33,
		"SmallExpressionIconPath": "UI/Chat_ABS/Prefab/EmojiAssets/Emojis/34.png"
	},
	{
		"ID": 34,
		"SmallExpressionIconPath": "UI/Chat_ABS/Prefab/EmojiAssets/Emojis/35.png"
	},
	{
		"ID": 35,
		"SmallExpressionIconPath": "UI/Chat_ABS/Prefab/EmojiAssets/Emojis/36.png"
	},
	{
		"ID": 36,
		"SmallExpressionIconPath": "UI/Chat_ABS/Prefab/EmojiAssets/Emojis/37.png"
	},
	{
		"ID": 37,
		"SmallExpressionIconPath": "UI/Chat_ABS/Prefab/EmojiAssets/Emojis/38.png"
	},
	{
		"ID": 38,
		"SmallExpressionIconPath": "UI/Chat_ABS/Prefab/EmojiAssets/Emojis/39.png"
	},
	{
		"ID": 39,
		"SmallExpressionIconPath": "UI/Chat_ABS/Prefab/EmojiAssets/Emojis/40.png"
	},
	{
		"ID": 40,
		"SmallExpressionIconPath": "UI/Chat_ABS/Prefab/EmojiAssets/Emojis/41.png"
	},
	{
		"ID": 41,
		"SmallExpressionIconPath": "UI/Chat_ABS/Prefab/EmojiAssets/Emojis/42.png"
	},
	{
		"ID": 42,
		"SmallExpressionIconPath": "UI/Chat_ABS/Prefab/EmojiAssets/Emojis/43.png"
	},
	{
		"ID": 43,
		"SmallExpressionIconPath": "UI/Chat_ABS/Prefab/EmojiAssets/Emojis/44.png"
	},
	{
		"ID": 44,
		"SmallExpressionIconPath": "UI/Chat_ABS/Prefab/EmojiAssets/Emojis/45.png"
	},
	{
		"ID": 45,
		"SmallExpressionIconPath": "UI/Chat_ABS/Prefab/EmojiAssets/Emojis/46.png"
	},
	{
		"ID": 46,
		"SmallExpressionIconPath": "UI/Chat_ABS/Prefab/EmojiAssets/Emojis/47.png"
	},
	{
		"ID": 47,
		"SmallExpressionIconPath": "UI/Chat_ABS/Prefab/EmojiAssets/Emojis/48.png"
	},
	{
		"ID": 48,
		"SmallExpressionIconPath": "UI/Chat_ABS/Prefab/EmojiAssets/Emojis/49.png"
	},
	{
		"ID": 49,
		"SmallExpressionIconPath": "UI/Chat_ABS/Prefab/EmojiAssets/Emojis/50.png"
	},
	{
		"ID": 50,
		"SmallExpressionIconPath": "UI/Chat_ABS/Prefab/EmojiAssets/Emojis/51.png"
	},
	{
		"ID": 51,
		"SmallExpressionIconPath": "UI/Chat_ABS/Prefab/EmojiAssets/Emojis/52.png"
	},
	{
		"ID": 52,
		"SmallExpressionIconPath": "UI/Chat_ABS/Prefab/EmojiAssets/Emojis/53.png"
	},
	{
		"ID": 53,
		"SmallExpressionIconPath": "UI/Chat_ABS/Prefab/EmojiAssets/Emojis/54.png"
	},
	{
		"ID": 54,
		"SmallExpressionIconPath": "UI/Chat_ABS/Prefab/EmojiAssets/Emojis/55.png"
	},
	{
		"ID": 55,
		"SmallExpressionIconPath": "UI/Chat_ABS/Prefab/EmojiAssets/Emojis/56.png"
	},
	{
		"ID": 56,
		"SmallExpressionIconPath": "UI/Chat_ABS/Prefab/EmojiAssets/Emojis/57.png"
	},
	{
		"ID": 57,
		"SmallExpressionIconPath": "UI/Chat_ABS/Prefab/EmojiAssets/Emojis/58.png"
	},
	{
		"ID": 58,
		"SmallExpressionIconPath": "UI/Chat_ABS/Prefab/EmojiAssets/Emojis/59.png"
	},
	{
		"ID": 59,
		"SmallExpressionIconPath": "UI/Chat_ABS/Prefab/EmojiAssets/Emojis/60.png"
	},
	{
		"ID": 60,
		"SmallExpressionIconPath": "UI/Chat_ABS/Prefab/EmojiAssets/Emojis/61.png"
	},
	{
		"ID": 61,
		"SmallExpressionIconPath": "UI/Chat_ABS/Prefab/EmojiAssets/Emojis/62.png"
	},
	{
		"ID": 62,
		"SmallExpressionIconPath": "UI/Chat_ABS/Prefab/EmojiAssets/Emojis/63.png"
	},
	{
		"ID": 63,
		"SmallExpressionIconPath": "UI/Chat_ABS/Prefab/EmojiAssets/Emojis/64.png"
	},
	{
		"ID": 64,
		"SmallExpressionIconPath": "UI/Chat_ABS/Prefab/EmojiAssets/Emojis/65.png"
	},
	{
		"ID": 65,
		"SmallExpressionIconPath": "UI/Chat_ABS/Prefab/EmojiAssets/Emojis/66.png"
	},
	{
		"ID": 66,
		"SmallExpressionIconPath": "UI/Chat_ABS/Prefab/EmojiAssets/Emojis/67.png"
	},
	{
		"ID": 67,
		"SmallExpressionIconPath": "UI/Chat_ABS/Prefab/EmojiAssets/Emojis/68.png"
	},
	{
		"ID": 68,
		"SmallExpressionIconPath": "UI/Chat_ABS/Prefab/EmojiAssets/Emojis/69.png"
	},
	{
		"ID": 69,
		"SmallExpressionIconPath": "UI/Chat_ABS/Prefab/EmojiAssets/Emojis/70.png"
	},
	{
		"ID": 70,
		"SmallExpressionIconPath": "UI/Chat_ABS/Prefab/EmojiAssets/Emojis/71.png"
	},
	{
		"ID": 71,
		"SmallExpressionIconPath": "UI/Chat_ABS/Prefab/EmojiAssets/Emojis/72.png"
	},
	{
		"ID": 72,
		"SmallExpressionIconPath": "UI/Chat_ABS/Prefab/EmojiAssets/Emojis/73.png"
	}
]