[
	{
		"ID": 10,
		"Value": "Gift Pack Code parameter error!",
		"ValueStrKey": ""
	},
	{
		"ID": 11,
		"Value": "Gift Pack Code abnormal!",
		"ValueStrKey": ""
	},
	{
		"ID": 17,
		"Value": "Gift Pack Code signature error!",
		"ValueStrKey": ""
	},
	{
		"ID": 100,
		"Value": "(Game has initiated an exchange success prompt)",
		"ValueStrKey": ""
	},
	{
		"ID": 101,
		"Value": "The Gift Pack Code you entered does not exist! [101]",
		"ValueStrKey": ""
	},
	{
		"ID": 102,
		"Value": "The Gift Pack Code you entered does not exist! [102]",
		"ValueStrKey": ""
	},
	{
		"ID": 103,
		"Value": "The Gift Pack Code has expired! [103]",
		"ValueStrKey": ""
	},
	{
		"ID": 104,
		"Value": "The Gift Pack Code has been used! [104]",
		"ValueStrKey": ""
	},
	{
		"ID": 105,
		"Value": "The Gift Pack Code has expired! [105]",
		"ValueStrKey": ""
	},
	{
		"ID": 106,
		"Value": "The Gift Pack Code has expired! [106]",
		"ValueStrKey": ""
	},
	{
		"ID": 107,
		"Value": "You can't use this Gift Pack Code right now [107]",
		"ValueStrKey": ""
	},
	{
		"ID": 108,
		"Value": "This Gift Pack Code has expired! [108]",
		"ValueStrKey": ""
	},
	{
		"ID": 109,
		"Value": "The Gift Pack Code has expired! [109]",
		"ValueStrKey": ""
	},
	{
		"ID": 110,
		"Value": "The Gift Pack Code has expired! [110]",
		"ValueStrKey": ""
	},
	{
		"ID": 111,
		"Value": "The same Gift Pack has been redeemed, unable to redeem again! [111]",
		"ValueStrKey": ""
	},
	{
		"ID": 112,
		"Value": "The same Gift Pack has been redeemed, unable to redeem again! [112]",
		"ValueStrKey": ""
	},
	{
		"ID": 113,
		"Value": "Sorry, your channel does not support redemption of this Gift Pack! [113]",
		"ValueStrKey": ""
	},
	{
		"ID": 114,
		"Value": "The Gift Pack Code has been used! [114]",
		"ValueStrKey": ""
	},
	{
		"ID": 115,
		"Value": "Congrats, exchange successful!",
		"ValueStrKey": ""
	},
	{
		"ID": 116,
		"Value": "Exchange failed, please try later [116]",
		"ValueStrKey": ""
	},
	{
		"ID": 117,
		"Value": "(Carried {0}/{1})",
		"ValueStrKey": ""
	},
	{
		"ID": 118,
		"Value": "{0} pcs.",
		"ValueStrKey": ""
	},
	{
		"ID": 119,
		"Value": "Own <color=#BBE603FF>{0}</color> pcs.",
		"ValueStrKey": ""
	},
	{
		"ID": 120,
		"Value": "Required Hero Lv.:{0}",
		"ValueStrKey": ""
	},
	{
		"ID": 125,
		"Value": "Melee",
		"ValueStrKey": ""
	},
	{
		"ID": 126,
		"Value": "Ranged",
		"ValueStrKey": ""
	},
	{
		"ID": 127,
		"Value": "Stats",
		"ValueStrKey": ""
	},
	{
		"ID": 128,
		"Value": "Close",
		"ValueStrKey": ""
	},
	{
		"ID": 132,
		"Value": "Own <color=#BBE603FF>{0}</color> pcs.",
		"ValueStrKey": ""
	},
	{
		"ID": 133,
		"Value": "Common currency used on the continent. It's impossible to travel without it.",
		"ValueStrKey": ""
	},
	{
		"ID": 134,
		"Value": "Rare ore crystal with mysterious power. It is said to carry the power of both light and darkness.",
		"ValueStrKey": ""
	},
	{
		"ID": 135,
		"Value": "Stamina is consumed in all gameplay modes and will be recovered over time.",
		"ValueStrKey": ""
	},
	{
		"ID": 136,
		"Value": "A mandatory clearance pass for entering the Arena. Only the owner can enter Arena battles.",
		"ValueStrKey": ""
	},
	{
		"ID": 137,
		"Value": "You can get Honor Coins in the Arena and use them to buy items in the Honor Store.",
		"ValueStrKey": ""
	},
	{
		"ID": 138,
		"Value": "Points used to enhance Team Lv. The Hero's Lv. cap will increase as Team Lv. goes up.",
		"ValueStrKey": ""
	},
	{
		"ID": 139,
		"Value": "Gold",
		"ValueStrKey": ""
	},
	{
		"ID": 140,
		"Value": "Trinity Crystal",
		"ValueStrKey": ""
	},
	{
		"ID": 141,
		"Value": "Stamina",
		"ValueStrKey": ""
	},
	{
		"ID": 142,
		"Value": "Arena Ticket",
		"ValueStrKey": ""
	},
	{
		"ID": 143,
		"Value": "Honor Points",
		"ValueStrKey": ""
	},
	{
		"ID": 144,
		"Value": "Team EXP",
		"ValueStrKey": ""
	},
	{
		"ID": 145,
		"Value": "Day(s)",
		"ValueStrKey": ""
	},
	{
		"ID": 146,
		"Value": "h",
		"ValueStrKey": ""
	},
	{
		"ID": 147,
		"Value": "Min.",
		"ValueStrKey": ""
	},
	{
		"ID": 148,
		"Value": "Sec.",
		"ValueStrKey": ""
	},
	{
		"ID": 149,
		"Value": "Point(s)",
		"ValueStrKey": ""
	},
	{
		"ID": 150,
		"Value": "<1 hour",
		"ValueStrKey": ""
	},
	{
		"ID": 151,
		"Value": "{0} h ago",
		"ValueStrKey": ""
	},
	{
		"ID": 152,
		"Value": "{0} Day(s)",
		"ValueStrKey": ""
	},
	{
		"ID": 153,
		"Value": "Special",
		"ValueStrKey": ""
	},
	{
		"ID": 154,
		"Value": "Every ounce of friendship will be in your heart forever.",
		"ValueStrKey": ""
	},
	{
		"ID": 155,
		"Value": "Friendship Points",
		"ValueStrKey": ""
	},
	{
		"ID": 156,
		"Value": "You can buy Hero or Soldier skins in the Store.",
		"ValueStrKey": ""
	},
	{
		"ID": 157,
		"Value": "Skin Voucher",
		"ValueStrKey": ""
	},
	{
		"ID": 158,
		"Value": "Full of heroic memories, pure Light Essence which can be used in the Memory Store.",
		"ValueStrKey": ""
	},
	{
		"ID": 159,
		"Value": "Memory Essence",
		"ValueStrKey": ""
	},
	{
		"ID": 160,
		"Value": "Online",
		"ValueStrKey": ""
	},
	{
		"ID": 161,
		"Value": "{0} minutes ago",
		"ValueStrKey": ""
	},
	{
		"ID": 162,
		"Value": "Currency used by weapon merchants, formed by dismantled SR equipment.",
		"ValueStrKey": ""
	},
	{
		"ID": 163,
		"Value": "Mithril Ore",
		"ValueStrKey": ""
	},
	{
		"ID": 164,
		"Value": "Legendary forging material obtained through dismantling SSR equipment.",
		"ValueStrKey": ""
	},
	{
		"ID": 165,
		"Value": "Orichalcum Ore",
		"ValueStrKey": ""
	},
	{
		"ID": 166,
		"Value": "Day {0}",
		"ValueStrKey": ""
	},
	{
		"ID": 167,
		"Value": "Guild Medal",
		"ValueStrKey": ""
	},
	{
		"ID": 168,
		"Value": "Guild medal commemorating a guild's achievements. Can be used in the Guild Store.",
		"ValueStrKey": ""
	},
	{
		"ID": 169,
		"Value": "None",
		"ValueStrKey": ""
	},
	{
		"ID": 170,
		"Value": "Challenge Points",
		"ValueStrKey": ""
	},
	{
		"ID": 171,
		"Value": "Can be obtained from the Secret Realm Challenge Event and Limited-Time Events. Can be exchanged for equipment and items in the Secret Realm Store.",
		"ValueStrKey": ""
	},
	{
		"ID": 172,
		"Value": "Outfit Points",
		"ValueStrKey": ""
	},
	{
		"ID": 173,
		"Value": "Can be obtained from the Secret Realm Challenge Event and Limited-Time Events. Can be exchanged for skins in the Secret Realm Store.",
		"ValueStrKey": ""
	},
	{
		"ID": 200,
		"Value": "{0} unlocked!",
		"ValueStrKey": ""
	},
	{
		"ID": 201,
		"Value": "Unlock Requirements: Reach Lv. <color=#FF0000FF>{0}</color>.\n<color=#800000FF> Tip: You can enhance your Team Lv. In the <color=#FF0000FF>[Time Rift]</color>.</color>",
		"ValueStrKey": ""
	},
	{
		"ID": 202,
		"Value": "Unlock Requirements: Complete Time Rift <color=#FF0000FF>{0}</color>",
		"ValueStrKey": ""
	},
	{
		"ID": 203,
		"Value": "Main Story {0}",
		"ValueStrKey": ""
	},
	{
		"ID": 210,
		"Value": "Reach Lv. {0}.",
		"ValueStrKey": ""
	},
	{
		"ID": 211,
		"Value": "Complete <color=#DC143C>Main Story {0}</color>",
		"ValueStrKey": ""
	},
	{
		"ID": 212,
		"Value": "Unlock <color=#DC143C>{0}</color> Level Feat:<color=#DC143C>{1}</color>",
		"ValueStrKey": ""
	},
	{
		"ID": 213,
		"Value": "Own {0}",
		"ValueStrKey": ""
	},
	{
		"ID": 214,
		"Value": "Complete {0}",
		"ValueStrKey": ""
	},
	{
		"ID": 215,
		"Value": "Reach Lv. {0} Intimacy to unlock!",
		"ValueStrKey": ""
	},
	{
		"ID": 220,
		"Value": "Available when you complete the level for the first time",
		"ValueStrKey": ""
	},
	{
		"ID": 221,
		"Value": "May Drop",
		"ValueStrKey": ""
	},
	{
		"ID": 230,
		"Value": "Complete within {0} turns",
		"ValueStrKey": ""
	},
	{
		"ID": 231,
		"Value": "No more than {0} persons sacrificed",
		"ValueStrKey": ""
	},
	{
		"ID": 232,
		"Value": "No more than {0} persons sacrificed",
		"ValueStrKey": ""
	},
	{
		"ID": 233,
		"Value": "No 3-star requirements",
		"ValueStrKey": ""
	},
	{
		"ID": 234,
		"Value": "Cannot withdraw units!",
		"ValueStrKey": ""
	},
	{
		"ID": 240,
		"Value": "Gatekeeper",
		"ValueStrKey": ""
	},
	{
		"ID": 241,
		"Value": "Attack",
		"ValueStrKey": ""
	},
	{
		"ID": 242,
		"Value": "Defense",
		"ValueStrKey": ""
	},
	{
		"ID": 243,
		"Value": "Vengeance",
		"ValueStrKey": ""
	},
	{
		"ID": 244,
		"Value": "Win",
		"ValueStrKey": ""
	},
	{
		"ID": 245,
		"Value": "Lose",
		"ValueStrKey": ""
	},
	{
		"ID": 246,
		"Value": "{0}<color=#FFFFFFFF>/{1}</color>",
		"ValueStrKey": ""
	},
	{
		"ID": 247,
		"Value": "{0}<color=#FFFFFFFF>/{1}</color>",
		"ValueStrKey": ""
	},
	{
		"ID": 248,
		"Value": "You've exceeded {0} points and have qualified for a rank up match! Win a certain number of ranked matches to rank up!",
		"ValueStrKey": ""
	},
	{
		"ID": 249,
		"Value": "You've sought revenge on this opponent.",
		"ValueStrKey": ""
	},
	{
		"ID": 250,
		"Value": "Refreshes in {0}:{1:d2}:{2:d2}",
		"ValueStrKey": ""
	},
	{
		"ID": 251,
		"Value": "Below {0}",
		"ValueStrKey": ""
	},
	{
		"ID": 252,
		"Value": "<color=#C9C9C9FF>{0}%</color>",
		"ValueStrKey": ""
	},
	{
		"ID": 253,
		"Value": "<color=#00FF00FF>{0}%</color>",
		"ValueStrKey": ""
	},
	{
		"ID": 254,
		"Value": "<color=#FF5A00FF>{0}%</color>",
		"ValueStrKey": ""
	},
	{
		"ID": 255,
		"Value": "Please deploy heroes, or defense will be unavailable!",
		"ValueStrKey": ""
	},
	{
		"ID": 256,
		"Value": "Unknown",
		"ValueStrKey": ""
	},
	{
		"ID": 257,
		"Value": "Congrats! Ranked up to {0}!",
		"ValueStrKey": ""
	},
	{
		"ID": 258,
		"Value": "No ranking!",
		"ValueStrKey": ""
	},
	{
		"ID": 259,
		"Value": "Battle Report expired, unable to play.",
		"ValueStrKey": ""
	},
	{
		"ID": 260,
		"Value": "Every Monday to Friday\n12:00-13:00\n19:00-21:00",
		"ValueStrKey": ""
	},
	{
		"ID": 261,
		"Value": "Tier rewards are sent via mail at 23:30 every day.",
		"ValueStrKey": ""
	},
	{
		"ID": 262,
		"Value": "Errors may occur during battle report playback if you do not first update the game version. Are you sure you want to play?",
		"ValueStrKey": ""
	},
	{
		"ID": 300,
		"Value": "Are you sure you want to leave the auto-matching queue?",
		"ValueStrKey": ""
	},
	{
		"ID": 301,
		"Value": "Approx. {0} players in front of you",
		"ValueStrKey": ""
	},
	{
		"ID": 302,
		"Value": "All",
		"ValueStrKey": ""
	},
	{
		"ID": 303,
		"Value": "All",
		"ValueStrKey": ""
	},
	{
		"ID": 304,
		"Value": "Everyone",
		"ValueStrKey": ""
	},
	{
		"ID": 305,
		"Value": "Only Friends and Guilds",
		"ValueStrKey": ""
	},
	{
		"ID": 306,
		"Value": "Private (invitation only)",
		"ValueStrKey": ""
	},
	{
		"ID": 307,
		"Value": "Only the leader can change Privacy settings!",
		"ValueStrKey": ""
	},
	{
		"ID": 308,
		"Value": "Start Automatic Matching",
		"ValueStrKey": ""
	},
	{
		"ID": 309,
		"Value": "Online Friends",
		"ValueStrKey": ""
	},
	{
		"ID": 310,
		"Value": "Recent Teammates",
		"ValueStrKey": ""
	},
	{
		"ID": 311,
		"Value": "{0} is busy and didn't accept, or your group is full.",
		"ValueStrKey": ""
	},
	{
		"ID": 312,
		"Value": "Invite teammates for another battle?",
		"ValueStrKey": ""
	},
	{
		"ID": 313,
		"Value": "In team battles, you can only change Heroes on the battlefield.",
		"ValueStrKey": ""
	},
	{
		"ID": 314,
		"Value": "Unable to change teammate's battlefield position.",
		"ValueStrKey": ""
	},
	{
		"ID": 315,
		"Value": "{0:D2} minute(s) {1:D2} second(s)",
		"ValueStrKey": ""
	},
	{
		"ID": 316,
		"Value": "Invite teammates for another battle?",
		"ValueStrKey": ""
	},
	{
		"ID": 317,
		"Value": "Gameplay mode unavailable!",
		"ValueStrKey": ""
	},
	{
		"ID": 318,
		"Value": "The unlock requirements for this level have not been met yet.",
		"ValueStrKey": ""
	},
	{
		"ID": 319,
		"Value": "Team does not exist!",
		"ValueStrKey": ""
	},
	{
		"ID": 320,
		"Value": "Level has not been unlocked yet!",
		"ValueStrKey": ""
	},
	{
		"ID": 321,
		"Value": "Unable to change enemy's battlefield position.",
		"ValueStrKey": ""
	},
	{
		"ID": 322,
		"Value": "Target player has not unlocked the level yet.",
		"ValueStrKey": ""
	},
	{
		"ID": 323,
		"Value": "{0} has left the battle.",
		"ValueStrKey": ""
	},
	{
		"ID": 324,
		"Value": "Target player has not unlocked the level yet.",
		"ValueStrKey": ""
	},
	{
		"ID": 325,
		"Value": "This player cannot use this hero today!",
		"ValueStrKey": ""
	},
	{
		"ID": 326,
		"Value": "The captain timed out!",
		"ValueStrKey": ""
	},
	{
		"ID": 327,
		"Value": "Removed from the guild!",
		"ValueStrKey": ""
	},
	{
		"ID": 328,
		"Value": "Guild Battle has already finished!",
		"ValueStrKey": ""
	},
	{
		"ID": 330,
		"Value": "Opponent has left the battle.",
		"ValueStrKey": ""
	},
	{
		"ID": 331,
		"Value": "Only heroes on the battlefield can be changed.",
		"ValueStrKey": ""
	},
	{
		"ID": 400,
		"Value": "Search terms cannot be left blank!",
		"ValueStrKey": ""
	},
	{
		"ID": 401,
		"Value": "Wrong server selected!",
		"ValueStrKey": ""
	},
	{
		"ID": 402,
		"Value": "Friend invitation sent successfully!",
		"ValueStrKey": ""
	},
	{
		"ID": 403,
		"Value": "Are you sure you want to delete {0}?",
		"ValueStrKey": ""
	},
	{
		"ID": 404,
		"Value": "Friend deleted successfully!",
		"ValueStrKey": ""
	},
	{
		"ID": 405,
		"Value": "Are you sure you want to unblock this player?",
		"ValueStrKey": ""
	},
	{
		"ID": 406,
		"Value": "Unblocked successfully!",
		"ValueStrKey": ""
	},
	{
		"ID": 407,
		"Value": "Friendly Match Invitation",
		"ValueStrKey": ""
	},
	{
		"ID": 408,
		"Value": "Player might be busy now and has declined your invitation!",
		"ValueStrKey": ""
	},
	{
		"ID": 409,
		"Value": "Invite at least 2 players",
		"ValueStrKey": ""
	},
	{
		"ID": 410,
		"Value": "0 players invited",
		"ValueStrKey": ""
	},
	{
		"ID": 411,
		"Value": "You can't give any more Friendship Points today.",
		"ValueStrKey": ""
	},
	{
		"ID": 412,
		"Value": "Friendship points already given to player!",
		"ValueStrKey": ""
	},
	{
		"ID": 413,
		"Value": "You can't invite any more players!",
		"ValueStrKey": ""
	},
	{
		"ID": 414,
		"Value": "Friend already in group!",
		"ValueStrKey": ""
	},
	{
		"ID": 415,
		"Value": "{0} players online",
		"ValueStrKey": ""
	},
	{
		"ID": 416,
		"Value": "Added player to block list!",
		"ValueStrKey": ""
	},
	{
		"ID": 417,
		"Value": "Leave group {0}?",
		"ValueStrKey": ""
	},
	{
		"ID": 418,
		"Value": "Left group {0} successfully.",
		"ValueStrKey": ""
	},
	{
		"ID": 419,
		"Value": "Remove {0} from the group?",
		"ValueStrKey": ""
	},
	{
		"ID": 420,
		"Value": "{0} removed from the group.",
		"ValueStrKey": ""
	},
	{
		"ID": 421,
		"Value": "Friendship Points given successfully!",
		"ValueStrKey": ""
	},
	{
		"ID": 422,
		"Value": "Received {0} Friendship Point(s)!",
		"ValueStrKey": ""
	},
	{
		"ID": 423,
		"Value": "{0} has accepted your friend request!",
		"ValueStrKey": ""
	},
	{
		"ID": 424,
		"Value": "Group created successfully!",
		"ValueStrKey": ""
	},
	{
		"ID": 425,
		"Value": "Less than 2 players in the group {0}. Group disbanded!",
		"ValueStrKey": ""
	},
	{
		"ID": 426,
		"Value": "{0} cannot add any more friends!",
		"ValueStrKey": ""
	},
	{
		"ID": 427,
		"Value": "{0} is already your friend.",
		"ValueStrKey": ""
	},
	{
		"ID": 428,
		"Value": "{0} has been blocked!",
		"ValueStrKey": ""
	},
	{
		"ID": 429,
		"Value": "{0} has blocked you! Cannot invite!",
		"ValueStrKey": ""
	},
	{
		"ID": 430,
		"Value": "You've been invited by {0}.",
		"ValueStrKey": ""
	},
	{
		"ID": 431,
		"Value": "{0} has blocked you! Unable to become friends.",
		"ValueStrKey": ""
	},
	{
		"ID": 432,
		"Value": "Group contains up to {0} players.",
		"ValueStrKey": ""
	},
	{
		"ID": 433,
		"Value": "Group {0} has reached the limit.",
		"ValueStrKey": ""
	},
	{
		"ID": 434,
		"Value": "New Group",
		"ValueStrKey": ""
	},
	{
		"ID": 500,
		"Value": "Event Time: {0}.{1} {2:D2}:{3:D2}-{4}.{5} {6:D2}:{7:D2}",
		"ValueStrKey": ""
	},
	{
		"ID": 501,
		"Value": "{0} day(s) left until the end of the event",
		"ValueStrKey": ""
	},
	{
		"ID": 502,
		"Value": "{0} h left until the end of the event",
		"ValueStrKey": ""
	},
	{
		"ID": 503,
		"Value": "{0} min. left till until the end of the event",
		"ValueStrKey": ""
	},
	{
		"ID": 504,
		"Value": "Event has not started yet, unable to join.",
		"ValueStrKey": ""
	},
	{
		"ID": 505,
		"Value": "Remaining Today: <color=#BBE603FF>{0}</color> chance(s)",
		"ValueStrKey": ""
	},
	{
		"ID": 600,
		"Value": "<color=#F94E30FF>{0}</color>",
		"ValueStrKey": ""
	},
	{
		"ID": 601,
		"Value": "{0}",
		"ValueStrKey": ""
	},
	{
		"ID": 602,
		"Value": "Insufficient chances!",
		"ValueStrKey": ""
	},
	{
		"ID": 603,
		"Value": "Round {0}",
		"ValueStrKey": ""
	},
	{
		"ID": 604,
		"Value": "My Attack",
		"ValueStrKey": ""
	},
	{
		"ID": 605,
		"Value": "Ally's Attack",
		"ValueStrKey": ""
	},
	{
		"ID": 606,
		"Value": "Enemy Action",
		"ValueStrKey": ""
	},
	{
		"ID": 607,
		"Value": "Round {0}",
		"ValueStrKey": ""
	},
	{
		"ID": 700,
		"Value": "Logging in...",
		"ValueStrKey": ""
	},
	{
		"ID": 701,
		"Value": "Login Failed",
		"ValueStrKey": ""
	},
	{
		"ID": 702,
		"Value": "Server [{0}] under maintenance! Retry later!",
		"ValueStrKey": ""
	},
	{
		"ID": 703,
		"Value": "{3}:{4}, {1} {2}, {0}(GMT-6)",
		"ValueStrKey": ""
	},
	{
		"ID": 704,
		"Value": "Server [{0}] will open at {1}! Please be patient!",
		"ValueStrKey": ""
	},
	{
		"ID": 705,
		"Value": "Commander, this server is full now! Please try again later!",
		"ValueStrKey": ""
	},
	{
		"ID": 706,
		"Value": "Current server is full! Choose another one to log in, Commander!",
		"ValueStrKey": ""
	},
	{
		"ID": 707,
		"Value": "Today",
		"ValueStrKey": ""
	},
	{
		"ID": 708,
		"Value": "{0} Day(s)",
		"ValueStrKey": ""
	},
	{
		"ID": 709,
		"Value": "A month ago",
		"ValueStrKey": ""
	},
	{
		"ID": 710,
		"Value": "Logged in successfully!",
		"ValueStrKey": ""
	},
	{
		"ID": 711,
		"Value": "Failed to log in!",
		"ValueStrKey": ""
	},
	{
		"ID": 712,
		"Value": "Logging in canceled!",
		"ValueStrKey": ""
	},
	{
		"ID": 800,
		"Value": "No event found!",
		"ValueStrKey": ""
	},
	{
		"ID": 801,
		"Value": "Current questionnaire has expired. Please wait for the next questionnaire... Many rewards are waiting for you!",
		"ValueStrKey": ""
	},
	{
		"ID": 802,
		"Value": "You have participated in the questionnaire. Thanks for your support!",
		"ValueStrKey": ""
	},
	{
		"ID": 803,
		"Value": "Team must reach Lv. {0} to join!",
		"ValueStrKey": ""
	},
	{
		"ID": 804,
		"Value": "Choose {0} skin(s).",
		"ValueStrKey": ""
	},
	{
		"ID": 1014,
		"Value": "Insufficient Skill Points!",
		"ValueStrKey": ""
	},
	{
		"ID": 1016,
		"Value": "Skip dialog?",
		"ValueStrKey": ""
	},
	{
		"ID": 1017,
		"Value": "Hero level has reached the cap! Please upgrade the team!",
		"ValueStrKey": ""
	},
	{
		"ID": 1018,
		"Value": "Hero Summon costs {0} Gold. Do you want to continue?",
		"ValueStrKey": ""
	},
	{
		"ID": 1020,
		"Value": "Not available today! Change your posture to sweat even more! Build up those muscles!",
		"ValueStrKey": ""
	},
	{
		"ID": 1021,
		"Value": "Hey! Your body can't take the weights on this level! You need to work out more!",
		"ValueStrKey": ""
	},
	{
		"ID": 1022,
		"Value": "This difficulty is not available.",
		"ValueStrKey": ""
	},
	{
		"ID": 1023,
		"Value": "Number of equipped skills has reached the limit! Unable to equip more skills!",
		"ValueStrKey": ""
	},
	{
		"ID": 1024,
		"Value": "Current class cannot equip this skill.",
		"ValueStrKey": ""
	},
	{
		"ID": 1025,
		"Value": "Stars have reached the limit!",
		"ValueStrKey": ""
	},
	{
		"ID": 1026,
		"Value": "Next Upgrade Preview",
		"ValueStrKey": ""
	},
	{
		"ID": 1027,
		"Value": "You haven't received this soldier yet.",
		"ValueStrKey": ""
	},
	{
		"ID": 1028,
		"Value": "{0} pcs. owned ({1} pcs. required)",
		"ValueStrKey": ""
	},
	{
		"ID": 1029,
		"Value": "This is the current class.",
		"ValueStrKey": ""
	},
	{
		"ID": 1030,
		"Value": "No feats for this level!",
		"ValueStrKey": ""
	},
	{
		"ID": 1035,
		"Value": "Cannot add more materials.",
		"ValueStrKey": ""
	},
	{
		"ID": 1036,
		"Value": "This equipment cannot be forged.",
		"ValueStrKey": ""
	},
	{
		"ID": 1037,
		"Value": "No alternative equipment for this position.",
		"ValueStrKey": ""
	},
	{
		"ID": 1042,
		"Value": "Equipment successfully equipped!",
		"ValueStrKey": ""
	},
	{
		"ID": 1044,
		"Value": "Quit game?",
		"ValueStrKey": ""
	},
	{
		"ID": 1050,
		"Value": "Intimacy must reach Lv. {0} to unlock.",
		"ValueStrKey": ""
	},
	{
		"ID": 1051,
		"Value": "Hero Bio",
		"ValueStrKey": ""
	},
	{
		"ID": 1052,
		"Value": "Voice",
		"ValueStrKey": ""
	},
	{
		"ID": 1053,
		"Value": "Gate of Fate",
		"ValueStrKey": ""
	},
	{
		"ID": 1054,
		"Value": "Bond",
		"ValueStrKey": ""
	},
	{
		"ID": 1055,
		"Value": "Complete previous stage to unlock!",
		"ValueStrKey": ""
	},
	{
		"ID": 1056,
		"Value": "Reach Lv. {0} to unlock",
		"ValueStrKey": ""
	},
	{
		"ID": 1057,
		"Value": "Comment cannot be blank!",
		"ValueStrKey": ""
	},
	{
		"ID": 1058,
		"Value": "Unlocks at Intimacy Lv. {0}",
		"ValueStrKey": ""
	},
	{
		"ID": 1059,
		"Value": "Lv.{1} {0}",
		"ValueStrKey": ""
	},
	{
		"ID": 1060,
		"Value": "Not Available",
		"ValueStrKey": ""
	},
	{
		"ID": 1061,
		"Value": "Unlocks at Lv.{0}",
		"ValueStrKey": ""
	},
	{
		"ID": 1062,
		"Value": "Liked",
		"ValueStrKey": ""
	},
	{
		"ID": 1063,
		"Value": "Training Field locked!",
		"ValueStrKey": ""
	},
	{
		"ID": 1064,
		"Value": "3 Heroes Selected",
		"ValueStrKey": ""
	},
	{
		"ID": 1065,
		"Value": "Coaching! Unable to select!",
		"ValueStrKey": ""
	},
	{
		"ID": 1066,
		"Value": "Player must reach Lv. {0} to unlock!",
		"ValueStrKey": ""
	},
	{
		"ID": 1067,
		"Value": "Complete the 1st Level \"{0}\" in Aniki's Gym to unlock.",
		"ValueStrKey": ""
	},
	{
		"ID": 1068,
		"Value": "Select Enchant Scroll",
		"ValueStrKey": ""
	},
	{
		"ID": 1069,
		"Value": "Insufficient Enchant Scrolls!",
		"ValueStrKey": ""
	},
	{
		"ID": 1070,
		"Value": "Hero Lv. Limited",
		"ValueStrKey": ""
	},
	{
		"ID": 1071,
		"Value": "<color=#a52a2aff>Please level up your team.</color> All EXP Potions used after this will go to waste. Do you want to continue?",
		"ValueStrKey": ""
	},
	{
		"ID": 1072,
		"Value": "Mission is not available yet.",
		"ValueStrKey": ""
	},
	{
		"ID": 1073,
		"Value": "Event \"Path of Light\" has ended. Thank you for your participation.",
		"ValueStrKey": ""
	},
	{
		"ID": 1074,
		"Value": "Stop Consignment",
		"ValueStrKey": ""
	},
	{
		"ID": 1075,
		"Value": "Confession not available yet, please wait.",
		"ValueStrKey": ""
	},
	{
		"ID": 1077,
		"Value": "{0}'s Gate of Fate is not available yet.",
		"ValueStrKey": ""
	},
	{
		"ID": 1078,
		"Value": "{0}'s Intimacy reaches Lv. {1}",
		"ValueStrKey": ""
	},
	{
		"ID": 1079,
		"Value": "Strengthening materials contain <color=red>SR</color>-class equipment or above. Do you want to continue?",
		"ValueStrKey": ""
	},
	{
		"ID": 1080,
		"Value": "Strengthen EXP Overflow Warning",
		"ValueStrKey": ""
	},
	{
		"ID": 1081,
		"Value": "Equipment EXP will overflow if you continue. All extra EXP will go to waste. Continue?",
		"ValueStrKey": ""
	},
	{
		"ID": 1082,
		"Value": "Insufficient Trinity Vouchers\nSpend <color=green>{0} Trinity Crystals</color> to buy <color=green>{1} Trinity Vouchers</color>. \nDo you want to continue?",
		"ValueStrKey": ""
	},
	{
		"ID": 1083,
		"Value": "Insufficient Trinity Vouchers and Trinity Crystals. Do you want to buy more?",
		"ValueStrKey": ""
	},
	{
		"ID": 1084,
		"Value": "Insufficient Skin Vouchers. Do you want to buy some in the store?",
		"ValueStrKey": ""
	},
	{
		"ID": 1085,
		"Value": "Can be used with all classes.",
		"ValueStrKey": ""
	},
	{
		"ID": 1086,
		"Value": "All strengthening Gold and Crafter's Hammers are returned after transmuting.",
		"ValueStrKey": ""
	},
	{
		"ID": 1087,
		"Value": "Replace battle skins at the same time?",
		"ValueStrKey": ""
	},
	{
		"ID": 1088,
		"Value": "Replace portrait skin at the same time?",
		"ValueStrKey": ""
	},
	{
		"ID": 1089,
		"Value": "The Resurgence event is over. Thanks for taking part!",
		"ValueStrKey": ""
	},
	{
		"ID": 1090,
		"Value": "Would you like to spend {0} Trinity Vouchers to summon once?",
		"ValueStrKey": ""
	},
	{
		"ID": 1100,
		"Value": "Select a unit in range.",
		"ValueStrKey": ""
	},
	{
		"ID": 1101,
		"Value": "Select a block in range.",
		"ValueStrKey": ""
	},
	{
		"ID": 1102,
		"Value": "Use this skill here?",
		"ValueStrKey": ""
	},
	{
		"ID": 1103,
		"Value": "Select a position for teleportation.",
		"ValueStrKey": ""
	},
	{
		"ID": 1104,
		"Value": "Skill is cooling down! Unable to use!",
		"ValueStrKey": ""
	},
	{
		"ID": 1105,
		"Value": "Please deploy heroes or you won't be able to fight!",
		"ValueStrKey": ""
	},
	{
		"ID": 1106,
		"Value": "Dear Commander, more units can fight for you! Is this really the best formation?",
		"ValueStrKey": ""
	},
	{
		"ID": 1107,
		"Value": "Some units haven't attacked yet! Are you sure you want to end this turn?",
		"ValueStrKey": ""
	},
	{
		"ID": 1108,
		"Value": "Are you sure you want to leave this battle?",
		"ValueStrKey": ""
	},
	{
		"ID": 1109,
		"Value": "You've been muted and are unable to use skills.",
		"ValueStrKey": ""
	},
	{
		"ID": 1110,
		"Value": "This character cannot be changed.",
		"ValueStrKey": ""
	},
	{
		"ID": 1111,
		"Value": "Characters forced to enter the battlefield cannot be changed.",
		"ValueStrKey": ""
	},
	{
		"ID": 1112,
		"Value": "This is a passive skill.\nPress and hold the skill for further details.",
		"ValueStrKey": ""
	},
	{
		"ID": 1113,
		"Value": "Retreat will count as a loss, and will cost you an Arena Ticket. Are you sure you want to leave the battle?",
		"ValueStrKey": ""
	},
	{
		"ID": 1114,
		"Value": "You can't add more units to the battlefield.",
		"ValueStrKey": ""
	},
	{
		"ID": 1115,
		"Value": "Unable to command your units in auto-battle mode.",
		"ValueStrKey": ""
	},
	{
		"ID": 1116,
		"Value": "Attacker ran away!",
		"ValueStrKey": ""
	},
	{
		"ID": 1117,
		"Value": "Sorry! There are no strategies for this battle!\n\nTo get more tips for this battle, you can participate in the discussion in the Langrisser community!\nYou can also contribute your strategies in exchange for rich rewards!",
		"ValueStrKey": ""
	},
	{
		"ID": 1118,
		"Value": "You will lose <color=red>{0}</color> Stamina if you leave the battle. Do you want to continue?",
		"ValueStrKey": ""
	},
	{
		"ID": 1119,
		"Value": "Retreat will count as a loss, and will cost you points. Are you sure you want to leave the battle?",
		"ValueStrKey": ""
	},
	{
		"ID": 1120,
		"Value": "Unable to deploy more heroes!",
		"ValueStrKey": ""
	},
	{
		"ID": 1121,
		"Value": "{0} ran away!",
		"ValueStrKey": ""
	},
	{
		"ID": 1122,
		"Value": "Unable to withdraw protected heroes!",
		"ValueStrKey": ""
	},
	{
		"ID": 1123,
		"Value": "Re-connected to battle!",
		"ValueStrKey": ""
	},
	{
		"ID": 1124,
		"Value": "You will lose <color=red>{0}</color> Stamina if you leave the battle. Treasure keys will not be returned. Do you want to continue?",
		"ValueStrKey": ""
	},
	{
		"ID": 1125,
		"Value": "Left the battle!",
		"ValueStrKey": ""
	},
	{
		"ID": 1126,
		"Value": "(Hero Rewards {0}%)",
		"ValueStrKey": ""
	},
	{
		"ID": 1127,
		"Value": "(Daily Rewards {0}%)",
		"ValueStrKey": ""
	},
	{
		"ID": 1128,
		"Value": "(Daily Rewards {0}%, Hero Rewards {1}%)",
		"ValueStrKey": ""
	},
	{
		"ID": 1129,
		"Value": "You must select at least one hero!",
		"ValueStrKey": ""
	},
	{
		"ID": 1130,
		"Value": "<color=red>You won't get any </color>Guild Points if you retreat, and any heroes that fought in this battle will be <color=red>unable to join a battle again</color> for the rest of the day. \nAre you sure you want to retreat?",
		"ValueStrKey": ""
	},
	{
		"ID": 1131,
		"Value": "+{0} + {1} (Total Annihilation Points)",
		"ValueStrKey": ""
	},
	{
		"ID": 1132,
		"Value": "<color=red>Defeated!</color> Would you like to use your Clock of Forgiveness?",
		"ValueStrKey": ""
	},
	{
		"ID": 1133,
		"Value": "Time Laws",
		"ValueStrKey": ""
	},
	{
		"ID": 1134,
		"Value": "Power UP",
		"ValueStrKey": ""
	},
	{
		"ID": 1135,
		"Value": "Heroes of the specified allegiance gain a 40% bonus to all stats.",
		"ValueStrKey": ""
	},
	{
		"ID": 1136,
		"Value": "Select skill direction",
		"ValueStrKey": ""
	},
	{
		"ID": 1137,
		"Value": "Received Daily Bonus!",
		"ValueStrKey": ""
	},
	{
		"ID": 1138,
		"Value": "Obtain Extra Reward",
		"ValueStrKey": ""
	},
	{
		"ID": 1139,
		"Value": "Cannot reconnect to battle!",
		"ValueStrKey": ""
	},
	{
		"ID": 1140,
		"Value": "Retreat will count as a loss, and will cost you points. Are you sure you want to leave the battle?",
		"ValueStrKey": ""
	},
	{
		"ID": 1141,
		"Value": "Retreating will count as a loss. Are you sure you want to exit the battle?",
		"ValueStrKey": ""
	},
	{
		"ID": 1142,
		"Value": "Are you sure you want to leave this battle?",
		"ValueStrKey": ""
	},
	{
		"ID": 1143,
		"Value": "Withdrawing will result in a defeat for this match. Are you sure you want to withdraw?",
		"ValueStrKey": ""
	},
	{
		"ID": 1144,
		"Value": "Retreat will count as a loss, and will cost you points. Are you sure you want to leave the battle?",
		"ValueStrKey": ""
	},
	{
		"ID": 1145,
		"Value": "Retreating will count as a loss. Are you sure you want to exit the battle?",
		"ValueStrKey": ""
	},
	{
		"ID": 1146,
		"Value": "Already exited arena battle!",
		"ValueStrKey": ""
	},
	{
		"ID": 1147,
		"Value": "Event has expired!",
		"ValueStrKey": ""
	},
	{
		"ID": 1148,
		"Value": "Round {0}",
		"ValueStrKey": ""
	},
	{
		"ID": 1149,
		"Value": "This is a Combination Skill. \nPress and hold the skill for further details.",
		"ValueStrKey": ""
	},
	{
		"ID": 1150,
		"Value": "Event has expired!",
		"ValueStrKey": ""
	},
	{
		"ID": 1151,
		"Value": "Are you sure you want to use Auto-battle?",
		"ValueStrKey": ""
	},
	{
		"ID": 1200,
		"Value": "Confirm",
		"ValueStrKey": ""
	},
	{
		"ID": 1201,
		"Value": "Cancel",
		"ValueStrKey": ""
	},
	{
		"ID": 1300,
		"Value": "When you pass the stage with the heroes recommended above, your event points will increase by <color=#B27A00FF>Recommended Hero (Deployed) Count x{0}%</color>",
		"ValueStrKey": ""
	},
	{
		"ID": 1301,
		"Value": "Completed",
		"ValueStrKey": ""
	},
	{
		"ID": 1302,
		"Value": "Opens in {0} days!",
		"ValueStrKey": ""
	},
	{
		"ID": 1303,
		"Value": "Previous stages must be challenged!",
		"ValueStrKey": ""
	},
	{
		"ID": 1304,
		"Value": "Monster Lv.:",
		"ValueStrKey": ""
	},
	{
		"ID": 1400,
		"Value": "Ultimate Rewards of Lv. {0} Trial",
		"ValueStrKey": ""
	},
	{
		"ID": 1401,
		"Value": "Already reached the trial mission commission level cap!",
		"ValueStrKey": ""
	},
	{
		"ID": 1402,
		"Value": "Mission has been reset!",
		"ValueStrKey": ""
	},
	{
		"ID": 1403,
		"Value": "Do you want to commission trials to {0}?",
		"ValueStrKey": ""
	},
	{
		"ID": 1500,
		"Value": "When using <color=red>Recommended Faction</color> heroes, they gain a <color=red>40%</color> <color=red>stat bonus</color>.",
		"ValueStrKey": ""
	},
	{
		"ID": 1600,
		"Value": "Plot",
		"ValueStrKey": ""
	},
	{
		"ID": 1601,
		"Value": "Challenge",
		"ValueStrKey": ""
	},
	{
		"ID": 1602,
		"Value": "Repeat",
		"ValueStrKey": ""
	},
	{
		"ID": 1603,
		"Value": "Opens in {0} days!",
		"ValueStrKey": ""
	},
	{
		"ID": 1604,
		"Value": "Completed",
		"ValueStrKey": ""
	},
	{
		"ID": 1605,
		"Value": "Previous stages must be challenged!",
		"ValueStrKey": ""
	},
	{
		"ID": 1606,
		"Value": "Latest Exchange Time: {0}.{1} {2:D2}:{3:D2}",
		"ValueStrKey": ""
	},
	{
		"ID": 1607,
		"Value": "First",
		"ValueStrKey": ""
	},
	{
		"ID": 1608,
		"Value": "Clear Level {0} to unlock",
		"ValueStrKey": ""
	},
	{
		"ID": 1609,
		"Value": "Unlocks in {0} days",
		"ValueStrKey": ""
	},
	{
		"ID": 1610,
		"Value": "Cannot team",
		"ValueStrKey": ""
	},
	{
		"ID": 1611,
		"Value": "When you pass the stage with the heroes recommended above, your event points will increase by <color=#B27A00FF>Recommended Hero (Deployed) Count x{0}%</color>",
		"ValueStrKey": ""
	},
	{
		"ID": 1612,
		"Value": "Exchange period is over!",
		"ValueStrKey": ""
	},
	{
		"ID": 1700,
		"Value": "Deploy {0} Hero(es).",
		"ValueStrKey": ""
	},
	{
		"ID": 1701,
		"Value": "Ban enemy Hero.",
		"ValueStrKey": ""
	},
	{
		"ID": 1702,
		"Value": "Wait for your opponent...",
		"ValueStrKey": ""
	},
	{
		"ID": 1703,
		"Value": "Waiting for opponent to block your Hero...",
		"ValueStrKey": ""
	},
	{
		"ID": 1704,
		"Value": "Adjust Hero Skills and Soldiers",
		"ValueStrKey": ""
	},
	{
		"ID": 1705,
		"Value": "Enter battle with {0} Heroes.",
		"ValueStrKey": ""
	},
	{
		"ID": 1706,
		"Value": "Ban {0} Heroes.",
		"ValueStrKey": ""
	},
	{
		"ID": 1707,
		"Value": "Both sides adjust their hero skills and soldier configurations.",
		"ValueStrKey": ""
	},
	{
		"ID": 2001,
		"Value": "<color=#B27A00FF>Recommended Hero (Deployed) Count x30%</color>",
		"ValueStrKey": ""
	},
	{
		"ID": 2002,
		"Value": "Unable to speak in this channel!",
		"ValueStrKey": ""
	},
	{
		"ID": 2003,
		"Value": "Team must reach Lv. {0} to speak.",
		"ValueStrKey": ""
	},
	{
		"ID": 2004,
		"Value": "You're speaking too quickly! Try to relax and speak later!",
		"ValueStrKey": ""
	},
	{
		"ID": 2005,
		"Value": "[ HH:mm ]",
		"ValueStrKey": ""
	},
	{
		"ID": 2006,
		"Value": "[ {0} h ago]",
		"ValueStrKey": ""
	},
	{
		"ID": 2007,
		"Value": "[ 1 day ago]",
		"ValueStrKey": ""
	},
	{
		"ID": 2008,
		"Value": "No available voice input device found.",
		"ValueStrKey": ""
	},
	{
		"ID": 2009,
		"Value": "You've been blacklisted!",
		"ValueStrKey": ""
	},
	{
		"ID": 2010,
		"Value": "<size=50>Unable to record.</size>\nPlease allow Langrisser to access your mic via Settings - Privacy - Microphone on your device.",
		"ValueStrKey": ""
	},
	{
		"ID": 2011,
		"Value": "<size=50>Unable to record.</size>\nPlease allow Langrisser to access your mic via Settings - Application - Langrisser - Privileges on your device!",
		"ValueStrKey": ""
	},
	{
		"ID": 2012,
		"Value": "Please join a Guild first!",
		"ValueStrKey": ""
	},
	{
		"ID": 2101,
		"Value": "Email expired, unable to receive.",
		"ValueStrKey": ""
	},
	{
		"ID": 2102,
		"Value": "Attachment claimed!",
		"ValueStrKey": ""
	},
	{
		"ID": 2103,
		"Value": "You don't have any mail!",
		"ValueStrKey": ""
	},
	{
		"ID": 2201,
		"Value": "Are you sure you want to close the suggestions window? You can't open it again afterwards!",
		"ValueStrKey": ""
	},
	{
		"ID": 2202,
		"Value": "Please input your suggestion.",
		"ValueStrKey": ""
	},
	{
		"ID": 3001,
		"Value": "{0}x{1}",
		"ValueStrKey": ""
	},
	{
		"ID": 3002,
		"Value": "Limit {0} Per Week ({1}/{0})",
		"ValueStrKey": ""
	},
	{
		"ID": 3003,
		"Value": "Can buy {1} time(s) in {0} day(s) ({2}/{1})",
		"ValueStrKey": ""
	},
	{
		"ID": 3004,
		"Value": "Limit {0} Per Month ({1}/{0})",
		"ValueStrKey": ""
	},
	{
		"ID": 3005,
		"Value": "Gifts for First Time Buyers",
		"ValueStrKey": ""
	},
	{
		"ID": 3006,
		"Value": "Will be taken out of stock in {0} day(s)",
		"ValueStrKey": ""
	},
	{
		"ID": 3007,
		"Value": "Can buy {0} time(s) ({1}/{0})",
		"ValueStrKey": ""
	},
	{
		"ID": 3008,
		"Value": "Refreshes in {0} day(s)",
		"ValueStrKey": ""
	},
	{
		"ID": 3009,
		"Value": "http://langrisser.zlongame.com/privacy.html",
		"ValueStrKey": ""
	},
	{
		"ID": 3010,
		"Value": "http://langrisser.zlongame.com/agreement.html",
		"ValueStrKey": ""
	},
	{
		"ID": 4001,
		"Value": "{0}'s Intimacy",
		"ValueStrKey": ""
	},
	{
		"ID": 4002,
		"Value": "Intimacy {0} unlocked!",
		"ValueStrKey": ""
	},
	{
		"ID": 5001,
		"Value": "Ver: {0}",
		"ValueStrKey": ""
	},
	{
		"ID": 5002,
		"Value": "Failed to connect to server!",
		"ValueStrKey": ""
	},
	{
		"ID": 5003,
		"Value": "Username or password error!",
		"ValueStrKey": ""
	},
	{
		"ID": 5004,
		"Value": "Account is banned!",
		"ValueStrKey": ""
	},
	{
		"ID": 5005,
		"Value": "Incorrect client version, please update.",
		"ValueStrKey": ""
	},
	{
		"ID": 5006,
		"Value": "Failed to download announcement!",
		"ValueStrKey": ""
	},
	{
		"ID": 5007,
		"Value": "Failed to download server list!",
		"ValueStrKey": ""
	},
	{
		"ID": 5008,
		"Value": "Disconnected from server!",
		"ValueStrKey": ""
	},
	{
		"ID": 5009,
		"Value": "Disconnected from server.",
		"ValueStrKey": ""
	},
	{
		"ID": 5010,
		"Value": "Game has been updated, please restart your client. Sorry for the inconvenience.",
		"ValueStrKey": ""
	},
	{
		"ID": 5011,
		"Value": "Your account has logged in on another device!",
		"ValueStrKey": ""
	},
	{
		"ID": 5020,
		"Value": "Creating main account...",
		"ValueStrKey": ""
	},
	{
		"ID": 5021,
		"Value": "You have become much stronger! Account will re-log in 2 seconds",
		"ValueStrKey": ""
	},
	{
		"ID": 5022,
		"Value": "Submitting issue...",
		"ValueStrKey": ""
	},
	{
		"ID": 5023,
		"Value": "Submission successful!",
		"ValueStrKey": ""
	},
	{
		"ID": 6001,
		"Value": "Insufficient Trinity Crystals!",
		"ValueStrKey": ""
	},
	{
		"ID": 6002,
		"Value": "Invalid player name!",
		"ValueStrKey": ""
	},
	{
		"ID": 6003,
		"Value": "Avatar in use!",
		"ValueStrKey": ""
	},
	{
		"ID": 6004,
		"Value": "Preview Avatar",
		"ValueStrKey": ""
	},
	{
		"ID": 6005,
		"Value": "After switching RAM Mode, you'll need to restart the game before your new settings take effect. Would you like to change your RAM Mode now?",
		"ValueStrKey": ""
	},
	{
		"ID": 6101,
		"Value": "Player is offline, unable to initiate Friendly Match!",
		"ValueStrKey": ""
	},
	{
		"ID": 6102,
		"Value": "Unable to initiate Friendly Match in battle!",
		"ValueStrKey": ""
	},
	{
		"ID": 6103,
		"Value": "Unable to initiate Friendly Match in a team!",
		"ValueStrKey": ""
	},
	{
		"ID": 7001,
		"Value": "Normal Mode",
		"ValueStrKey": ""
	},
	{
		"ID": 7002,
		"Value": "Elite Mode",
		"ValueStrKey": ""
	},
	{
		"ID": 7003,
		"Value": "Reach {0} stars in Normal Mode to unlock Elite Mode.",
		"ValueStrKey": ""
	},
	{
		"ID": 7004,
		"Value": "Unlocks at Team Lv. {0}.",
		"ValueStrKey": ""
	},
	{
		"ID": 7005,
		"Value": "Level is locked.",
		"ValueStrKey": ""
	},
	{
		"ID": 7006,
		"Value": "Starts at {0}",
		"ValueStrKey": ""
	},
	{
		"ID": 7007,
		"Value": "{0} pcs. to go",
		"ValueStrKey": ""
	},
	{
		"ID": 7008,
		"Value": "Requirements met!",
		"ValueStrKey": ""
	},
	{
		"ID": 7009,
		"Value": "Got {0} pcs. by sweeping this time.",
		"ValueStrKey": ""
	},
	{
		"ID": 9001,
		"Value": "Many voice actors you know and love are working hard on dubbing the content! Please be patient!",
		"ValueStrKey": ""
	},
	{
		"ID": 9002,
		"Value": "Redeem Code will be delivered in batches soon!",
		"ValueStrKey": ""
	},
	{
		"ID": 9003,
		"Value": "Share not available yet!",
		"ValueStrKey": ""
	},
	{
		"ID": 9004,
		"Value": "Official forum is under construction!",
		"ValueStrKey": ""
	},
	{
		"ID": 9005,
		"Value": "Version Info",
		"ValueStrKey": ""
	},
	{
		"ID": 9006,
		"Value": "Sharing is not supported on PC, please download the game on your device!",
		"ValueStrKey": ""
	},
	{
		"ID": 10001,
		"Value": "Please unlock Aniki's Gym level first.",
		"ValueStrKey": ""
	},
	{
		"ID": 12001,
		"Value": "Reach Lv. {0}",
		"ValueStrKey": ""
	},
	{
		"ID": 12002,
		"Value": "(<color=red>{0}</color>/{1})",
		"ValueStrKey": ""
	},
	{
		"ID": 12003,
		"Value": "Login {0} days",
		"ValueStrKey": ""
	},
	{
		"ID": 12004,
		"Value": "(<color=red>{0}</color>/{1})",
		"ValueStrKey": ""
	},
	{
		"ID": 12005,
		"Value": "Login on {0}.{1}",
		"ValueStrKey": ""
	},
	{
		"ID": 12006,
		"Value": "You can redeem <color=#00FF0CFF>{0}</color> more times.",
		"ValueStrKey": ""
	},
	{
		"ID": 12007,
		"Value": "Redeem Chances Left: <color=red>0</color> time",
		"ValueStrKey": ""
	},
	{
		"ID": 12008,
		"Value": "Last Day for Exchange: {0}",
		"ValueStrKey": ""
	},
	{
		"ID": 13001,
		"Value": "Power:",
		"ValueStrKey": ""
	},
	{
		"ID": 13002,
		"Value": "{0}'s Power:",
		"ValueStrKey": ""
	},
	{
		"ID": 13003,
		"Value": "No ranking!",
		"ValueStrKey": ""
	},
	{
		"ID": 13004,
		"Value": "I am the boss of my realm!",
		"ValueStrKey": ""
	},
	{
		"ID": 13005,
		"Value": "Entered Channel {0} (Current Players: {1})",
		"ValueStrKey": ""
	},
	{
		"ID": 13006,
		"Value": "Select a Group (<color=#B6B6B6FF>Go to the group function to initiate group chat!</color>)",
		"ValueStrKey": ""
	},
	{
		"ID": 13007,
		"Value": "Select Player (<color=#B6B6B6FF>Tap on player's avatar to initiate private chat!</color>)",
		"ValueStrKey": ""
	},
	{
		"ID": 13008,
		"Value": "Countdown {0} secs",
		"ValueStrKey": ""
	},
	{
		"ID": 13009,
		"Value": "Current Room: {0}",
		"ValueStrKey": ""
	},
	{
		"ID": 13010,
		"Value": "",
		"ValueStrKey": ""
	},
	{
		"ID": 13011,
		"Value": "59ba4c01",
		"ValueStrKey": ""
	},
	{
		"ID": 13012,
		"Value": "59b9efd7",
		"ValueStrKey": ""
	},
	{
		"ID": 13013,
		"Value": "Disconnected from server, please login again.",
		"ValueStrKey": ""
	},
	{
		"ID": 13014,
		"Value": "Cancel Purchase",
		"ValueStrKey": ""
	},
	{
		"ID": 13015,
		"Value": "Purchase Failed!",
		"ValueStrKey": ""
	},
	{
		"ID": 13016,
		"Value": "Purchase Successful!",
		"ValueStrKey": ""
	},
	{
		"ID": 13017,
		"Value": "+{0} Bonus! (free)",
		"ValueStrKey": ""
	},
	{
		"ID": 13018,
		"Value": "Extra Gift {0}",
		"ValueStrKey": ""
	},
	{
		"ID": 13019,
		"Value": "Remaining Days:",
		"ValueStrKey": ""
	},
	{
		"ID": 13020,
		"Value": "Insufficient Trinity Crystals! Recharge?",
		"ValueStrKey": ""
	},
	{
		"ID": 13021,
		"Value": "Recharge",
		"ValueStrKey": ""
	},
	{
		"ID": 13022,
		"Value": "Insufficient {0}! Please purchase more in the store.",
		"ValueStrKey": ""
	},
	{
		"ID": 13023,
		"Value": "Grand Prize",
		"ValueStrKey": ""
	},
	{
		"ID": 13024,
		"Value": "Gold Prizes",
		"ValueStrKey": ""
	},
	{
		"ID": 13025,
		"Value": "Silver Prizes",
		"ValueStrKey": ""
	},
	{
		"ID": 13026,
		"Value": "Bronze Prizes",
		"ValueStrKey": ""
	},
	{
		"ID": 13027,
		"Value": "Fourth Prize",
		"ValueStrKey": ""
	},
	{
		"ID": 13028,
		"Value": "Fifth Prize",
		"ValueStrKey": ""
	},
	{
		"ID": 13029,
		"Value": "Sixth Prize",
		"ValueStrKey": ""
	},
	{
		"ID": 13030,
		"Value": "Consume {0}",
		"ValueStrKey": ""
	},
	{
		"ID": 13031,
		"Value": "{0} Time(s)",
		"ValueStrKey": ""
	},
	{
		"ID": 13032,
		"Value": "Recorded messages are above.",
		"ValueStrKey": ""
	},
	{
		"ID": 13033,
		"Value": "Tap to input up to 100 characters!",
		"ValueStrKey": ""
	},
	{
		"ID": 13034,
		"Value": "Purchase Successful!",
		"ValueStrKey": ""
	},
	{
		"ID": 13035,
		"Value": "Total Recharge",
		"ValueStrKey": ""
	},
	{
		"ID": 13036,
		"Value": "(<color=red>{0}</color>/{1})",
		"ValueStrKey": ""
	},
	{
		"ID": 13037,
		"Value": "Total Purchase",
		"ValueStrKey": ""
	},
	{
		"ID": 13038,
		"Value": "(<color=red>{0}</color>/{1})",
		"ValueStrKey": ""
	},
	{
		"ID": 13039,
		"Value": "Changed Successfully!",
		"ValueStrKey": ""
	},
	{
		"ID": 13040,
		"Value": "{0} Trinity Crystals",
		"ValueStrKey": ""
	},
	{
		"ID": 13041,
		"Value": "Initial outfit -- classic style!",
		"ValueStrKey": ""
	},
	{
		"ID": 13042,
		"Value": "Initial equip clothes. Nothing to write home about, really...",
		"ValueStrKey": ""
	},
	{
		"ID": 13043,
		"Value": "Initial equip. Tough and durable.",
		"ValueStrKey": ""
	},
	{
		"ID": 13044,
		"Value": "Initial",
		"ValueStrKey": ""
	},
	{
		"ID": 13045,
		"Value": "Expires at <size=40>{1}</size>/<size=40>{2}</size>/<size=40>{0}</size>",
		"ValueStrKey": ""
	},
	{
		"ID": 13046,
		"Value": "Insufficient Trinity Crystals! Recharge?",
		"ValueStrKey": ""
	},
	{
		"ID": 13047,
		"Value": "<color=#FFFF00FF>{0}</color> day(s) left",
		"ValueStrKey": ""
	},
	{
		"ID": 13048,
		"Value": "Skin incompatible with current class!",
		"ValueStrKey": ""
	},
	{
		"ID": 13049,
		"Value": "Cannot add strengthening materials!",
		"ValueStrKey": ""
	},
	{
		"ID": 13050,
		"Value": "You don't have this unit! Cannot change!",
		"ValueStrKey": ""
	},
	{
		"ID": 13051,
		"Value": "Less than",
		"ValueStrKey": ""
	},
	{
		"ID": 13052,
		"Value": "Remaining:",
		"ValueStrKey": ""
	},
	{
		"ID": 13054,
		"Value": "Please select at least one hero to fight on the battlefield!",
		"ValueStrKey": ""
	},
	{
		"ID": 13055,
		"Value": "Full extraction will generate <color=red>{0}</color> Memory Essences. Continue?",
		"ValueStrKey": ""
	},
	{
		"ID": 13056,
		"Value": "No purchase allowed during the subscription period!",
		"ValueStrKey": ""
	},
	{
		"ID": 13057,
		"Value": "No spare Memory Shards available! Extraction not possible!",
		"ValueStrKey": ""
	},
	{
		"ID": 13058,
		"Value": "5a026626",
		"ValueStrKey": ""
	},
	{
		"ID": 13059,
		"Value": "You can spend {0} to buy {1}. Continue?",
		"ValueStrKey": ""
	},
	{
		"ID": 13060,
		"Value": "Langrisser",
		"ValueStrKey": ""
	},
	{
		"ID": 13061,
		"Value": "",
		"ValueStrKey": ""
	},
	{
		"ID": 13062,
		"Value": "http://mz.zlongame.com/index.html",
		"ValueStrKey": ""
	},
	{
		"ID": 13063,
		"Value": "http://mz.zlongame.com/index.html",
		"ValueStrKey": ""
	},
	{
		"ID": 13064,
		"Value": "http://mz.zlongame.com/index.html",
		"ValueStrKey": ""
	},
	{
		"ID": 13065,
		"Value": "All",
		"ValueStrKey": ""
	},
	{
		"ID": 13066,
		"Value": "Weapon",
		"ValueStrKey": ""
	},
	{
		"ID": 13067,
		"Value": "Armor",
		"ValueStrKey": ""
	},
	{
		"ID": 13068,
		"Value": "Helmet",
		"ValueStrKey": ""
	},
	{
		"ID": 13069,
		"Value": "Accessories",
		"ValueStrKey": ""
	},
	{
		"ID": 13070,
		"Value": "Other",
		"ValueStrKey": ""
	},
	{
		"ID": 13071,
		"Value": "Select a Tarot Card",
		"ValueStrKey": ""
	},
	{
		"ID": 14001,
		"Value": "Insufficient {0}! Do you want to go to the Gift Pack Store?",
		"ValueStrKey": ""
	},
	{
		"ID": 14002,
		"Value": "Are you sure you want to create the [{0}] Guild?",
		"ValueStrKey": ""
	},
	{
		"ID": 14003,
		"Value": "Please enter Guild name.",
		"ValueStrKey": ""
	},
	{
		"ID": 14004,
		"Value": "Opens at team Lv. {0}",
		"ValueStrKey": ""
	},
	{
		"ID": 14005,
		"Value": "Saved",
		"ValueStrKey": ""
	},
	{
		"ID": 14006,
		"Value": "Are you sure you want to quit Guild [{0}]?",
		"ValueStrKey": ""
	},
	{
		"ID": 14007,
		"Value": "Note: You can join another Guild 1 day after quitting your previous one.",
		"ValueStrKey": ""
	},
	{
		"ID": 14008,
		"Value": "Successfully quit the Guild!",
		"ValueStrKey": ""
	},
	{
		"ID": 14009,
		"Value": "Invited",
		"ValueStrKey": ""
	},
	{
		"ID": 14010,
		"Value": "Guild Name Changed",
		"ValueStrKey": ""
	},
	{
		"ID": 14011,
		"Value": "Guild Leader",
		"ValueStrKey": ""
	},
	{
		"ID": 14012,
		"Value": "Vice Leader",
		"ValueStrKey": ""
	},
	{
		"ID": 14013,
		"Value": "Elite",
		"ValueStrKey": ""
	},
	{
		"ID": 14014,
		"Value": "Member",
		"ValueStrKey": ""
	},
	{
		"ID": 14015,
		"Value": "Refresh",
		"ValueStrKey": ""
	},
	{
		"ID": 14016,
		"Value": "Already Joined",
		"ValueStrKey": ""
	},
	{
		"ID": 14017,
		"Value": "Leader's Approval",
		"ValueStrKey": ""
	},
	{
		"ID": 14018,
		"Value": "Auto Join",
		"ValueStrKey": ""
	},
	{
		"ID": 14019,
		"Value": "Already appointed vice leader!",
		"ValueStrKey": ""
	},
	{
		"ID": 14020,
		"Value": "Guild leader position has been transferred!",
		"ValueStrKey": ""
	},
	{
		"ID": 14021,
		"Value": "This member has been expelled from the Guild!",
		"ValueStrKey": ""
	},
	{
		"ID": 14022,
		"Value": "Dismissal successful! You are the leader now!",
		"ValueStrKey": ""
	},
	{
		"ID": 14023,
		"Value": "Vice leader has been dismissed!",
		"ValueStrKey": ""
	},
	{
		"ID": 14024,
		"Value": "Are you sure you want to transfer your leader post?",
		"ValueStrKey": ""
	},
	{
		"ID": 14025,
		"Value": "Are you sure you want to expel this member?",
		"ValueStrKey": ""
	},
	{
		"ID": 14026,
		"Value": "Guild Members Online",
		"ValueStrKey": ""
	},
	{
		"ID": 14027,
		"Value": "Can join a new Guild in {0} Hour(s) and {1} Minute(s)",
		"ValueStrKey": ""
	},
	{
		"ID": 14028,
		"Value": "Commander, you cannot use Guilds to form a team! Please join a [Guild of Time]!",
		"ValueStrKey": ""
	},
	{
		"ID": 14029,
		"Value": "This week's Guild Battle chances have been used up. Guild Battle chances will be reset next week.",
		"ValueStrKey": ""
	},
	{
		"ID": 14030,
		"Value": "Waiting for Guild Leader/Vice Leader!",
		"ValueStrKey": ""
	},
	{
		"ID": 14031,
		"Value": "This stronghold is already occupied!",
		"ValueStrKey": ""
	},
	{
		"ID": 14032,
		"Value": "<color=#FB0000FF>{0}</color> heroes from this faction are at this stronghold, and have a <color=#FB0000FF>+40%</color> combat power boost!",
		"ValueStrKey": ""
	},
	{
		"ID": 14033,
		"Value": "Number of Lv.{0} and above Commanders in the Guild exceeds {1}!",
		"ValueStrKey": ""
	},
	{
		"ID": 14034,
		"Value": "Guild Battle Points",
		"ValueStrKey": ""
	},
	{
		"ID": 14035,
		"Value": "<size=60><color=red>WARNING!</color></size>\nAfter forfeiting this round of the Guild Battle, <color=red>it will automatically end </color> and you will not receive any further rewards for this round. After retreating, <color=red>all Guild Members</color> in control of any strongholds and all progress will be reset and you will only receive rewards based on current completion. Are you sure you want to retreat from this Guild Battle?",
		"ValueStrKey": ""
	},
	{
		"ID": 14036,
		"Value": "Personal Guild Battle Points",
		"ValueStrKey": ""
	},
	{
		"ID": 14037,
		"Value": "Any enemies defeated in this Guild Battle will award points. At the end of each battle, points are awarded depending on the number of defeated enemies.",
		"ValueStrKey": ""
	},
	{
		"ID": 14038,
		"Value": "The Guild Battle has ended!",
		"ValueStrKey": ""
	},
	{
		"ID": 14039,
		"Value": "Set Guild Battle difficulty to <color=red>{0}</color>?",
		"ValueStrKey": ""
	},
	{
		"ID": 14040,
		"Value": "You need to join a guild!",
		"ValueStrKey": ""
	},
	{
		"ID": 14041,
		"Value": "Domination complete! Do you want to end the guild battle and calculate the rewards?",
		"ValueStrKey": ""
	},
	{
		"ID": 15001,
		"Value": "During the closed beta, you recharged <color=#DC143C>{0}</color>RMB! You can collect <color=#DC143C>{1}</color> Trinity Crystals!",
		"ValueStrKey": ""
	},
	{
		"ID": 15002,
		"Value": "-Recharge Trinity Crystal Standard",
		"ValueStrKey": ""
	},
	{
		"ID": 15003,
		"Value": "-Gift Pack & Monthly Card Privileges",
		"ValueStrKey": ""
	},
	{
		"ID": 15004,
		"Value": "You can collect <color=#DC143C>{0}</color> Trinity Crystals",
		"ValueStrKey": ""
	},
	{
		"ID": 15005,
		"Value": "{0}×{1},",
		"ValueStrKey": ""
	},
	{
		"ID": 15006,
		"Value": "You can receive <color=#DC143C>{0}</color> Trinity Crystals",
		"ValueStrKey": ""
	},
	{
		"ID": 15007,
		"Value": "99.99USD|49.99USD|19.99USD|9.99USD|4.99USD|0.99USD",
		"ValueStrKey": ""
	},
	{
		"ID": 15008,
		"Value": "The Gift of the Goddess, 6|The Flag of Courage, 7|Clock of Forgiveness, 8|Newbie Summoning Gift Pack, 0|Rune Stone Gift Pack, 1|Super Skin Gift Pack, 2|Daily Discount Gift Pack, 3|Daily Summon Gift Pack, 4|Skin Voucher Gift Pack, 5",
		"ValueStrKey": ""
	},
	{
		"ID": 15009,
		"Value": "Publish a Guild bulletin to keep your Guild members up to date with the latest Guild news!",
		"ValueStrKey": ""
	},
	{
		"ID": 15010,
		"Value": "Welcome to our Guild, let's work together on our journey!",
		"ValueStrKey": ""
	},
	{
		"ID": 15011,
		"Value": "Guild manager <color=#DC143C>[0]</color> has changed the Guild bulletin: <color=#008B00>[1]</color>",
		"ValueStrKey": ""
	},
	{
		"ID": 15012,
		"Value": "Unable to collect! You have already collected recharge rebate!",
		"ValueStrKey": ""
	},
	{
		"ID": 15013,
		"Value": "Memory Store is not open.",
		"ValueStrKey": ""
	},
	{
		"ID": 15014,
		"Value": "Unable to comment until team reaches Lv. {0}!",
		"ValueStrKey": ""
	},
	{
		"ID": 15015,
		"Value": "HP, ATK, DEF, INT, M.DEF, SKILL, Crit. Dmg",
		"ValueStrKey": ""
	},
	{
		"ID": 15016,
		"Value": "After changing the current language, you'll need to restart the game. The target language pack will be downloaded automatically. Confirm?",
		"ValueStrKey": ""
	},
	{
		"ID": 15017,
		"Value": "Hero's heart bond coming soon!",
		"ValueStrKey": ""
	},
	{
		"ID": 15018,
		"Value": "Total Bond Power level reaches {0}.",
		"ValueStrKey": ""
	},
	{
		"ID": 15019,
		"Value": "Hero's level reaches {0}.",
		"ValueStrKey": ""
	},
	{
		"ID": 15020,
		"Value": "Current: Lv.<color=#F85029FF>{0}</color>.",
		"ValueStrKey": ""
	},
	{
		"ID": 15021,
		"Value": "{NAME}",
		"ValueStrKey": ""
	},
	{
		"ID": 15022,
		"Value": "{BEGINTIME}",
		"ValueStrKey": ""
	},
	{
		"ID": 15023,
		"Value": "{BATTLETIME}",
		"ValueStrKey": ""
	},
	{
		"ID": 15024,
		"Value": "{ENDTIME}",
		"ValueStrKey": ""
	},
	{
		"ID": 15025,
		"Value": "{2}/{1}/{0}",
		"ValueStrKey": ""
	},
	{
		"ID": 15026,
		"Value": "Forgotten",
		"ValueStrKey": ""
	},
	{
		"ID": 15027,
		"Value": "Return to adventure?",
		"ValueStrKey": ""
	},
	{
		"ID": 15028,
		"Value": "Heart Bond needs to reach Lv{0}",
		"ValueStrKey": ""
	},
	{
		"ID": 15029,
		"Value": "{1}/{0}",
		"ValueStrKey": ""
	},
	{
		"ID": 20000,
		"Value": "<color=#a52a2aff>[0]</color> has joined the Guild.",
		"ValueStrKey": ""
	},
	{
		"ID": 20001,
		"Value": "<color=#a52a2aff>[0]</color> has left the Guild.",
		"ValueStrKey": ""
	},
	{
		"ID": 20002,
		"Value": "<color=#a52a2aff>[0]</color> was expelled from the Guild.",
		"ValueStrKey": ""
	},
	{
		"ID": 20003,
		"Value": "<color=#a52a2aff>[0]</color> has changed the Guild's name to <color=#a52a2aff>[[1]]</color>.",
		"ValueStrKey": ""
	},
	{
		"ID": 20004,
		"Value": "<color=#a52a2aff>[0]</color> has been promoted to Vice Leader",
		"ValueStrKey": ""
	},
	{
		"ID": 20005,
		"Value": "<color=#a52a2aff>[0]</color> has been dismissed as Vice Leader",
		"ValueStrKey": ""
	},
	{
		"ID": 20006,
		"Value": "<color=#a52a2aff>[0]</color> has been promoted to Elite thanks to his hard work.",
		"ValueStrKey": ""
	},
	{
		"ID": 20007,
		"Value": "<color=#a52a2aff>[0]</color> has transferred the leader post to <color=#a52a2aff>[1]</color>.",
		"ValueStrKey": ""
	},
	{
		"ID": 20008,
		"Value": "<color=#a52a2aff>[0]</color> has been dismissed as Guild Leader due to their long absence. The leader post has been taken over by <color=#a52a2aff>[1]</color>.",
		"ValueStrKey": ""
	},
	{
		"ID": 20009,
		"Value": "<color=#a52a2aff>[0]</color> has purchased <color=#a52a2aff>[[1]]</color> in the Guild welfare store.",
		"ValueStrKey": ""
	},
	{
		"ID": 20010,
		"Value": "<color=#a52a2aff>[0]</color> has agreed for you to join the Guild.",
		"ValueStrKey": ""
	},
	{
		"ID": 20011,
		"Value": "You have been expelled from the Guild.",
		"ValueStrKey": ""
	},
	{
		"ID": 20012,
		"Value": "You have been promoted to Vice Leader.",
		"ValueStrKey": ""
	},
	{
		"ID": 20013,
		"Value": "You have been dismissed as Vice Leader",
		"ValueStrKey": ""
	},
	{
		"ID": 20014,
		"Value": "You have been promoted to Elite thanks to your hard work.",
		"ValueStrKey": ""
	},
	{
		"ID": 20015,
		"Value": "You have taken over as Guild Leader.",
		"ValueStrKey": ""
	},
	{
		"ID": 20016,
		"Value": "<color=#a52a2aff>[0]</color> created a Guild.",
		"ValueStrKey": ""
	},
	{
		"ID": 20017,
		"Value": "<color=#a52a2aff>[0]</color> changed the Guild bulletin.",
		"ValueStrKey": ""
	},
	{
		"ID": 20018,
		"Value": "<color=#a52a2aff>[0]</color> started a Guild Battle! Quickly join a Guild!",
		"ValueStrKey": ""
	},
	{
		"ID": 20019,
		"Value": "<color=#a52a2aff>[0]</color> felt that the strength of their Guild was just not enough to win the battle, so they chose to give up! All Guild Members will receive Guild Battle rewards via mail!",
		"ValueStrKey": ""
	},
	{
		"ID": 20020,
		"Value": "<color=#a52a2aff>Level [0]</color> stronghold dominated! All Guild Members who participated in the Guild Battle will receive this stronghold's Domination rewards at the end of the battle!",
		"ValueStrKey": ""
	},
	{
		"ID": 20021,
		"Value": "My Rank: <color=#FFFF00FF><size=40>{0}</size></color>",
		"ValueStrKey": ""
	},
	{
		"ID": 20022,
		"Value": "\"You've defeated <color=#FFFF00FF><size=35>{0}%</size></color> of players.\"",
		"ValueStrKey": ""
	},
	{
		"ID": 20023,
		"Value": "<size=40><color=#FFFF00FF>S{0}</color></size>",
		"ValueStrKey": ""
	},
	{
		"ID": 20024,
		"Value": "Elimination will start in <size=40><color=#00FFFFFF>{0}</color></size>",
		"ValueStrKey": ""
	},
	{
		"ID": 20025,
		"Value": "Season {0} Point Race will finish in <size=40><color=#00FFFFFF>{1}</color></size>",
		"ValueStrKey": ""
	},
	{
		"ID": 20026,
		"Value": "Ultimate Battle",
		"ValueStrKey": ""
	},
	{
		"ID": 20027,
		"Value": "Your level is lower than 60! Cannot join Ultimate Battles!",
		"ValueStrKey": ""
	},
	{
		"ID": 20028,
		"Value": "Your opponent's level is lower than 60! Cannot join Ultimate Battles!",
		"ValueStrKey": ""
	},
	{
		"ID": 20029,
		"Value": "Team formation is incomplete, go to the Apex Arena to edit it!",
		"ValueStrKey": ""
	},
	{
		"ID": 20030,
		"Value": "11:00-14:00/16:00-18:00/20:00-23:00 on every Sat and Sun",
		"ValueStrKey": ""
	},
	{
		"ID": 20031,
		"Value": "Reach Lv. {0} to unlock!",
		"ValueStrKey": ""
	},
	{
		"ID": 20032,
		"Value": "Formation saved!",
		"ValueStrKey": ""
	},
	{
		"ID": 20033,
		"Value": "You've deployed this Hero!",
		"ValueStrKey": ""
	},
	{
		"ID": 20034,
		"Value": "Friendly Match",
		"ValueStrKey": ""
	},
	{
		"ID": 20035,
		"Value": "Ultimate Battle",
		"ValueStrKey": ""
	},
	{
		"ID": 20036,
		"Value": "Ultimate Battle invitation canceled!",
		"ValueStrKey": ""
	},
	{
		"ID": 20037,
		"Value": "You can't add more units to the battlefield.",
		"ValueStrKey": ""
	},
	{
		"ID": 20038,
		"Value": "Not set!",
		"ValueStrKey": ""
	},
	{
		"ID": 20039,
		"Value": "You have to select a map first.",
		"ValueStrKey": ""
	},
	{
		"ID": 20040,
		"Value": "The next season hasn't started yet.",
		"ValueStrKey": ""
	},
	{
		"ID": 20041,
		"Value": "The next season will start in",
		"ValueStrKey": ""
	},
	{
		"ID": 20042,
		"Value": "The next season will start at",
		"ValueStrKey": ""
	},
	{
		"ID": 20043,
		"Value": "Rewards will be issued when you reach the corresponding tier. You must participate in at least 10 Ranked Battles.",
		"ValueStrKey": ""
	},
	{
		"ID": 20044,
		"Value": "Tier rewards are sent via mail at 23:30 every Sunday during the Points Match.",
		"ValueStrKey": ""
	},
	{
		"ID": 20045,
		"Value": "Shared an Apex Battle Report!",
		"ValueStrKey": ""
	},
	{
		"ID": 20046,
		"Value": "Successfully shared to My Friends!",
		"ValueStrKey": ""
	},
	{
		"ID": 20047,
		"Value": "{1}/{0}",
		"ValueStrKey": ""
	},
	{
		"ID": 20048,
		"Value": "256 into 128/128 into 64/64 into 32/32 into 16/16 into 8/8 into 4/4 into 2/Finals",
		"ValueStrKey": ""
	},
	{
		"ID": 20049,
		"Value": "Ultimate Battle",
		"ValueStrKey": ""
	},
	{
		"ID": 20050,
		"Value": "Points Match",
		"ValueStrKey": ""
	},
	{
		"ID": 20051,
		"Value": "Elimination Match",
		"ValueStrKey": ""
	},
	{
		"ID": 20052,
		"Value": "I shared my battle report. Take a look!",
		"ValueStrKey": ""
	},
	{
		"ID": 20053,
		"Value": "About to play an Apex Battle Report by [{0}]. Are you sure you want to play it?",
		"ValueStrKey": ""
	},
	{
		"ID": 20054,
		"Value": "Play",
		"ValueStrKey": ""
	},
	{
		"ID": 20055,
		"Value": "Successfully shared to Name Card!",
		"ValueStrKey": ""
	},
	{
		"ID": 20056,
		"Value": "Qualifying Match",
		"ValueStrKey": ""
	},
	{
		"ID": 20057,
		"Value": "Successfully shared to World Channel!",
		"ValueStrKey": ""
	},
	{
		"ID": 20058,
		"Value": "Successfully shared to Guild Channel!",
		"ValueStrKey": ""
	},
	{
		"ID": 20059,
		"Value": "This Battle Report has already been shared to your Name Card!",
		"ValueStrKey": ""
	},
	{
		"ID": 20060,
		"Value": "\"{0}\"",
		"ValueStrKey": ""
	},
	{
		"ID": 20061,
		"Value": "Cannot play battle reports while in battle!",
		"ValueStrKey": ""
	},
	{
		"ID": 20062,
		"Value": "About to cancel sharing [{0}]'s Battle Report. Are you sure you want to cancel?",
		"ValueStrKey": ""
	},
	{
		"ID": 20063,
		"Value": "Battle Report expired! Unable to share!",
		"ValueStrKey": ""
	},
	{
		"ID": 20064,
		"Value": "Elimination Match top 16 not yet decided!",
		"ValueStrKey": ""
	},
	{
		"ID": 20065,
		"Value": "You've reached the daily Aid Ticket purchase limit!",
		"ValueStrKey": ""
	},
	{
		"ID": 20066,
		"Value": "Can buy {0} times today.",
		"ValueStrKey": ""
	},
	{
		"ID": 20067,
		"Value": "Next match will begin on {0} {1} at {2:D2}:{3:D2}",
		"ValueStrKey": ""
	},
	{
		"ID": 20068,
		"Value": "Next match will begin at {0:D2}:{1:D2}",
		"ValueStrKey": ""
	},
	{
		"ID": 20069,
		"Value": "Match has already started!",
		"ValueStrKey": ""
	},
	{
		"ID": 20070,
		"Value": "This season has finished!",
		"ValueStrKey": ""
	},
	{
		"ID": 20071,
		"Value": "None",
		"ValueStrKey": ""
	},
	{
		"ID": 20072,
		"Value": "{0} strong",
		"ValueStrKey": ""
	},
	{
		"ID": 20073,
		"Value": "Champion",
		"ValueStrKey": ""
	},
	{
		"ID": 20074,
		"Value": "Second Place",
		"ValueStrKey": ""
	},
	{
		"ID": 20075,
		"Value": "Scoring...",
		"ValueStrKey": ""
	},
	{
		"ID": 20076,
		"Value": "Finals",
		"ValueStrKey": ""
	},
	{
		"ID": 20077,
		"Value": "Langrisser",
		"ValueStrKey": ""
	},
	{
		"ID": 20078,
		"Value": "The Season 8 Elimination Match will begin today. Please go and arrange your team.",
		"ValueStrKey": ""
	},
	{
		"ID": 20079,
		"Value": "The Season 8 Elimination Match has begun. A challenge must be made within 5 minutes or else it will be considered an abstain.",
		"ValueStrKey": ""
	},
	{
		"ID": 20080,
		"Value": "Group",
		"ValueStrKey": ""
	},
	{
		"ID": 20081,
		"Value": "Season Elimination Match {0} in progress!",
		"ValueStrKey": ""
	},
	{
		"ID": 20082,
		"Value": "Season Elimination Match {0} is about to begin!",
		"ValueStrKey": ""
	},
	{
		"ID": 20083,
		"Value": "Season points match has ended!",
		"ValueStrKey": ""
	},
	{
		"ID": 20084,
		"Value": "In battle",
		"ValueStrKey": ""
	},
	{
		"ID": 20100,
		"Value": "translate from {0}",
		"ValueStrKey": ""
	},
	{
		"ID": 20101,
		"Value": "Original Text",
		"ValueStrKey": ""
	},
	{
		"ID": 115017,
		"Value": "Switching voice needs to restart your app. Are you sure to restart?",
		"ValueStrKey": ""
	},
	{
		"ID": 300001,
		"Value": "https://discord.gg/dV4hKaq",
		"ValueStrKey": ""
	},
	{
		"ID": 300002,
		"Value": "https://twitter.com/Langrisser_EN",
		"ValueStrKey": ""
	},
	{
		"ID": 20114,
		"Value": "Are you sure you want to sweep [{0}]?",
		"ValueStrKey": ""
	},
	{
		"ID": 20120,
		"Value": "You can <color=#DC143C>sweep</color> Secret Realm stages for which you've already received the Secret Realm Blessing buff in one tap. All Secret Realm stages share the same daily sweep limit, which resets at midnight every day.",
		"ValueStrKey": ""
	}
]