v -0.09893199056386948 0.04302828386425972 -0.008655939251184464
v 0.10618183761835098 0.16538287699222565 -0.007364834658801556
v -0.0740867555141449 0.1943742334842682 -0.01766935922205448
v 0.08123818784952164 0.014166722074151039 0.003387749195098877
v 0.13112547993659973 0.31659892201423645 -0.018117420375347137
v -0.0492415688931942 0.345720112323761 -0.026682782918214798
v 0.1560690850019455 0.467815101146698 -0.028869973495602608
v -0.02439633011817932 0.49706602096557617 -0.035696208477020264
v 0.18101273477077484 0.6190311312675476 -0.03962259739637375
v 0.00044885824900120497 0.6484119892120361 -0.044709641486406326
v 0.205956369638443 0.770247220993042 -0.05037514492869377
v 0.025294071063399315 0.7997580170631409 -0.053723059594631195
v 0.32686835527420044 0.0810711681842804 0.019208870828151703
v 0.2557518184185028 -0.05480808764696121 0.028340132907032967
v 0.39798492193222046 0.21695037186145782 0.010077616199851036
v 0.4691014587879181 0.3528296649456024 0.0009463374735787511
v 0.5402179956436157 0.4887087643146515 -0.00818489957600832
v 0.6113345623016357 0.6245880722999573 -0.017316162586212158
v 0.5216394662857056 -0.11588837206363678 0.0818503350019455
v 0.38853660225868225 -0.19228459894657135 0.0746837854385376
v 0.6547423005104065 -0.03949211537837982 0.0890168622136116
v 0.7878451943397522 0.036904141306877136 0.0961834117770195
v 0.9209479689598083 0.11330035328865051 0.10334993898868561
v 1.0540508031845093 0.18969660997390747 0.11051647365093231
v 0.6101841330528259 -0.31575796008110046 0.1451801210641861
v 0.46279340982437134 -0.35636547207832336 0.12997747957706451
v 0.7575748562812805 -0.27515044808387756 0.16038276255130768
v 0.9049655795097351 -0.23454295098781586 0.17558538913726807
v 1.052356243133545 -0.19393545389175415 0.19078803062438965
v 1.199747085571289 -0.15332792699337006 0.20599068701267242
v 0.639572024345398 -0.5266677737236023 0.2151271104812622
v 0.487840473651886 -0.5321258306503296 0.19163520634174347
v 0.7913035750389099 -0.5212097764015198 0.23861901462078094
v 0.9430349469184875 -0.5157517194747925 0.2621109187602997
v 1.094766616821289 -0.5102936029434204 0.2856028079986572
v 1.2464981079101562 -0.5048355460166931 0.30909475684165955
v 0.617293119430542 -0.734015941619873 0.28897321224212646
v 0.469412624835968 -0.7069544792175293 0.25730085372924805
v 0.7651736736297607 -0.7610774636268616 0.3206455707550049
v 0.9130542278289795 -0.7881389260292053 0.3523178994655609
v 1.0609346628189087 -0.8152004480361938 0.38399025797843933
v 1.2088152170181274 -0.8422619700431824 0.41566264629364014
v 0.5523495078086853 -0.928695023059845 0.3650602698326111
v 0.414766788482666 -0.8729298710823059 0.3254956007003784
v 0.6899321675300598 -0.9844602346420288 0.404624879360199
v 0.8275148868560791 -1.0402255058288574 0.44418948888778687
v 0.9650975465774536 -1.0959906578063965 0.48375412821769714
v 1.1026802062988281 -1.1517558097839355 0.5233187675476074
v 0.4533901512622833 -1.1059101819992065 0.4424004554748535
v 0.3309723436832428 -1.0259077548980713 0.3953090310096741
v 0.5758079886436462 -1.1859124898910522 0.4894918203353882
v 0.6982258558273315 -1.2659149169921875 0.5365832448005676
v 0.8206436038017273 -1.3459172248840332 0.5836746096611023
v 0.9430615305900574 -1.425919771194458 0.630765974521637
v 0.34295499324798584 -1.2361152172088623 0.5080740451812744
v 0.22051778435707092 -1.1541368961334229 0.46456798911094666
v 0.46539217233657837 -1.3180937767028809 0.5515801310539246
v 0.5878294110298157 -1.4000722169876099 0.5950861573219299
v 0.7102665901184082 -1.4820506572723389 0.6385922431945801
v 0.8327038884162903 -1.5640290975570679 0.6820982694625854
v 0.19293895363807678 -1.368127465248108 0.5871065258979797
v 0.0894273892045021 -1.2665563821792603 0.5363840460777283
v 0.29645055532455444 -1.4696986675262451 0.6378288865089417
v 0.3999621272087097 -1.5712699890136719 0.6885513067245483
v 0.5034736394882202 -1.67284095287323 0.739273726940155
v 0.6069852709770203 -1.7744121551513672 0.7899960875511169
v 0.02809847891330719 -1.4780545234680176 0.6661207675933838
v -0.054174017161130905 -1.361767053604126 0.6085659861564636
v 0.11037100106477737 -1.5943422317504883 0.723675549030304
v 0.19264349341392517 -1.7106297016143799 0.7812303304672241
v 0.2749159336090088 -1.8269171714782715 0.8387850522994995
v 0.35718849301338196 -1.9432047605514526 0.8963398337364197
v -0.1247083768248558 -1.552764892578125 0.7334321737289429
v -0.2063482105731964 -1.4343875646591187 0.6793404817581177
v -0.04306859150528908 -1.6711419820785522 0.7875238656997681
v 0.03857119008898735 -1.7895190715789795 0.8416155576705933
v 0.12021095305681229 -1.9078961610794067 0.8957072496414185
v 0.2018507570028305 -2.026273250579834 0.9497990012168884
v -0.3123297095298767 -1.6120527982711792 0.8127480149269104
v -0.3711443543434143 -1.4837241172790527 0.7521119117736816
v -0.2535150945186615 -1.740381121635437 0.8733841776847839
v -0.19470050930976868 -1.8687098026275635 0.9340202808380127
v -0.13588589429855347 -1.9970381259918213 0.9946564435958862
v -0.07707126438617706 -2.125366687774658 1.0552926063537598
v -0.503496527671814 -1.6542168855667114 0.8917409181594849
v -0.539120614528656 -1.5205434560775757 0.8249093294143677
v -0.4678725600242615 -1.7878904342651367 0.958572268486023
v -0.4322485625743866 -1.9215638637542725 1.0254038572311401
v -0.3966245651245117 -2.055237054824829 1.0922352075576782
v -0.36100059747695923 -2.188910961151123 1.1590667963027954
v -0.6729891896247864 -1.6653658151626587 0.9596405625343323
v -0.7072878479957581 -1.5297317504882812 0.8961494565010071
v -0.638690710067749 -1.8009998798370361 1.0231314897537231
v -0.6043920516967773 -1.9366340637207031 1.0866224765777588
v -0.5700935125350952 -2.07226824760437 1.1501134634017944
v -0.5357948541641235 -2.207902431488037 1.2136046886444092
v -0.8675055503845215 -1.6621477603912354 1.0384564399719238
v -0.8787103295326233 -1.525559425354004 0.9690144658088684
v -0.8563008308410645 -1.7987360954284668 1.1078985929489136
v -0.8450960516929626 -1.9353243112564087 1.1773406267166138
v -0.8338913321495056 -2.0719127655029297 1.246782660484314
v -0.8226866126060486 -2.208500862121582 1.3162246942520142
v -1.0360701084136963 -1.641360878944397 1.1063995361328125
v -1.0456104278564453 -1.5030181407928467 1.040260672569275
v -1.0265299081802368 -1.7797037363052368 1.1725385189056396
v -1.016989827156067 -1.9180467128753662 1.2386773824691772
v -1.0074495077133179 -2.056389331817627 1.3048163652420044
v -0.997909426689148 -2.194732189178467 1.370955228805542
v -1.2249163389205933 -1.5977174043655396 1.1848994493484497
v -1.2121585607528687 -1.462526559829712 1.1130329370498657
v -1.2376738786697388 -1.7329081296920776 1.2567659616470337
v -1.2504314184188843 -1.8680990934371948 1.3286324739456177
v -1.2631891965866089 -2.0032899379730225 1.400498867034912
v -1.2759467363357544 -2.1384806632995605 1.4723654985427856
v -1.3868029117584229 -1.5462781190872192 1.2527892589569092
v -1.3720799684524536 -1.409597635269165 1.1841903924942017
v -1.401525855064392 -1.6829584836959839 1.3213880062103271
v -1.4162487983703613 -1.819638967514038 1.3899868726730347
v -1.4309719800949097 -1.9563193321228027 1.4585856199264526
v -1.4456946849822998 -2.0929999351501465 1.5271844863891602
v -1.563604712486267 -1.468174695968628 1.330910325050354
v -1.5279936790466309 -1.3383985757827759 1.2567882537841797
v -1.5992155075073242 -1.597951054573059 1.4050323963165283
v -1.6348263025283813 -1.7277272939682007 1.4791544675827026
v -1.670437216758728 -1.8575036525726318 1.553276538848877
v -1.7060481309890747 -1.987280011177063 1.6273984909057617
v -1.7135449647903442 -1.3882501125335693 1.3986763954162598
v -1.6757153272628784 -1.2573001384735107 1.3277884721755981
v -1.7513747215270996 -1.519200325012207 1.469564437866211
v -1.7892040014266968 -1.6501504182815552 1.540452480316162
v -1.8270336389541626 -1.7811003923416138 1.6113404035568237
v -1.8648632764816284 -1.912050485610962 1.682228446006775
v -1.8744022846221924 -1.281895399093628 1.4764025211334229
v -1.8176239728927612 -1.1611883640289307 1.4001779556274414
v -1.9311803579330444 -1.4026023149490356 1.5526269674301147
v -1.9879586696624756 -1.5233091115951538 1.6288515329360962
v -2.044736862182617 -1.644016146659851 1.705075979232788
v -2.101515054702759 -1.764723300933838 1.7813003063201904
v -2.007706642150879 -1.1764267683029175 1.5439940690994263
v -1.9485118389129639 -1.0549039840698242 1.4709715843200684
v -2.066901683807373 -1.2979496717453003 1.6170164346694946
v -2.126096725463867 -1.4194724559783936 1.6900389194488525
v -2.1852917671203613 -1.5409952402114868 1.7630614042282104
v -2.2444865703582764 -1.66251802444458 1.8360838890075684
v -2.1508867740631104 -1.0476239919662476 1.6213363409042358
v -2.075127124786377 -0.9392205476760864 1.5431487560272217
v -2.2266459465026855 -1.1560276746749878 1.69952392578125
v -2.30240535736084 -1.264431118965149 1.7777113914489746
v -2.3781650066375732 -1.3728348016738892 1.8558988571166992
v -2.4539244174957275 -1.4812384843826294 1.9340863227844238
v -2.2635295391082764 -0.9202120304107666 1.6887168884277344
v -2.1852166652679443 -0.8113827109336853 1.6137007474899292
v -2.3418424129486084 -1.0290412902832031 1.7637327909469604
v -2.4201550483703613 -1.13787043094635 1.838748812675476
v -2.4984679222106934 -1.2466998100280762 1.9137649536132812
v -2.5767807960510254 -1.3555290699005127 1.9887808561325073
v -2.389054536819458 -0.7738388776779175 1.7657030820846558
v -2.29692006111145 -0.680503249168396 1.6856794357299805
v -2.481189250946045 -0.8671745657920837 1.8457266092300415
v -2.573323965072632 -0.9605101346969604 1.9257500171661377
v -2.6654586791992188 -1.0538458824157715 2.0057737827301025
v -2.7575931549072266 -1.147181510925293 2.0857973098754883
vn 0.04957578703761101 -0.0725969672203064 -0.9961284399032593
vn 0.06391704082489014 -0.08205990493297577 -0.9945756793022156
vn 0.04318377375602722 -0.06901323050260544 -0.9966806769371033
vn 0.07312021404504776 -0.08849858492612839 -0.9933888912200928
vn 0.05357411503791809 -0.07981739193201065 -0.9953687787055969
vn 0.03376782685518265 -0.06749454140663147 -0.9971480369567871
vn 0.04482356458902359 -0.07804231345653534 -0.9959419369697571
vn 0.024352941662073135 -0.06597038358449936 -0.9975243806838989
vn 0.03707052767276764 -0.07654572278261185 -0.9963766932487488
vn 0.014941480942070484 -0.06444068253040314 -0.997809648513794
vn 0.0314476378262043 -0.07334136962890625 -0.9968109726905823
vn 0.008557045832276344 -0.06084723770618439 -0.9981104135513306
vn 0.12052412331104279 -0.12801159918308258 -0.9844221472740173
vn 0.12967658042907715 -0.1389237642288208 -0.9817760586738586
vn 0.11119358986616135 -0.12347880750894547 -0.9860978722572327
vn 0.10479947179555893 -0.12040750682353973 -0.9871773719787598
vn 0.10013943165540695 -0.11817389726638794 -0.9879307150840759
vn 0.09569862484931946 -0.11455406248569489 -0.9887967705726624
vn 0.16345247626304626 -0.19376668334007263 -0.9673354029655457
vn 0.1643606275320053 -0.20396354794502258 -0.965082585811615
vn 0.1585533767938614 -0.1856866180896759 -0.9697326421737671
vn 0.15533263981342316 -0.18010900914669037 -0.9713045954704285
vn 0.15302418172359467 -0.17600171267986298 -0.972423255443573
vn 0.15373316407203674 -0.1750304102897644 -0.9724867939949036
vn 0.16957324743270874 -0.25921833515167236 -0.9508157968521118
vn 0.1676306128501892 -0.27014780044555664 -0.9481140375137329
vn 0.166947141289711 -0.2486726939678192 -0.954091489315033
vn 0.16497735679149628 -0.24074578285217285 -0.9564642906188965
vn 0.16344544291496277 -0.2345704883337021 -0.9582600593566895
vn 0.1642455905675888 -0.23143799602985382 -0.9588846564292908
vn 0.15640883147716522 -0.3184015154838562 -0.9349634647369385
vn 0.15163232386112213 -0.32901448011398315 -0.9320713877677917
vn 0.1565016657114029 -0.3069954812526703 -0.9387550354003906
vn 0.15657135844230652 -0.29828643798828125 -0.9415469169616699
vn 0.15662580728530884 -0.29142025113105774 -0.9436855912208557
vn 0.15830695629119873 -0.2881433963775635 -0.9444110989570618
vn 0.12941372394561768 -0.370841383934021 -0.9196351170539856
vn 0.12248461693525314 -0.3798591196537018 -0.9168994426727295
vn 0.13217365741729736 -0.3598356544971466 -0.9236062169075012
vn 0.1343035101890564 -0.35131195187568665 -0.9265756607055664
vn 0.13599690794944763 -0.3445175886154175 -0.9288769960403442
vn 0.13843615353107452 -0.34164467453956604 -0.9295775294303894
vn 0.0928441733121872 -0.414372980594635 -0.9053590297698975
vn 0.08494773507118225 -0.42100033164024353 -0.9030739665031433
vn 0.09764933586120605 -0.40488946437835693 -0.9091364741325378
vn 0.10140495747327805 -0.39745214581489563 -0.912002682685852
vn 0.10442053526639938 -0.3914647102355957 -0.9142493009567261
vn 0.1072014793753624 -0.38942819833755493 -0.9147970080375671
vn 0.04840562120079994 -0.4487288296222687 -0.8923560380935669
vn 0.03755679354071617 -0.45536521077156067 -0.8895121812820435
vn 0.05827664956450462 -0.4362691342830658 -0.8979271054267883
vn 0.0674554705619812 -0.42465588450431824 -0.9028383493423462
vn 0.0761256217956543 -0.4136465787887573 -0.9072493314743042
vn 0.08505499362945557 -0.4080032706260681 -0.9090098738670349
vn -0.0057852622121572495 -0.47634443640708923 -0.8792397379875183
vn -0.02010137215256691 -0.4835222661495209 -0.8751012682914734
vn 0.005831166170537472 -0.4634917676448822 -0.8860819935798645
vn 0.016413435339927673 -0.4515187442302704 -0.8921106457710266
vn 0.026240359991788864 -0.440186083316803 -0.897523045539856
vn 0.037024591118097305 -0.4338670074939728 -0.9002158641815186
vn -0.0574059933423996 -0.4930884540081024 -0.868083119392395
vn -0.07059397548437119 -0.49685320258140564 -0.8649585843086243
vn -0.04678027704358101 -0.48466840386390686 -0.8734461665153503
vn -0.038299378007650375 -0.47790268063545227 -0.8775774240493774
vn -0.03137657046318054 -0.47235000133514404 -0.8808524012565613
vn -0.026096567511558533 -0.47077280282974243 -0.8818684220314026
vn -0.1062392145395279 -0.4995509386062622 -0.8597453832626343
vn -0.12053943425416946 -0.5016988515853882 -0.8566029071807861
vn -0.09123069792985916 -0.49154067039489746 -0.8660627603530884
vn -0.07733599841594696 -0.48406994342803955 -0.8716050982475281
vn -0.06427059322595596 -0.4769887924194336 -0.8765562772750854
vn -0.053191594779491425 -0.47509533166885376 -0.8783251643180847
vn -0.16516172885894775 -0.502314567565918 -0.8487647771835327
vn -0.18168649077415466 -0.5034305453300476 -0.8447175621986389
vn -0.1489890217781067 -0.4950573146343231 -0.8559909462928772
vn -0.1341218501329422 -0.4881679117679596 -0.8623824119567871
vn -0.12022942304611206 -0.48155125975608826 -0.8681320548057556
vn -0.10745920240879059 -0.47988420724868774 -0.8707259297370911
vn -0.21831241250038147 -0.49782684445381165 -0.8393498063087463
vn -0.23190900683403015 -0.4963965117931366 -0.8365457057952881
vn -0.20510469377040863 -0.49411821365356445 -0.8448545932769775
vn -0.19439047574996948 -0.4910579025745392 -0.8491610884666443
vn -0.18552812933921814 -0.4884927272796631 -0.8526160717010498
vn -0.1797345131635666 -0.48898208141326904 -0.8535760045051575
vn -0.2676648497581482 -0.48609018325805664 -0.8319085240364075
vn -0.28105801343917847 -0.48298242688179016 -0.8292974829673767
vn -0.25108399987220764 -0.48436182737350464 -0.8380634784698486
vn -0.23560717701911926 -0.48267126083374023 -0.8435150384902954
vn -0.22096587717533112 -0.4809977412223816 -0.8484193086624146
vn -0.21017986536026 -0.4832538366317749 -0.8498765230178833
vn -0.32091188430786133 -0.46763747930526733 -0.8236083388328552
vn -0.3352741599082947 -0.4630713164806366 -0.8204609751701355
vn -0.3041090965270996 -0.46694672107696533 -0.8303483724594116
vn -0.2884259521961212 -0.4661160409450531 -0.8363888263702393
vn -0.2735932469367981 -0.4651734530925751 -0.84187912940979
vn -0.26199594140052795 -0.4681064188480377 -0.8439399003982544
vn -0.3611355721950531 -0.4454081952571869 -0.8192634582519531
vn -0.3750227987766266 -0.43930137157440186 -0.8163163065910339
vn -0.34359079599380493 -0.44692596793174744 -0.8259555101394653
vn -0.3272770941257477 -0.44824427366256714 -0.8318454027175903
vn -0.31189945340156555 -0.44940099120140076 -0.8371126055717468
vn -0.30111169815063477 -0.45379793643951416 -0.8386889696121216
vn -0.40668824315071106 -0.4172947108745575 -0.8126928806304932
vn -0.42058074474334717 -0.4098450541496277 -0.8094064593315125
vn -0.38954871892929077 -0.41989731788635254 -0.8197182416915894
vn -0.37354576587677 -0.42212334275245667 -0.8259996175765991
vn -0.35841166973114014 -0.42405587434768677 -0.8316956758499146
vn -0.3471183180809021 -0.42925965785980225 -0.8338135480880737
vn -0.44296765327453613 -0.3874772787094116 -0.8084806799888611
vn -0.45606541633605957 -0.3785279393196106 -0.805432140827179
vn -0.425481915473938 -0.3923659324645996 -0.8154839277267456
vn -0.4092312753200531 -0.39679890871047974 -0.8216328024864197
vn -0.39392346143722534 -0.4008747935295105 -0.8271176815032959
vn -0.38381102681159973 -0.4073169529438019 -0.828723132610321
vn -0.479499489068985 -0.35237637162208557 -0.8036859631538391
vn -0.49198997020721436 -0.3424239754676819 -0.8004321455955505
vn -0.46297410130500793 -0.3581554889678955 -0.8107895255088806
vn -0.4475010931491852 -0.3633444905281067 -0.8171435594558716
vn -0.43283557891845703 -0.36807626485824585 -0.8229053616523743
vn -0.4225379228591919 -0.3753158152103424 -0.8249846696853638
vn -0.510465681552887 -0.3161933422088623 -0.7996540069580078
vn -0.5218790173530579 -0.3049226999282837 -0.7966582775115967
vn -0.4940049648284912 -0.32424867153167725 -0.8067352771759033
vn -0.47867515683174133 -0.33162009716033936 -0.8129564523696899
vn -0.4642128348350525 -0.3384571671485901 -0.81850665807724
vn -0.45531100034713745 -0.3466658890247345 -0.8200699090957642
vn -0.5373464226722717 -0.27680766582489014 -0.7966405749320984
vn -0.5476804375648499 -0.26503536105155945 -0.7936009168624878
vn -0.5222741365432739 -0.28536561131477356 -0.8036144375801086
vn -0.5080907344818115 -0.29317978024482727 -0.8098699450492859
vn -0.4945913851261139 -0.300415575504303 -0.8155549764633179
vn -0.4858686923980713 -0.3092344403266907 -0.8174996972084045
vn -0.5620121359825134 -0.2356904149055481 -0.7928382158279419
vn -0.5711376070976257 -0.222854346036911 -0.790023922920227
vn -0.5474072694778442 -0.24642135202884674 -0.799763560295105
vn -0.5337456464767456 -0.25630736351013184 -0.8058672547340393
vn -0.5208093523979187 -0.26553112268447876 -0.8113266229629517
vn -0.513532280921936 -0.275086909532547 -0.8127803206443787
vn -0.5792725086212158 -0.1946026086807251 -0.7915638089179993
vn -0.5870327353477478 -0.1818649172782898 -0.788871169090271
vn -0.5663190484046936 -0.20530909299850464 -0.7982048392295837
vn -0.5540393590927124 -0.21520529687404633 -0.8041934370994568
vn -0.542278528213501 -0.22446730732917786 -0.8096594214439392
vn -0.5355003476142883 -0.23426809906959534 -0.8113925457000732
vn -0.5970450043678284 -0.15010376274585724 -0.7880393862724304
vn -0.6034936904907227 -0.13668367266654968 -0.7855653762817383
vn -0.5849273204803467 -0.16279014945030212 -0.7945812940597534
vn -0.5735130906105042 -0.17456187307834625 -0.8003816604614258
vn -0.5626393556594849 -0.1856168657541275 -0.8055950403213501
vn -0.5572922825813293 -0.19596123695373535 -0.8068608641624451
vn -0.605303943157196 -0.10962104797363281 -0.7884100079536438
vn -0.6104930639266968 -0.09672411531209946 -0.7860932350158691
vn -0.5949141383171082 -0.12167979031801224 -0.7945257425308228
vn -0.5849635601043701 -0.13296078145503998 -0.8000869154930115
vn -0.5753486752510071 -0.14362801611423492 -0.8051986694335938
vn -0.5706225633621216 -0.1537889987230301 -0.8066837787628174
vn -0.601372480392456 -0.0928548201918602 -0.7935546636581421
vn -0.6053895950317383 -0.08124614506959915 -0.7917717099189758
vn -0.5941535830497742 -0.10264769941568375 -0.7977750301361084
vn -0.5881043672561646 -0.11077331751585007 -0.8011632561683655
vn -0.582966685295105 -0.11762094497680664 -0.8039372563362122
vn -0.58125901222229 -0.12300843745470047 -0.8043674230575562
vt 1.0 -2.384185791015625e-07
vt 0.800000011920929 0.038461267948150635
vt 0.800000011920929 -2.384185791015625e-07
vt 1.0 0.03846132755279541
vt 0.6000000238418579 0.038461267948150635
vt 0.6000000238418579 -2.384185791015625e-07
vt 0.3999999761581421 0.038461267948150635
vt 0.3999999761581421 -2.384185791015625e-07
vt 0.19999998807907104 0.03846120834350586
vt 0.19999998807907104 -3.5762786865234375e-07
vt 0.0 0.03846120834350586
vt 0.0 -3.5762786865234375e-07
vt 0.800000011920929 0.07692283391952515
vt 1.0 0.07692283391952515
vt 0.6000000238418579 0.07692277431488037
vt 0.3999999761581421 0.07692277431488037
vt 0.19999998807907104 0.07692277431488037
vt 0.0 0.07692277431488037
vt 0.7999999523162842 0.11538434028625488
vt 1.0 0.11538439989089966
vt 0.6000000238418579 0.11538434028625488
vt 0.3999999761581421 0.11538434028625488
vt 0.19999998807907104 0.11538434028625488
vt 0.0 0.11538428068161011
vt 0.7999999523162842 0.1538459062576294
vt 1.0 0.1538459062576294
vt 0.6000000238418579 0.1538459062576294
vt 0.3999999761581421 0.15384584665298462
vt 0.19999998807907104 0.15384584665298462
vt 0.0 0.15384584665298462
vt 0.7999999523162842 0.1923074722290039
vt 1.0 0.1923074722290039
vt 0.5999999642372131 0.19230741262435913
vt 0.3999999761581421 0.19230741262435913
vt 0.19999998807907104 0.19230735301971436
vt 0.0 0.19230735301971436
vt 0.7999999523162842 0.23076897859573364
vt 1.0 0.23076897859573364
vt 0.5999999642372131 0.23076897859573364
vt 0.3999999761581421 0.23076891899108887
vt 0.19999998807907104 0.23076891899108887
vt 0.0 0.23076891899108887
vt 0.7999999523162842 0.2692304849624634
vt 1.0 0.26923054456710815
vt 0.5999999642372131 0.2692304849624634
vt 0.3999999761581421 0.2692304849624634
vt 0.19999998807907104 0.2692304849624634
vt 0.0 0.2692304849624634
vt 0.7999999523162842 0.3076920509338379
vt 1.0 0.3076920509338379
vt 0.5999999642372131 0.3076920509338379
vt 0.3999999761581421 0.3076920509338379
vt 0.19999998807907104 0.3076920509338379
vt 0.0 0.3076919913291931
vt 0.7999999523162842 0.3461536169052124
vt 0.9999999403953552 0.3461536169052124
vt 0.5999999642372131 0.3461536169052124
vt 0.3999999165534973 0.3461535573005676
vt 0.19999992847442627 0.3461535573005676
vt 0.0 0.34615349769592285
vt 0.7999999523162842 0.38461512327194214
vt 0.9999999403953552 0.3846151828765869
vt 0.5999999642372131 0.38461512327194214
vt 0.3999999165534973 0.38461506366729736
vt 0.19999992847442627 0.38461506366729736
vt 0.0 0.38461506366729736
vt 0.7999999523162842 0.4230766296386719
vt 0.9999999403953552 0.42307668924331665
vt 0.5999999642372131 0.4230766296386719
vt 0.3999999165534973 0.4230766296386719
vt 0.19999992847442627 0.4230766296386719
vt 0.0 0.4230766296386719
vt 0.7999999523162842 0.4615381956100464
vt 0.9999999403953552 0.4615381956100464
vt 0.5999999642372131 0.4615381956100464
vt 0.3999999165534973 0.4615381956100464
vt 0.19999992847442627 0.4615381956100464
vt 0.0 0.4615381360054016
vt 0.7999999523162842 0.4999997615814209
vt 0.9999999403953552 0.4999997615814209
vt 0.5999999642372131 0.4999997615814209
vt 0.3999999165534973 0.4999997019767761
vt 0.19999992847442627 0.4999997019767761
vt 0.0 0.49999964237213135
vt 0.7999999523162842 0.5384613275527954
vt 0.9999999403953552 0.5384613275527954
vt 0.5999999046325684 0.5384612679481506
vt 0.3999999165534973 0.5384612679481506
vt 0.19999992847442627 0.5384612679481506
vt 0.0 0.5384612679481506
vt 0.7999999523162842 0.5769228935241699
vt 0.9999999403953552 0.5769228935241699
vt 0.5999999046325684 0.5769228339195251
vt 0.3999999165534973 0.5769228339195251
vt 0.19999992847442627 0.5769228339195251
vt 0.0 0.5769228339195251
vt 0.7999999523162842 0.6153844594955444
vt 0.9999999403953552 0.6153844594955444
vt 0.5999999046325684 0.6153843998908997
vt 0.3999999165534973 0.6153843998908997
vt 0.19999992847442627 0.6153843998908997
vt 0.0 0.6153843998908997
vt 0.7999999523162842 0.653846025466919
vt 0.9999999403953552 0.653846025466919
vt 0.5999999046325684 0.6538459658622742
vt 0.3999999165534973 0.6538459658622742
vt 0.19999992847442627 0.6538459658622742
vt 0.0 0.6538459658622742
vt 0.7999999523162842 0.6923075914382935
vt 0.9999999403953552 0.6923075914382935
vt 0.5999999046325684 0.6923075318336487
vt 0.3999999165534973 0.6923075318336487
vt 0.19999992847442627 0.6923075318336487
vt -1.1920928955078125e-07 0.6923075318336487
vt 0.7999999523162842 0.730769157409668
vt 0.9999999403953552 0.730769157409668
vt 0.5999999046325684 0.7307690978050232
vt 0.3999999165534973 0.7307690978050232
vt 0.19999992847442627 0.7307690978050232
vt -1.1920928955078125e-07 0.7307690978050232
vt 0.7999999523162842 0.7692307233810425
vt 0.9999999403953552 0.7692307233810425
vt 0.5999999046325684 0.7692306637763977
vt 0.3999999165534973 0.7692306637763977
vt 0.19999992847442627 0.7692306637763977
vt -1.1920928955078125e-07 0.7692306637763977
vt 0.7999999523162842 0.807692289352417
vt 0.9999999403953552 0.807692289352417
vt 0.5999999046325684 0.8076922297477722
vt 0.3999999165534973 0.8076922297477722
vt 0.19999992847442627 0.8076922297477722
vt -1.1920928955078125e-07 0.8076922297477722
vt 0.7999999523162842 0.8461538553237915
vt 0.9999999403953552 0.8461538553237915
vt 0.5999999046325684 0.8461537957191467
vt 0.3999999165534973 0.8461537957191467
vt 0.19999992847442627 0.8461537957191467
vt -1.1920928955078125e-07 0.8461537957191467
vt 0.7999999523162842 0.884615421295166
vt 0.9999999403953552 0.884615421295166
vt 0.5999999046325684 0.8846153616905212
vt 0.3999999165534973 0.8846153616905212
vt 0.19999992847442627 0.8846153616905212
vt -1.1920928955078125e-07 0.8846153616905212
vt 0.7999999523162842 0.9230769872665405
vt 0.9999999403953552 0.9230769872665405
vt 0.5999999046325684 0.9230769276618958
vt 0.3999999165534973 0.9230769276618958
vt 0.19999992847442627 0.9230769276618958
vt -1.1920928955078125e-07 0.9230769276618958
vt 0.7999998927116394 0.961538553237915
vt 0.9999999403953552 0.961538553237915
vt 0.5999999046325684 0.9615384936332703
vt 0.3999999165534973 0.9615384936332703
vt 0.19999992847442627 0.9615384936332703
vt -1.1920928955078125e-07 0.9615384936332703
vt 0.7999998927116394 1.0000001192092896
vt 0.9999999403953552 1.0000001192092896
vt 0.5999999046325684 1.0000001192092896
vt 0.3999999165534973 1.0000001192092896
vt 0.19999992847442627 1.0
vt -1.1920928955078125e-07 1.0

g Mesh_FX_Plane_01
s 1
usemtl Mesh_FX_Plane_01
f 3/3/3 2/2/2 1/1/1 
f 4/4/4 1/1/1 2/2/2 
f 2/2/2 3/3/3 5/5/5 
f 6/6/6 5/5/5 3/3/3 
f 5/5/5 6/6/6 7/7/7 
f 8/8/8 7/7/7 6/6/6 
f 7/7/7 8/8/8 9/9/9 
f 10/10/10 9/9/9 8/8/8 
f 9/9/9 10/10/10 11/11/11 
f 12/12/12 11/11/11 10/10/10 
f 2/2/2 13/13/13 4/4/4 
f 14/14/14 4/4/4 13/13/13 
f 5/5/5 15/15/15 2/2/2 
f 13/13/13 2/2/2 15/15/15 
f 7/7/7 16/16/16 5/5/5 
f 15/15/15 5/5/5 16/16/16 
f 9/9/9 17/17/17 7/7/7 
f 16/16/16 7/7/7 17/17/17 
f 11/11/11 18/18/18 9/9/9 
f 17/17/17 9/9/9 18/18/18 
f 13/13/13 19/19/19 14/14/14 
f 20/20/20 14/14/14 19/19/19 
f 15/15/15 21/21/21 13/13/13 
f 19/19/19 13/13/13 21/21/21 
f 16/16/16 22/22/22 15/15/15 
f 21/21/21 15/15/15 22/22/22 
f 17/17/17 23/23/23 16/16/16 
f 22/22/22 16/16/16 23/23/23 
f 18/18/18 24/24/24 17/17/17 
f 23/23/23 17/17/17 24/24/24 
f 19/19/19 25/25/25 20/20/20 
f 26/26/26 20/20/20 25/25/25 
f 21/21/21 27/27/27 19/19/19 
f 25/25/25 19/19/19 27/27/27 
f 22/22/22 28/28/28 21/21/21 
f 27/27/27 21/21/21 28/28/28 
f 23/23/23 29/29/29 22/22/22 
f 28/28/28 22/22/22 29/29/29 
f 24/24/24 30/30/30 23/23/23 
f 29/29/29 23/23/23 30/30/30 
f 25/25/25 31/31/31 26/26/26 
f 32/32/32 26/26/26 31/31/31 
f 27/27/27 33/33/33 25/25/25 
f 31/31/31 25/25/25 33/33/33 
f 28/28/28 34/34/34 27/27/27 
f 33/33/33 27/27/27 34/34/34 
f 29/29/29 35/35/35 28/28/28 
f 34/34/34 28/28/28 35/35/35 
f 30/30/30 36/36/36 29/29/29 
f 35/35/35 29/29/29 36/36/36 
f 31/31/31 37/37/37 32/32/32 
f 38/38/38 32/32/32 37/37/37 
f 33/33/33 39/39/39 31/31/31 
f 37/37/37 31/31/31 39/39/39 
f 34/34/34 40/40/40 33/33/33 
f 39/39/39 33/33/33 40/40/40 
f 35/35/35 41/41/41 34/34/34 
f 40/40/40 34/34/34 41/41/41 
f 36/36/36 42/42/42 35/35/35 
f 41/41/41 35/35/35 42/42/42 
f 37/37/37 43/43/43 38/38/38 
f 44/44/44 38/38/38 43/43/43 
f 39/39/39 45/45/45 37/37/37 
f 43/43/43 37/37/37 45/45/45 
f 40/40/40 46/46/46 39/39/39 
f 45/45/45 39/39/39 46/46/46 
f 41/41/41 47/47/47 40/40/40 
f 46/46/46 40/40/40 47/47/47 
f 42/42/42 48/48/48 41/41/41 
f 47/47/47 41/41/41 48/48/48 
f 43/43/43 49/49/49 44/44/44 
f 50/50/50 44/44/44 49/49/49 
f 45/45/45 51/51/51 43/43/43 
f 49/49/49 43/43/43 51/51/51 
f 46/46/46 52/52/52 45/45/45 
f 51/51/51 45/45/45 52/52/52 
f 47/47/47 53/53/53 46/46/46 
f 52/52/52 46/46/46 53/53/53 
f 48/48/48 54/54/54 47/47/47 
f 53/53/53 47/47/47 54/54/54 
f 49/49/49 55/55/55 50/50/50 
f 56/56/56 50/50/50 55/55/55 
f 51/51/51 57/57/57 49/49/49 
f 55/55/55 49/49/49 57/57/57 
f 52/52/52 58/58/58 51/51/51 
f 57/57/57 51/51/51 58/58/58 
f 53/53/53 59/59/59 52/52/52 
f 58/58/58 52/52/52 59/59/59 
f 54/54/54 60/60/60 53/53/53 
f 59/59/59 53/53/53 60/60/60 
f 55/55/55 61/61/61 56/56/56 
f 62/62/62 56/56/56 61/61/61 
f 57/57/57 63/63/63 55/55/55 
f 61/61/61 55/55/55 63/63/63 
f 58/58/58 64/64/64 57/57/57 
f 63/63/63 57/57/57 64/64/64 
f 59/59/59 65/65/65 58/58/58 
f 64/64/64 58/58/58 65/65/65 
f 60/60/60 66/66/66 59/59/59 
f 65/65/65 59/59/59 66/66/66 
f 61/61/61 67/67/67 62/62/62 
f 68/68/68 62/62/62 67/67/67 
f 63/63/63 69/69/69 61/61/61 
f 67/67/67 61/61/61 69/69/69 
f 64/64/64 70/70/70 63/63/63 
f 69/69/69 63/63/63 70/70/70 
f 65/65/65 71/71/71 64/64/64 
f 70/70/70 64/64/64 71/71/71 
f 66/66/66 72/72/72 65/65/65 
f 71/71/71 65/65/65 72/72/72 
f 67/67/67 73/73/73 68/68/68 
f 74/74/74 68/68/68 73/73/73 
f 69/69/69 75/75/75 67/67/67 
f 73/73/73 67/67/67 75/75/75 
f 70/70/70 76/76/76 69/69/69 
f 75/75/75 69/69/69 76/76/76 
f 71/71/71 77/77/77 70/70/70 
f 76/76/76 70/70/70 77/77/77 
f 72/72/72 78/78/78 71/71/71 
f 77/77/77 71/71/71 78/78/78 
f 73/73/73 79/79/79 74/74/74 
f 80/80/80 74/74/74 79/79/79 
f 75/75/75 81/81/81 73/73/73 
f 79/79/79 73/73/73 81/81/81 
f 76/76/76 82/82/82 75/75/75 
f 81/81/81 75/75/75 82/82/82 
f 77/77/77 83/83/83 76/76/76 
f 82/82/82 76/76/76 83/83/83 
f 78/78/78 84/84/84 77/77/77 
f 83/83/83 77/77/77 84/84/84 
f 79/79/79 85/85/85 80/80/80 
f 86/86/86 80/80/80 85/85/85 
f 81/81/81 87/87/87 79/79/79 
f 85/85/85 79/79/79 87/87/87 
f 82/82/82 88/88/88 81/81/81 
f 87/87/87 81/81/81 88/88/88 
f 83/83/83 89/89/89 82/82/82 
f 88/88/88 82/82/82 89/89/89 
f 84/84/84 90/90/90 83/83/83 
f 89/89/89 83/83/83 90/90/90 
f 85/85/85 91/91/91 86/86/86 
f 92/92/92 86/86/86 91/91/91 
f 87/87/87 93/93/93 85/85/85 
f 91/91/91 85/85/85 93/93/93 
f 88/88/88 94/94/94 87/87/87 
f 93/93/93 87/87/87 94/94/94 
f 89/89/89 95/95/95 88/88/88 
f 94/94/94 88/88/88 95/95/95 
f 90/90/90 96/96/96 89/89/89 
f 95/95/95 89/89/89 96/96/96 
f 91/91/91 97/97/97 92/92/92 
f 98/98/98 92/92/92 97/97/97 
f 93/93/93 99/99/99 91/91/91 
f 97/97/97 91/91/91 99/99/99 
f 94/94/94 100/100/100 93/93/93 
f 99/99/99 93/93/93 100/100/100 
f 95/95/95 101/101/101 94/94/94 
f 100/100/100 94/94/94 101/101/101 
f 96/96/96 102/102/102 95/95/95 
f 101/101/101 95/95/95 102/102/102 
f 97/97/97 103/103/103 98/98/98 
f 104/104/104 98/98/98 103/103/103 
f 99/99/99 105/105/105 97/97/97 
f 103/103/103 97/97/97 105/105/105 
f 100/100/100 106/106/106 99/99/99 
f 105/105/105 99/99/99 106/106/106 
f 101/101/101 107/107/107 100/100/100 
f 106/106/106 100/100/100 107/107/107 
f 102/102/102 108/108/108 101/101/101 
f 107/107/107 101/101/101 108/108/108 
f 103/103/103 109/109/109 104/104/104 
f 110/110/110 104/104/104 109/109/109 
f 105/105/105 111/111/111 103/103/103 
f 109/109/109 103/103/103 111/111/111 
f 106/106/106 112/112/112 105/105/105 
f 111/111/111 105/105/105 112/112/112 
f 107/107/107 113/113/113 106/106/106 
f 112/112/112 106/106/106 113/113/113 
f 108/108/108 114/114/114 107/107/107 
f 113/113/113 107/107/107 114/114/114 
f 109/109/109 115/115/115 110/110/110 
f 116/116/116 110/110/110 115/115/115 
f 111/111/111 117/117/117 109/109/109 
f 115/115/115 109/109/109 117/117/117 
f 112/112/112 118/118/118 111/111/111 
f 117/117/117 111/111/111 118/118/118 
f 113/113/113 119/119/119 112/112/112 
f 118/118/118 112/112/112 119/119/119 
f 114/114/114 120/120/120 113/113/113 
f 119/119/119 113/113/113 120/120/120 
f 115/115/115 121/121/121 116/116/116 
f 122/122/122 116/116/116 121/121/121 
f 117/117/117 123/123/123 115/115/115 
f 121/121/121 115/115/115 123/123/123 
f 118/118/118 124/124/124 117/117/117 
f 123/123/123 117/117/117 124/124/124 
f 119/119/119 125/125/125 118/118/118 
f 124/124/124 118/118/118 125/125/125 
f 120/120/120 126/126/126 119/119/119 
f 125/125/125 119/119/119 126/126/126 
f 121/121/121 127/127/127 122/122/122 
f 128/128/128 122/122/122 127/127/127 
f 123/123/123 129/129/129 121/121/121 
f 127/127/127 121/121/121 129/129/129 
f 124/124/124 130/130/130 123/123/123 
f 129/129/129 123/123/123 130/130/130 
f 125/125/125 131/131/131 124/124/124 
f 130/130/130 124/124/124 131/131/131 
f 126/126/126 132/132/132 125/125/125 
f 131/131/131 125/125/125 132/132/132 
f 127/127/127 133/133/133 128/128/128 
f 134/134/134 128/128/128 133/133/133 
f 129/129/129 135/135/135 127/127/127 
f 133/133/133 127/127/127 135/135/135 
f 130/130/130 136/136/136 129/129/129 
f 135/135/135 129/129/129 136/136/136 
f 131/131/131 137/137/137 130/130/130 
f 136/136/136 130/130/130 137/137/137 
f 132/132/132 138/138/138 131/131/131 
f 137/137/137 131/131/131 138/138/138 
f 133/133/133 139/139/139 134/134/134 
f 140/140/140 134/134/134 139/139/139 
f 135/135/135 141/141/141 133/133/133 
f 139/139/139 133/133/133 141/141/141 
f 136/136/136 142/142/142 135/135/135 
f 141/141/141 135/135/135 142/142/142 
f 137/137/137 143/143/143 136/136/136 
f 142/142/142 136/136/136 143/143/143 
f 138/138/138 144/144/144 137/137/137 
f 143/143/143 137/137/137 144/144/144 
f 139/139/139 145/145/145 140/140/140 
f 146/146/146 140/140/140 145/145/145 
f 141/141/141 147/147/147 139/139/139 
f 145/145/145 139/139/139 147/147/147 
f 142/142/142 148/148/148 141/141/141 
f 147/147/147 141/141/141 148/148/148 
f 143/143/143 149/149/149 142/142/142 
f 148/148/148 142/142/142 149/149/149 
f 144/144/144 150/150/150 143/143/143 
f 149/149/149 143/143/143 150/150/150 
f 145/145/145 151/151/151 146/146/146 
f 152/152/152 146/146/146 151/151/151 
f 147/147/147 153/153/153 145/145/145 
f 151/151/151 145/145/145 153/153/153 
f 148/148/148 154/154/154 147/147/147 
f 153/153/153 147/147/147 154/154/154 
f 149/149/149 155/155/155 148/148/148 
f 154/154/154 148/148/148 155/155/155 
f 150/150/150 156/156/156 149/149/149 
f 155/155/155 149/149/149 156/156/156 
f 151/151/151 157/157/157 152/152/152 
f 158/158/158 152/152/152 157/157/157 
f 153/153/153 159/159/159 151/151/151 
f 157/157/157 151/151/151 159/159/159 
f 154/154/154 160/160/160 153/153/153 
f 159/159/159 153/153/153 160/160/160 
f 155/155/155 161/161/161 154/154/154 
f 160/160/160 154/154/154 161/161/161 
f 156/156/156 162/162/162 155/155/155 
f 161/161/161 155/155/155 162/162/162 

