v 3.2079591751098633 0.018522262573242188 4.177075386047363
v -0.35473155975341797 0.018522262573242188 -0.9097442626953125
v -0.8128175735473633 0.018524169921875 -0.5889878273010254
v 2.7499094009399414 0.018524169921875 4.497807025909424
v -4.625987529754639 -0.018520355224609375 2.5642261505126953
v -4.332610607147217 -0.018522262573242188 3.0337259769439697
v -3.7693710327148438 -0.018522262573242188 2.639341354370117
v -4.024608612060547 -0.018522262573242188 2.2308759689331055
v -4.868680477142334 -0.018522262573242188 2.066631317138672
v -4.235751152038574 -0.018524169921875 1.7979693412780762
v -5.0580315589904785 -0.018520355224609375 1.5463948249816895
v -4.400486469268799 -0.018520355224609375 1.3453636169433594
v -5.191965103149414 -0.018520355224609375 1.0092153549194336
v -4.517009258270264 -0.018520355224609375 0.8780174255371094
v -5.269014835357666 -0.018520355224609375 0.46097803115844727
v -4.584041595458984 -0.018520355224609375 0.40105104446411133
v -5.288335800170898 -0.018520355224609375 -0.09230852127075195
v -4.600852012634277 -0.018520355224609375 -0.08030891418457031
v -5.249716758728027 -0.018520355224609375 -0.6445846557617188
v -4.5672526359558105 -0.018520355224609375 -0.560788631439209
v -5.153581142425537 -0.018522262573242188 -1.1897993087768555
v -4.483614444732666 -0.018520355224609375 -1.0351247787475586
v -5.000980377197266 -0.018522262573242188 -1.721977710723877
v -4.350852966308594 -0.018520355224609375 -1.498121738433838
v -4.7935895919799805 -0.018522262573242188 -2.235288143157959
v -4.170422554016113 -0.018522262573242188 -1.9447026252746582
v -4.533679008483887 -0.018522262573242188 -2.7241101264953613
v -3.9443001747131348 -0.018522262573242188 -2.3699755668640137
v -4.224095821380615 -0.018522262573242188 -3.1830849647521973
v -3.674962043762207 -0.018520355224609375 -2.769284725189209
v -3.868232250213623 -0.018520355224609375 -3.607186794281006
v -3.365361213684082 -0.018522262573242188 -3.138251781463623
v -3.4699883460998535 -0.018522262573242188 -3.991767406463623
v -3.0188894271850586 -0.018520355224609375 -3.4728379249572754
v -3.033726692199707 -0.018520355224609375 -4.33261251449585
v -2.639341354370117 -0.018520355224609375 -3.7693724632263184
v -2.5642261505126953 -0.018522262573242188 -4.6259894371032715
v -2.2308759689331055 -0.018520355224609375 -4.024610996246338
v -2.066631317138672 -0.018522262573242188 -4.86868143081665
v -1.7979679107666016 -0.018522262573242188 -4.235753536224365
v -1.5463943481445312 -0.018520355224609375 -5.058033466339111
v -1.345362663269043 -0.018522262573242188 -4.400489330291748
v -1.0092144012451172 -0.018522262573242188 -5.191967487335205
v -0.8780155181884766 -0.018522262573242188 -4.5170111656188965
v -0.46097660064697266 -0.018522262573242188 -5.269015789031982
v -0.4010496139526367 -0.018520355224609375 -4.584043979644775
v 0.09230899810791016 -0.018522262573242188 -5.288337230682373
v 0.08030891418457031 -0.018520355224609375 -4.600854396820068
v 0.6445865631103516 -0.018522262573242188 -5.249718189239502
v 0.5607900619506836 -0.018522262573242188 -4.567256450653076
v 1.189798355102539 -0.018522262573242188 -5.15358304977417
v 1.035125732421875 -0.018522262573242188 -4.483617305755615
v 1.7219762802124023 -0.018522262573242188 -5.0009846687316895
v 1.4981193542480469 -0.018520355224609375 -4.350857257843018
v 2.2352867126464844 -0.018520355224609375 -4.793594837188721
v 1.9447002410888672 -0.018522262573242188 -4.170426845550537
v 2.7241077423095703 -0.018522262573242188 -4.5336833000183105
v 2.3699750900268555 -0.018522262573242188 -3.944304943084717
v 3.1830835342407227 -0.018524169921875 -4.224101543426514
v 2.7692832946777344 -0.018522262573242188 -3.67496919631958
v 3.607184410095215 -0.018522262573242188 -3.8682379722595215
v 3.138251304626465 -0.018524169921875 -3.3653693199157715
v 3.991765022277832 -0.018522262573242188 -3.4699950218200684
v 3.4728355407714844 -0.018520355224609375 -3.0188965797424316
v 4.332610130310059 -0.018522262573242188 -3.03373384475708
v 3.7693710327148438 -0.018522262573242188 -2.6393494606018066
v 4.625986099243164 -0.018524169921875 -2.5642333030700684
v 4.024608612060547 -0.018520355224609375 -2.2308850288391113
v 4.868680953979492 -0.018520355224609375 -2.0666394233703613
v 4.235753059387207 -0.018520355224609375 -1.7979779243469238
v 5.05803108215332 -0.018522262573242188 -1.54640531539917
v 4.400486946105957 -0.018520355224609375 -1.3453717231750488
v 5.191965103149414 -0.018522262573242188 -1.0092263221740723
v 4.517010688781738 -0.018522262573242188 -0.8780269622802734
v 5.269016265869141 -0.018522262573242188 -0.46098995208740234
v 4.584043502807617 -0.018524169921875 -0.4010624885559082
v 5.288336753845215 -0.018522262573242188 0.09229612350463867
v 4.600854873657227 -0.018522262573242188 0.08029747009277344
v 5.249720573425293 -0.018522262573242188 0.6445722579956055
v 4.567258834838867 -0.018520355224609375 0.5607771873474121
v 5.153585433959961 -0.018522262573242188 1.1897859573364258
v 4.48361873626709 -0.018520355224609375 1.0351133346557617
v 5.0009870529174805 -0.018520355224609375 1.7219634056091309
v 4.350859642028809 -0.018520355224609375 1.4981083869934082
v 4.793597221374512 -0.018522262573242188 2.2352747917175293
v 4.170429229736328 -0.018520355224609375 1.944688320159912
v 4.533687591552734 -0.018522262573242188 2.7240965366363525
v 3.944308280944824 -0.018520355224609375 2.369964361190796
v 4.224106788635254 -0.018522262573242188 3.183072566986084
v 3.674973487854004 -0.018520355224609375 2.769272565841675
v 3.8682432174682617 -0.018522262573242188 3.6071736812591553
v 3.365372657775879 -0.018520355224609375 3.1382408142089844
v 3.470001220703125 -0.018520355224609375 3.9917545318603516
v 3.0189008712768555 -0.018522262573242188 3.472825765609741
v 3.0337419509887695 -0.018522262573242188 4.332601070404053
v 2.639354705810547 -0.018520355224609375 3.769362688064575
v 2.564241409301758 -0.018522262573242188 4.625978469848633
v 2.230891227722168 -0.018520355224609375 4.024600982666016
v 2.066648483276367 -0.018520355224609375 4.868672847747803
v 1.7979850769042969 -0.018520355224609375 4.235745429992676
v 1.546412467956543 -0.018522262573242188 5.058024883270264
v 1.3453788757324219 -0.018518447875976562 4.400481700897217
v 1.0092334747314453 -0.018522262573242188 5.191960334777832
v 0.8780336380004883 -0.018520355224609375 4.517005443572998
v 0.4609975814819336 -0.018520355224609375 5.269012451171875
v 0.40106773376464844 -0.018520355224609375 4.584040641784668
v -0.09228897094726562 -0.018520355224609375 5.28833532333374
v -0.0802907943725586 -0.018520355224609375 4.600851058959961
v -0.6445646286010742 -0.018522262573242188 5.24971866607666
v -0.5607709884643555 -0.018520355224609375 4.567254543304443
v -1.1897783279418945 -0.018522262573242188 5.153585433959961
v -1.0351066589355469 -0.018518447875976562 4.48361873626709
v -1.7219557762145996 -0.018522262573242188 5.0009870529174805
v -1.4981012344360352 -0.018520355224609375 4.350858688354492
v -2.2352685928344727 -0.018520355224609375 4.79359769821167
v -1.9446825981140137 -0.018520355224609375 4.170429706573486
v -2.724090576171875 -0.018522262573242188 4.533689975738525
v -2.3699584007263184 -0.018520355224609375 3.944309711456299
v -3.183065891265869 -0.018522262573242188 4.2241082191467285
v -2.769268035888672 -0.018522262573242188 3.6749744415283203
v -3.607168197631836 -0.018524169921875 3.8682477474212646
v -3.1382365226745605 -0.018522262573242188 3.365375518798828
v -3.9917502403259277 -0.018520355224609375 3.470006227493286
v -3.4728217124938965 -0.018522262573242188 3.0189049243927
v -1.463348388671875 -0.018522262573242188 5.659919738769531
v -1.7582674026489258 -0.018520355224609375 5.575353622436523
v -2.608132839202881 -0.018522262573242188 5.231989860534668
v -2.879025936126709 -0.018522262573242188 5.087954521179199
v -3.640058994293213 -0.018522262573242188 4.574451446533203
v -3.8728294372558594 -0.018520355224609375 4.3791351318359375
v -4.5106940269470215 -0.018520355224609375 3.718834400177002
v -4.69959020614624 -0.018522262573242188 3.4770586490631104
v 4.76837158203125e-06 -0.01851654052734375 -2.86102294921875e-06
v -5.320144176483154 -0.018520355224609375 2.4232993125915527
v -5.184995174407959 -0.018520355224609375 2.700396776199341
v -5.707719326019287 -0.018522262573242188 1.2642254829406738
v -5.6331353187561035 -0.018522262573242188 1.5633668899536133
v -5.845812797546387 -0.018520355224609375 0.0506443977355957
v -5.8351054191589355 -0.018520355224609375 0.35726165771484375
v -5.728725433349609 -0.018522262573242188 -1.1651463508605957
v -5.781744480133057 -0.018522262573242188 -0.8644599914550781
v -5.361013412475586 -0.018520355224609375 -2.3314414024353027
v -5.475945472717285 -0.018520355224609375 -2.0469775199890137
v -4.759542942047119 -0.018522262573242188 -3.3944973945617676
v -4.93027925491333 -0.018522262573242188 -3.141371250152588
v -3.9492478370666504 -0.018520355224609375 -4.310398578643799
v -4.1699442863464355 -0.018522262573242188 -4.097273349761963
v -2.9680137634277344 -0.018522262573242188 -5.036519527435303
v -3.225701332092285 -0.018522262573242188 -4.875498294830322
v -1.8539175987243652 -0.018522262573242188 -5.5443034172058105
v -2.143624782562256 -0.018520355224609375 -5.438859462738037
v -0.660679817199707 -0.018520355224609375 -5.80859899520874
v -0.965977668762207 -0.018522262573242188 -5.765693187713623
v 0.5599498748779297 -0.018522262573242188 -5.81913423538208
v 0.2553682327270508 -0.018522262573242188 -5.840432643890381
v 1.759007453918457 -0.018522262573242188 -5.575144290924072
v 1.4626502990722656 -0.018520355224609375 -5.660123348236084
v 2.879044532775879 -0.018520355224609375 -5.087948322296143
v 2.608152389526367 -0.018522262573242188 -5.231983661651611
v 3.8734073638916016 -0.018522262573242188 -4.378653049468994
v 3.6395139694213867 -0.018520355224609375 -4.5749125480651855
v 4.699591636657715 -0.018522262573242188 -3.4770607948303223
v 4.510704040527344 -0.018522262573242188 -3.7188258171081543
v 5.319492340087891 -0.018522262573242188 -2.424644947052002
v 5.185644149780273 -0.018524169921875 -2.6990694999694824
v 5.707357406616211 -0.018522262573242188 -1.2656779289245605
v 5.633492469787598 -0.018520355224609375 -1.5619349479675293
v 5.84581184387207 -0.018522262573242188 -0.050656795501708984
v 5.835103988647461 -0.018522262573242188 -0.35727405548095703
v 5.728728294372559 -0.018522262573242188 1.1651339530944824
v 5.781746864318848 -0.018522262573242188 0.8644466400146484
v 5.361298561096191 -0.018522262573242188 2.3307414054870605
v 5.475672721862793 -0.018522262573242188 2.0476484298706055
v 4.75996208190918 -0.018522262573242188 3.393876314163208
v 4.929878234863281 -0.018522262573242188 3.141964912414551
v 3.9497928619384766 -0.018522262573242188 4.309871673583984
v 4.169425010681152 -0.018522262573242188 4.097774028778076
v 2.9680299758911133 -0.018524169921875 5.036509990692139
v 3.2257165908813477 -0.018522262573242188 4.875487804412842
v 1.8539361953735352 -0.018522262573242188 5.544297218322754
v 2.1436424255371094 -0.018522262573242188 5.438851833343506
v 0.6614398956298828 -0.018520355224609375 5.8084917068481445
v 0.9652595520019531 -0.018522262573242188 5.765791893005371
v -0.5599279403686523 -0.018522262573242188 5.8191351890563965
v -0.25534629821777344 -0.018522262573242188 5.840432167053223
v -0.2890157699584961 0.018522262573242188 5.095321178436279
v -0.2897205352783203 0.018522262573242188 -1.1150336265563965
v -0.8489408493041992 0.018522262573242188 -1.1150317192077637
v -0.8481922149658203 0.018522262573242188 5.095322608947754
v 5.034177780151367 0.018524169921875 0.09107017517089844
v -1.0819511413574219 0.018522262573242188 -0.9866514205932617
v -1.1790571212768555 0.018522262573242188 -0.4359273910522461
v 4.937078475952148 0.018522262573242188 0.6417522430419922
vn -0.0 -1.0 0.0
vn -0.0 -1.0 0.0
vn -0.0 -1.0 0.0
vn -0.0 -1.0 0.0
vn -0.0 -1.0 0.0
vn -0.0 -1.0 0.0
vn -0.0 -1.0 0.0
vn -0.0 -1.0 0.0
vn -0.0 -1.0 0.0
vn -0.0 -1.0 0.0
vn -0.0 -1.0 0.0
vn -0.0 -1.0 0.0
vn -0.0 -1.0 0.0
vn -0.0 -1.0 0.0
vn -0.0 -1.0 0.0
vn -0.0 -1.0 0.0
vn -0.0 -1.0 0.0
vn -0.0 -1.0 0.0
vn -0.0 -1.0 0.0
vn -0.0 -1.0 0.0
vn -0.0 -1.0 0.0
vn -0.0 -1.0 0.0
vn -0.0 -1.0 0.0
vn -0.0 -1.0 0.0
vn -0.0 -1.0 0.0
vn -0.0 -1.0 0.0
vn -0.0 -1.0 0.0
vn -0.0 -1.0 0.0
vn -0.0 -1.0 0.0
vn -0.0 -1.0 0.0
vn -0.0 -1.0 0.0
vn -0.0 -1.0 0.0
vn -0.0 -1.0 0.0
vn -0.0 -1.0 0.0
vn -0.0 -1.0 0.0
vn -0.0 -1.0 0.0
vn -0.0 -1.0 0.0
vn -0.0 -1.0 0.0
vn -0.0 -1.0 0.0
vn -0.0 -1.0 0.0
vn -0.0 -1.0 0.0
vn -0.0 -1.0 0.0
vn -0.0 -1.0 0.0
vn -0.0 -1.0 0.0
vn -0.0 -1.0 0.0
vn -0.0 -1.0 0.0
vn -0.0 -1.0 0.0
vn -0.0 -1.0 0.0
vn -0.0 -1.0 0.0
vn -0.0 -1.0 0.0
vn -0.0 -1.0 0.0
vn -0.0 -1.0 0.0
vn -0.0 -1.0 0.0
vn -0.0 -1.0 0.0
vn -0.0 -1.0 0.0
vn -0.0 -1.0 0.0
vn -0.0 -1.0 0.0
vn -0.0 -1.0 0.0
vn -0.0 -1.0 0.0
vn -0.0 -1.0 0.0
vn -0.0 -1.0 0.0
vn -0.0 -1.0 0.0
vn -0.0 -1.0 0.0
vn -0.0 -1.0 0.0
vn -0.0 -1.0 0.0
vn -0.0 -1.0 0.0
vn -0.0 -1.0 0.0
vn -0.0 -1.0 0.0
vn -0.0 -1.0 0.0
vn -0.0 -1.0 0.0
vn -0.0 -1.0 0.0
vn -0.0 -1.0 0.0
vn -0.0 -1.0 0.0
vn -0.0 -1.0 0.0
vn -0.0 -1.0 0.0
vn -0.0 -1.0 0.0
vn -0.0 -1.0 0.0
vn -0.0 -1.0 0.0
vn -0.0 -1.0 0.0
vn -0.0 -1.0 0.0
vn -0.0 -1.0 0.0
vn -0.0 -1.0 0.0
vn -0.0 -1.0 0.0
vn -0.0 -1.0 0.0
vn -0.0 -1.0 0.0
vn -0.0 -1.0 0.0
vn -0.0 -1.0 0.0
vn -0.0 -1.0 0.0
vn -0.0 -1.0 0.0
vn -0.0 -1.0 0.0
vn -0.0 -1.0 0.0
vn -0.0 -1.0 0.0
vn -0.0 -1.0 0.0
vn -0.0 -1.0 0.0
vn -0.0 -1.0 0.0
vn -0.0 -1.0 0.0
vn -0.0 -1.0 0.0
vn -0.0 -1.0 0.0
vn -0.0 -1.0 0.0
vn -0.0 -1.0 0.0
vn -0.0 -1.0 0.0
vn -0.0 -1.0 0.0
vn -0.0 -1.0 0.0
vn -0.0 -1.0 0.0
vn -0.0 -1.0 0.0
vn -0.0 -1.0 0.0
vn -0.0 -1.0 0.0
vn -0.0 -1.0 0.0
vn -0.0 -1.0 0.0
vn -0.0 -1.0 0.0
vn -0.0 -1.0 0.0
vn -0.0 -1.0 0.0
vn -0.0 -1.0 0.0
vn -0.0 -1.0 0.0
vn -0.0 -1.0 0.0
vn -0.0 -1.0 0.0
vn -0.0 -1.0 0.0
vn -0.0 -1.0 0.0
vn -0.0 -1.0 0.0
vn -0.0 -1.0 0.0
vn -0.0 -1.0 0.0
vn -0.0 -1.0 0.0
vn -0.0 -1.0 0.0
vn -0.0 -1.0 0.0
vn -0.0 -1.0 0.0
vn -0.0 -1.0 0.0
vn -0.0 -1.0 0.0
vn -0.0 -1.0 0.0
vn -0.0 -1.0 0.0
vn -0.0 -1.0 0.0
vn -0.0 -1.0 0.0
vn -0.0 -1.0 0.0
vn -0.0 -1.0 0.0
vn -0.0 -1.0 0.0
vn -0.0 -1.0 0.0
vn -0.0 -1.0 0.0
vn -0.0 -1.0 0.0
vn -0.0 -1.0 0.0
vn -0.0 -1.0 0.0
vn -0.0 -1.0 0.0
vn -0.0 -1.0 0.0
vn -0.0 -1.0 0.0
vn -0.0 -1.0 0.0
vn -0.0 -1.0 0.0
vn -0.0 -1.0 0.0
vn -0.0 -1.0 0.0
vn -0.0 -1.0 0.0
vn -0.0 -1.0 0.0
vn -0.0 -1.0 0.0
vn -0.0 -1.0 0.0
vn -0.0 -1.0 0.0
vn -0.0 -1.0 0.0
vn -0.0 -1.0 0.0
vn -0.0 -1.0 0.0
vn -0.0 -1.0 0.0
vn -0.0 -1.0 0.0
vn -0.0 -1.0 0.0
vn -0.0 -1.0 0.0
vn -0.0 -1.0 0.0
vn -0.0 -1.0 0.0
vn -0.0 -1.0 0.0
vn -0.0 -1.0 0.0
vn -0.0 -1.0 0.0
vn -0.0 -1.0 0.0
vn -0.0 -1.0 0.0
vn -0.0 -1.0 0.0
vn -0.0 -1.0 0.0
vn -0.0 -1.0 0.0
vn -0.0 -1.0 0.0
vn -0.0 -1.0 0.0
vn -0.0 -1.0 0.0
vn -0.0 -1.0 0.0
vn -0.0 -1.0 0.0
vn -0.0 -1.0 0.0
vn -0.0 -1.0 0.0
vn -0.0 -1.0 0.0
vn -0.0 -1.0 0.0
vn -0.0 -1.0 0.0
vn -0.0 -1.0 0.0
vn -0.0 -1.0 0.0
vn -0.0 -1.0 0.0
vn -0.0 -1.0 0.0
vn -0.0 -1.0 0.0
vn -0.0 -1.0 0.0
vn -0.0 -1.0 0.0
vn -0.0 -1.0 0.0
vn -0.0 -1.0 0.0
vn -0.0 -1.0 0.0
vn -0.0 -1.0 0.0
vn -0.0 -1.0 0.0
vn -0.0 -1.0 0.0
vn -0.0 -1.0 0.0
vn -0.0 -1.0 0.0
vt 0.07640725374221802 0.15254610776901245
vt 0.07680529356002808 0.2055727243423462
vt 0.07202714681625366 0.20562034845352173
vt 0.07162940502166748 0.152593731880188
vt 0.1089739203453064 0.11034703254699707
vt 0.1114828884601593 0.10634130239486694
vt 0.1162998378276825 0.10970520973205566
vt 0.11411699652671814 0.11319029331207275
vt 0.10689836740493774 0.11459243297576904
vt 0.11231124401092529 0.11688375473022461
vt 0.10527899861335754 0.1190308928489685
vt 0.11090239882469177 0.12074518203735352
vt 0.10413360595703125 0.12361383438110352
vt 0.10990595817565918 0.1247323751449585
vt 0.1034746766090393 0.12829113006591797
vt 0.10933265089988708 0.12880158424377441
vt 0.10330942273139954 0.1330113410949707
vt 0.10918882489204407 0.13290822505950928
vt 0.10363969206809998 0.13772296905517578
vt 0.10947617888450623 0.1370072364807129
vt 0.10446178913116455 0.1423741579055786
vt 0.11019149422645569 0.14105379581451416
vt 0.10576692223548889 0.14691424369812012
vt 0.1113269031047821 0.14500367641448975
vt 0.10754057765007019 0.15129315853118896
vt 0.11287000775337219 0.1488133668899536
vt 0.10976332426071167 0.15546303987503052
vt 0.11480382084846497 0.15244120359420776
vt 0.11241093277931213 0.15937840938568115
vt 0.11710718274116516 0.15584754943847656
vt 0.11545431613922119 0.1629960536956787
vt 0.11975494027137756 0.1589949131011963
vt 0.11886021494865417 0.16627663373947144
vt 0.12271800637245178 0.16184896230697632
vt 0.12259113788604736 0.16918396949768066
vt 0.1259639859199524 0.16437840461730957
vt 0.12660640478134155 0.17168623208999634
vt 0.12945720553398132 0.16655540466308594
vt 0.13086184859275818 0.17375624179840088
vt 0.13315951824188232 0.16835618019104004
vt 0.13531097769737244 0.175370991230011
vt 0.1370302140712738 0.16976112127304077
vt 0.13990500569343567 0.17651301622390747
vt 0.1410270631313324 0.17075467109680176
vt 0.14459365606307983 0.17716974020004272
vt 0.14510616660118103 0.17132598161697388
vt 0.1493254005908966 0.17733395099639893
vt 0.14922282099723816 0.1714688539505005
vt 0.1540485918521881 0.1770038604736328
vt 0.1533319354057312 0.17118173837661743
vt 0.15871131420135498 0.1761830449104309
vt 0.15738847851753235 0.17046761512756348
vt 0.16326254606246948 0.17488062381744385
vt 0.16134804487228394 0.16933441162109375
vt 0.1676524579524994 0.1731107234954834
vt 0.16516733169555664 0.16779464483261108
vt 0.1718328893184662 0.17089277505874634
vt 0.1688043177127838 0.16586506366729736
vt 0.17575815320014954 0.1682511568069458
vt 0.17221927642822266 0.16356682777404785
vt 0.17938512563705444 0.1652146577835083
vt 0.17537471652030945 0.16092514991760254
vt 0.18267402052879333 0.16181683540344238
vt 0.17823609709739685 0.15796899795532227
vt 0.1855890154838562 0.15809452533721924
vt 0.18077215552330017 0.15473061800003052
vt 0.18809804320335388 0.15408873558044434
vt 0.18295499682426453 0.1512455940246582
vt 0.19017359614372253 0.14984333515167236
vt 0.1847606897354126 0.14755213260650635
vt 0.19179293513298035 0.14540493488311768
vt 0.18616953492164612 0.1436905860900879
vt 0.19293838739395142 0.1408219337463379
vt 0.18716609477996826 0.13970351219177246
vt 0.19359731674194336 0.136144757270813
vt 0.18773934245109558 0.135634183883667
vt 0.19376257061958313 0.13142448663711548
vt 0.18788310885429382 0.13152754306793213
vt 0.19343233108520508 0.12671291828155518
vt 0.18759578466415405 0.12742853164672852
vt 0.19261011481285095 0.12206161022186279
vt 0.1868804693222046 0.12338197231292725
vt 0.19130510091781616 0.11752164363861084
vt 0.18574514985084534 0.11943221092224121
vt 0.18953147530555725 0.11314278841018677
vt 0.18420204520225525 0.11562258005142212
vt 0.18730869889259338 0.10897278785705566
vt 0.18226823210716248 0.1119946837425232
vt 0.1846611201763153 0.1050574779510498
vt 0.1799648106098175 0.1085883378982544
vt 0.18161770701408386 0.1014397144317627
vt 0.1773170530796051 0.10544085502624512
vt 0.17821189761161804 0.0981593132019043
vt 0.17435398697853088 0.10258686542510986
vt 0.17448097467422485 0.09525191783905029
vt 0.17110809683799744 0.10005748271942139
vt 0.17046567797660828 0.09274959564208984
vt 0.16761484742164612 0.09788048267364502
vt 0.16621023416519165 0.09067964553833008
vt 0.1639125645160675 0.09607958793640137
vt 0.1617611050605774 0.0890648365020752
vt 0.16004186868667603 0.09467470645904541
vt 0.15716707706451416 0.08792281150817871
vt 0.15604501962661743 0.09368109703063965
vt 0.15247842669487 0.08726608753204346
vt 0.1519659459590912 0.09310972690582275
vt 0.14774668216705322 0.08710181713104248
vt 0.14784929156303406 0.09296691417694092
vt 0.14302361011505127 0.0874319076538086
vt 0.14374017715454102 0.09325408935546875
vt 0.1383608877658844 0.08825266361236572
vt 0.13968360424041748 0.09396815299987793
vt 0.13380959630012512 0.08955514430999756
vt 0.13572406768798828 0.0951012372970581
vt 0.12941962480545044 0.09132492542266846
vt 0.1319047510623932 0.09664106369018555
vt 0.12523916363716125 0.09354281425476074
vt 0.1282677948474884 0.09857058525085449
vt 0.12131395936012268 0.09618449211120605
vt 0.12485283613204956 0.100868821144104
vt 0.11768698692321777 0.099220871925354
vt 0.12169739603996277 0.10351061820983887
vt 0.11439794301986694 0.10261893272399902
vt 0.1188359260559082 0.10646677017211914
vt 0.1360211968421936 0.08393323421478271
vt 0.13349899649620056 0.0846550464630127
vt 0.12623083591461182 0.08758544921875
vt 0.12391412258148193 0.08881449699401855
vt 0.11740568280220032 0.09319615364074707
vt 0.11541500687599182 0.09486269950866699
vt 0.10995987057685852 0.10049664974212646
vt 0.10834440588951111 0.10255956649780273
vt 0.14853599667549133 0.1322178840637207
vt 0.10303735733032227 0.11155009269714355
vt 0.10419321060180664 0.10918593406677246
vt 0.09972274303436279 0.12143886089324951
vt 0.10036066174507141 0.11888670921325684
vt 0.09854179620742798 0.13179242610931396
vt 0.09863334894180298 0.12917661666870117
vt 0.09954315423965454 0.14216458797454834
vt 0.09908974170684814 0.13959932327270508
vt 0.10268789529800415 0.15211403369903564
vt 0.10170489549636841 0.14968734979629517
vt 0.10783171653747559 0.16118258237838745
vt 0.10637155175209045 0.15902328491210938
vt 0.11476147174835205 0.16899549961090088
vt 0.11287403106689453 0.1671774983406067
vt 0.12315312027931213 0.17518913745880127
vt 0.12094932794570923 0.17381572723388672
vt 0.13268104195594788 0.1795198917388916
vt 0.13020336627960205 0.1786205768585205
vt 0.14288568496704102 0.18177324533462524
vt 0.1402747929096222 0.18140757083892822
vt 0.153324693441391 0.1818617582321167
vt 0.15071994066238403 0.18204379081726074
vt 0.16357922554016113 0.17977893352508545
vt 0.16104477643966675 0.1805042028427124
vt 0.1731579601764679 0.17562127113342285
vt 0.170841246843338 0.1768503189086914
vt 0.18166184425354004 0.16956889629364014
vt 0.1796616017818451 0.1712435483932495
vt 0.18872755765914917 0.16187620162963867
vt 0.18711212277412415 0.16393905878067017
vt 0.1940290331840515 0.15289711952209473
vt 0.19288429617881775 0.15523838996887207
vt 0.1973460614681244 0.1430092453956604
vt 0.1967143714427948 0.14553678035736084
vt 0.1985301375389099 0.132643461227417
vt 0.1984385848045349 0.13525927066802979
vt 0.19752880930900574 0.12227135896682739
vt 0.19798225164413452 0.1248365044593811
vt 0.19438651204109192 0.1123276948928833
vt 0.19536468386650085 0.11474263668060303
vt 0.18924382328987122 0.10325849056243896
vt 0.19069698452949524 0.10540735721588135
vt 0.18231508135795593 0.09544479846954346
vt 0.1841934621334076 0.09725403785705566
vt 0.17391899228096008 0.08924663066864014
vt 0.1761227250099182 0.09062016010284424
vt 0.16439104080200195 0.08491599559783936
vt 0.16686874628067017 0.0858151912689209
vt 0.1541927456855774 0.08266341686248779
vt 0.15679097175598145 0.08302736282348633
vt 0.14374738931655884 0.08257389068603516
vt 0.14635217189788818 0.08239197731018066
vt 0.07007160782814026 0.1523788571357727
vt 0.07052800059318542 0.20535904169082642
vt 0.0657455325126648 0.20540136098861694
vt 0.06528967618942261 0.15242129564285278
vt 0.08344507217407227 0.15250474214553833
vt 0.0834236741065979 0.20561379194259644
vt 0.07865262031555176 0.20561587810516357
vt 0.07867431640625 0.15250670909881592

g Object05
s 1
usemtl Object05
f 3/3/3 2/2/2 1/1/1 
f 4/4/4 3/3/3 1/1/1 
f 7/7/7 6/6/6 5/5/5 
f 8/8/8 7/7/7 5/5/5 
f 8/8/8 5/5/5 9/9/9 
f 10/10/10 8/8/8 9/9/9 
f 10/10/10 9/9/9 11/11/11 
f 12/12/12 10/10/10 11/11/11 
f 12/12/12 11/11/11 13/13/13 
f 14/14/14 12/12/12 13/13/13 
f 14/14/14 13/13/13 15/15/15 
f 16/16/16 14/14/14 15/15/15 
f 16/16/16 15/15/15 17/17/17 
f 18/18/18 16/16/16 17/17/17 
f 18/18/18 17/17/17 19/19/19 
f 20/20/20 18/18/18 19/19/19 
f 20/20/20 19/19/19 21/21/21 
f 22/22/22 20/20/20 21/21/21 
f 22/22/22 21/21/21 23/23/23 
f 24/24/24 22/22/22 23/23/23 
f 24/24/24 23/23/23 25/25/25 
f 26/26/26 24/24/24 25/25/25 
f 26/26/26 25/25/25 27/27/27 
f 28/28/28 26/26/26 27/27/27 
f 28/28/28 27/27/27 29/29/29 
f 30/30/30 28/28/28 29/29/29 
f 30/30/30 29/29/29 31/31/31 
f 32/32/32 30/30/30 31/31/31 
f 32/32/32 31/31/31 33/33/33 
f 34/34/34 32/32/32 33/33/33 
f 34/34/34 33/33/33 35/35/35 
f 36/36/36 34/34/34 35/35/35 
f 36/36/36 35/35/35 37/37/37 
f 38/38/38 36/36/36 37/37/37 
f 38/38/38 37/37/37 39/39/39 
f 40/40/40 38/38/38 39/39/39 
f 40/40/40 39/39/39 41/41/41 
f 42/42/42 40/40/40 41/41/41 
f 42/42/42 41/41/41 43/43/43 
f 44/44/44 42/42/42 43/43/43 
f 44/44/44 43/43/43 45/45/45 
f 46/46/46 44/44/44 45/45/45 
f 46/46/46 45/45/45 47/47/47 
f 48/48/48 46/46/46 47/47/47 
f 48/48/48 47/47/47 49/49/49 
f 50/50/50 48/48/48 49/49/49 
f 50/50/50 49/49/49 51/51/51 
f 52/52/52 50/50/50 51/51/51 
f 52/52/52 51/51/51 53/53/53 
f 54/54/54 52/52/52 53/53/53 
f 54/54/54 53/53/53 55/55/55 
f 56/56/56 54/54/54 55/55/55 
f 56/56/56 55/55/55 57/57/57 
f 58/58/58 56/56/56 57/57/57 
f 58/58/58 57/57/57 59/59/59 
f 60/60/60 58/58/58 59/59/59 
f 60/60/60 59/59/59 61/61/61 
f 62/62/62 60/60/60 61/61/61 
f 62/62/62 61/61/61 63/63/63 
f 64/64/64 62/62/62 63/63/63 
f 64/64/64 63/63/63 65/65/65 
f 66/66/66 64/64/64 65/65/65 
f 66/66/66 65/65/65 67/67/67 
f 68/68/68 66/66/66 67/67/67 
f 68/68/68 67/67/67 69/69/69 
f 70/70/70 68/68/68 69/69/69 
f 70/70/70 69/69/69 71/71/71 
f 72/72/72 70/70/70 71/71/71 
f 72/72/72 71/71/71 73/73/73 
f 74/74/74 72/72/72 73/73/73 
f 74/74/74 73/73/73 75/75/75 
f 76/76/76 74/74/74 75/75/75 
f 76/76/76 75/75/75 77/77/77 
f 78/78/78 76/76/76 77/77/77 
f 78/78/78 77/77/77 79/79/79 
f 80/80/80 78/78/78 79/79/79 
f 80/80/80 79/79/79 81/81/81 
f 82/82/82 80/80/80 81/81/81 
f 82/82/82 81/81/81 83/83/83 
f 84/84/84 82/82/82 83/83/83 
f 84/84/84 83/83/83 85/85/85 
f 86/86/86 84/84/84 85/85/85 
f 86/86/86 85/85/85 87/87/87 
f 88/88/88 86/86/86 87/87/87 
f 88/88/88 87/87/87 89/89/89 
f 90/90/90 88/88/88 89/89/89 
f 90/90/90 89/89/89 91/91/91 
f 92/92/92 90/90/90 91/91/91 
f 92/92/92 91/91/91 93/93/93 
f 94/94/94 92/92/92 93/93/93 
f 94/94/94 93/93/93 95/95/95 
f 96/96/96 94/94/94 95/95/95 
f 96/96/96 95/95/95 97/97/97 
f 98/98/98 96/96/96 97/97/97 
f 98/98/98 97/97/97 99/99/99 
f 100/100/100 98/98/98 99/99/99 
f 100/100/100 99/99/99 101/101/101 
f 102/102/102 100/100/100 101/101/101 
f 102/102/102 101/101/101 103/103/103 
f 104/104/104 102/102/102 103/103/103 
f 104/104/104 103/103/103 105/105/105 
f 106/106/106 104/104/104 105/105/105 
f 106/106/106 105/105/105 107/107/107 
f 108/108/108 106/106/106 107/107/107 
f 108/108/108 107/107/107 109/109/109 
f 110/110/110 108/108/108 109/109/109 
f 110/110/110 109/109/109 111/111/111 
f 112/112/112 110/110/110 111/111/111 
f 112/112/112 111/111/111 113/113/113 
f 114/114/114 112/112/112 113/113/113 
f 114/114/114 113/113/113 115/115/115 
f 116/116/116 114/114/114 115/115/115 
f 116/116/116 115/115/115 117/117/117 
f 118/118/118 116/116/116 117/117/117 
f 118/118/118 117/117/117 119/119/119 
f 120/120/120 118/118/118 119/119/119 
f 120/120/120 119/119/119 121/121/121 
f 122/122/122 120/120/120 121/121/121 
f 122/122/122 121/121/121 123/123/123 
f 124/124/124 122/122/122 123/123/123 
f 7/7/7 124/124/124 123/123/123 
f 6/6/6 7/7/7 123/123/123 
f 111/111/111 125/125/125 113/113/113 
f 125/125/125 126/126/126 113/113/113 
f 115/115/115 127/127/127 117/117/117 
f 127/127/127 128/128/128 117/117/117 
f 119/119/119 129/129/129 121/121/121 
f 129/129/129 130/130/130 121/121/121 
f 123/123/123 131/131/131 6/6/6 
f 131/131/131 132/132/132 6/6/6 
f 133/133/133 7/7/7 8/8/8 
f 133/133/133 8/8/8 10/10/10 
f 133/133/133 10/10/10 12/12/12 
f 133/133/133 12/12/12 14/14/14 
f 133/133/133 14/14/14 16/16/16 
f 133/133/133 16/16/16 18/18/18 
f 133/133/133 18/18/18 20/20/20 
f 133/133/133 20/20/20 22/22/22 
f 133/133/133 22/22/22 24/24/24 
f 133/133/133 24/24/24 26/26/26 
f 133/133/133 26/26/26 28/28/28 
f 133/133/133 28/28/28 30/30/30 
f 133/133/133 30/30/30 32/32/32 
f 133/133/133 32/32/32 34/34/34 
f 133/133/133 34/34/34 36/36/36 
f 133/133/133 36/36/36 38/38/38 
f 133/133/133 38/38/38 40/40/40 
f 133/133/133 40/40/40 42/42/42 
f 133/133/133 42/42/42 44/44/44 
f 133/133/133 44/44/44 46/46/46 
f 133/133/133 46/46/46 48/48/48 
f 133/133/133 48/48/48 50/50/50 
f 133/133/133 50/50/50 52/52/52 
f 133/133/133 52/52/52 54/54/54 
f 133/133/133 54/54/54 56/56/56 
f 133/133/133 56/56/56 58/58/58 
f 133/133/133 58/58/58 60/60/60 
f 133/133/133 60/60/60 62/62/62 
f 133/133/133 62/62/62 64/64/64 
f 133/133/133 64/64/64 66/66/66 
f 135/135/135 134/134/134 9/9/9 
f 5/5/5 135/135/135 9/9/9 
f 137/137/137 136/136/136 13/13/13 
f 11/11/11 137/137/137 13/13/13 
f 139/139/139 138/138/138 17/17/17 
f 15/15/15 139/139/139 17/17/17 
f 141/141/141 140/140/140 21/21/21 
f 19/19/19 141/141/141 21/21/21 
f 143/143/143 142/142/142 25/25/25 
f 23/23/23 143/143/143 25/25/25 
f 145/145/145 144/144/144 29/29/29 
f 27/27/27 145/145/145 29/29/29 
f 147/147/147 146/146/146 33/33/33 
f 31/31/31 147/147/147 33/33/33 
f 149/149/149 148/148/148 37/37/37 
f 35/35/35 149/149/149 37/37/37 
f 151/151/151 150/150/150 41/41/41 
f 39/39/39 151/151/151 41/41/41 
f 153/153/153 152/152/152 45/45/45 
f 43/43/43 153/153/153 45/45/45 
f 155/155/155 154/154/154 49/49/49 
f 47/47/47 155/155/155 49/49/49 
f 157/157/157 156/156/156 53/53/53 
f 51/51/51 157/157/157 53/53/53 
f 159/159/159 158/158/158 57/57/57 
f 55/55/55 159/159/159 57/57/57 
f 161/161/161 160/160/160 61/61/61 
f 59/59/59 161/161/161 61/61/61 
f 163/163/163 162/162/162 65/65/65 
f 63/63/63 163/163/163 65/65/65 
f 165/165/165 164/164/164 69/69/69 
f 67/67/67 165/165/165 69/69/69 
f 167/167/167 166/166/166 73/73/73 
f 71/71/71 167/167/167 73/73/73 
f 169/169/169 168/168/168 77/77/77 
f 75/75/75 169/169/169 77/77/77 
f 171/171/171 170/170/170 81/81/81 
f 79/79/79 171/171/171 81/81/81 
f 173/173/173 172/172/172 85/85/85 
f 83/83/83 173/173/173 85/85/85 
f 175/175/175 174/174/174 89/89/89 
f 87/87/87 175/175/175 89/89/89 
f 177/177/177 176/176/176 93/93/93 
f 91/91/91 177/177/177 93/93/93 
f 179/179/179 178/178/178 97/97/97 
f 95/95/95 179/179/179 97/97/97 
f 181/181/181 180/180/180 101/101/101 
f 99/99/99 181/181/181 101/101/101 
f 183/183/183 182/182/182 105/105/105 
f 103/103/103 183/183/183 105/105/105 
f 185/185/185 184/184/184 109/109/109 
f 107/107/107 185/185/185 109/109/109 
f 188/188/188 187/187/187 186/186/186 
f 189/189/189 188/188/188 186/186/186 
f 192/192/192 191/191/191 190/190/190 
f 193/193/193 192/192/192 190/190/190 

