v 4.445237159729004 -0.33420807123184204 0.10875272005796432
v 4.2230730056762695 -0.574270486831665 -0.08268535137176514
v 4.424370765686035 -0.4892411530017853 -0.08212414383888245
v 4.265585899353027 -0.3769736886024475 0.1485244184732437
v 4.04041051864624 -0.6575574278831482 -0.07732090353965759
v 4.105827808380127 -0.41788825392723083 0.1905701607465744
v 3.8719635009765625 -0.7369157671928406 -0.06774929910898209
v 3.960034132003784 -0.4558520019054413 0.23398368060588837
v 3.7138190269470215 -0.810455322265625 -0.05607888475060463
v 3.8217666149139404 -0.49031952023506165 0.2785121500492096
v 3.5624382495880127 -0.8767006397247314 -0.04458249360322952
v 3.6842145919799805 -0.5210171341896057 0.32442447543144226
v 3.41405987739563 -0.9349144101142883 -0.03541580215096474
v 3.5407845973968506 -0.5474286079406738 0.3720475435256958
v 3.2639293670654297 -0.9852569103240967 -0.030431369319558144
v 3.3858847618103027 -0.5683678984642029 0.42117545008659363
v 3.106066942214966 -1.0283616781234741 -0.03133325278759003
v 3.2151427268981934 -0.5819118618965149 0.47077250480651855
v 2.936189889907837 -1.0576496124267578 -0.04372489079833031
v 3.048407554626465 -0.5769487619400024 0.5075205564498901
v 2.8113293647766113 -1.038716197013855 -0.08121974766254425
v 2.9302563667297363 -0.5363333225250244 0.5075575709342957
v 2.7257866859436035 -0.9825867414474487 -0.13932791352272034
v 2.842175006866455 -0.46625787019729614 0.4777548313140869
v 2.6593501567840576 -0.9056647419929504 -0.21108795702457428
v 2.7661502361297607 -0.37486717104911804 0.42735666036605835
v 2.5922727584838867 -0.8205481767654419 -0.29137513041496277
v 2.683704376220703 -0.27073055505752563 0.3667203485965729
v 2.505091905593872 -0.7362053990364075 -0.3772682547569275
v 2.576075553894043 -0.16117802262306213 0.3058134913444519
v 2.376384973526001 -0.6591667532920837 -0.4675719738006592
v 2.4264605045318604 -0.0525604784488678 0.25383198261260986
v 2.1835179328918457 -0.5969078540802002 -0.5593230724334717
v 2.219269275665283 0.04985480383038521 0.21923045814037323
v 1.970193862915039 -0.5754892230033875 -0.6132646203041077
v 2.048558235168457 0.10332576185464859 0.21945573389530182
v 1.7939788103103638 -0.6133356690406799 -0.5896977782249451
v 1.9225932359695435 0.10287172347307205 0.2660571038722992
v 1.6486241817474365 -0.6939624547958374 -0.5117602944374084
v 1.7990888357162476 0.06311038881540298 0.3562457859516144
v 1.5231622457504272 -0.7987557649612427 -0.4050546884536743
v 1.6732326745986938 -0.00852418877184391 0.4814721643924713
v 1.4070466756820679 -0.9111585021018982 -0.2915014624595642
v 1.5397862195968628 -0.09818966686725616 0.6256653666496277
v 1.2933415174484253 -1.0149470567703247 -0.1914304494857788
v 1.3899059295654297 -0.18805085122585297 0.7689265012741089
v 1.1760039329528809 -1.0958832502365112 -0.12204544246196747
v 1.213852047920227 -0.2550417184829712 0.8847347497940063
v 1.040928602218628 -1.1428806781768799 -0.09749835729598999
v 1.009946346282959 -0.2697174549102783 0.9364972710609436
v 0.8764193654060364 -1.104204773902893 -0.14382323622703552
v 0.912510871887207 -0.23257656395435333 0.9239722490310669
v 0.7340371608734131 -0.9836492538452148 -0.23466616868972778
v 0.7992984652519226 -0.1245947927236557 0.8693597316741943
v 0.6042337417602539 -0.8136847019195557 -0.35359635949134827
v 0.6770965456962585 0.04303991049528122 0.7770008444786072
v 0.48133164644241333 -0.6182694435119629 -0.4884420335292816
v 0.5501615405082703 0.24742113053798676 0.6584964990615845
v 0.36385008692741394 -0.42197132110595703 -0.62601637840271
v 0.4185540974140167 0.4636605381965637 0.5268878936767578
v 0.2532033324241638 -0.2508082687854767 -0.7517217993736267
v 0.27944010496139526 0.6662189960479736 0.39534515142440796
v 0.15474966168403625 -0.12947535514831543 -0.850635290145874
v 0.12604250013828278 0.826797604560852 0.27752870321273804
v 0.07632789760828018 -0.06942829489707947 -0.9140143394470215
v -0.05089883133769035 0.9027346968650818 0.1932486742734909
v 4.630100250244141 -0.4189656972885132 0.08265818655490875
v 4.053387641906738 -0.42402076721191406 -0.09182384610176086
v 4.23950719833374 -0.3739042580127716 -0.09438284486532211
v 4.435271263122559 -0.4928557574748993 0.12009558826684952
v 3.8934545516967773 -0.4699711203575134 -0.08439687639474869
v 4.252782821655273 -0.5683039426803589 0.16318684816360474
v 3.756438970565796 -0.5092536807060242 -0.07458540797233582
v 4.075558185577393 -0.6452650427818298 0.21206961572170258
v 3.638216733932495 -0.5406481027603149 -0.06455113738775253
v 3.897369146347046 -0.7234632968902588 0.26678788661956787
v 3.5326123237609863 -0.5644685626029968 -0.05566607043147087
v 3.7140398025512695 -0.8014799356460571 0.32650381326675415
v 3.430717706680298 -0.582039475440979 -0.04857362434267998
v 3.524125099182129 -0.8764147162437439 0.3888928294181824
v 3.321942090988159 -0.5944585204124451 -0.04388248547911644
v 3.3278703689575195 -0.9447764158248901 0.4505593180656433
v 3.1963469982147217 -0.6015338897705078 -0.04292246699333191
v 3.1248624324798584 -1.003840446472168 0.5082637667655945
v 3.1440093517303467 -0.6024591326713562 -0.04419903829693794
v 2.840588092803955 -1.0468460321426392 0.5678208470344543
v 3.1611459255218506 -0.6067224740982056 -0.0396658331155777
v 2.580439567565918 -0.9869890809059143 0.556552529335022
v 3.145570993423462 -0.594504714012146 -0.048813097178936005
v 2.422391176223755 -0.8590414524078369 0.4811914563179016
v 3.093898296356201 -0.5414779782295227 -0.09097757935523987
v 2.3316023349761963 -0.7378304600715637 0.39753445982933044
v 3.0068626403808594 -0.4469192326068878 -0.16808080673217773
v 2.2691142559051514 -0.6512548923492432 0.33224019408226013
v 2.860774040222168 -0.3167096972465515 -0.2784155607223511
v 2.2203938961029053 -0.6027841567993164 0.2916426658630371
v 2.630643129348755 -0.16386981308460236 -0.41308316588401794
v 2.1722021102905273 -0.5762264728546143 0.26657751202583313
v 2.3212363719940186 -0.014652206562459469 -0.5478942394256592
v 2.081550121307373 -0.5502780079841614 0.24552124738693237
v 1.965022325515747 0.08819045126438141 -0.6357131600379944
v 2.053729772567749 -0.54360032081604 0.24002130329608917
v 1.65046226978302 0.08068383485078812 -0.5921911597251892
v 2.0661094188690186 -0.5419057011604309 0.2370041310787201
v 1.4275822639465332 -0.007309534586966038 -0.46510306000709534
v 2.020131826400757 -0.5649863481521606 0.2711704671382904
v 1.271012544631958 -0.1177082434296608 -0.3250473439693451
v 1.9253828525543213 -0.6319928169250488 0.36240655183792114
v 1.1545501947402954 -0.21705202758312225 -0.2093835324048996
v 1.7922836542129517 -0.7387756705284119 0.5032195448875427
v 1.0736736059188843 -0.28362610936164856 -0.14220400154590607
v 1.6095738410949707 -0.8745658993721008 0.6803395748138428
v 1.0398770570755005 -0.31081780791282654 -0.12876732647418976
v 1.3499784469604492 -1.0153032541275024 0.8649193048477173
v 1.0402547121047974 -0.3220784366130829 -0.13654489815235138
v 1.0106205940246582 -1.09456467628479 0.975619912147522
v 1.0944453477859497 -0.3364972472190857 -0.12403921782970428
v 0.6944851279258728 -1.015083909034729 0.935067892074585
v 1.0547853708267212 -0.297220915555954 -0.1496918648481369
v 0.4785507321357727 -0.8230298161506653 0.8203357458114624
v 0.9654179811477661 -0.17779706418514252 -0.22676488757133484
v 0.3159126937389374 -0.6025217175483704 0.683583676815033
v 0.8532052040100098 0.00022081985662225634 -0.3416489064693451
v 0.17828814685344696 -0.38122668862342834 0.5411239266395569
v 0.7254939079284668 0.21233528852462769 -0.48044735193252563
v 0.056911058723926544 -0.18290606141090393 0.40626317262649536
v 0.5781696438789368 0.4382871091365814 -0.6329814791679382
v -0.04552551358938217 -0.03674649819731712 0.2960418164730072
v 0.3913220465183258 0.6599642634391785 -0.7936338782310486
v -0.1105291023850441 0.025654053315520287 0.23205535113811493
v 0.11854159832000732 0.8254736065864563 -0.9459682106971741
v -0.09311292320489883 0.004616288002580404 0.22651374340057373
vn -0.38967740535736084 0.7327749729156494 -0.5578461289405823
vn -0.30580228567123413 0.6991204023361206 -0.6463091373443604
vn -0.37947940826416016 0.6663694977760315 -0.6418310403823853
vn -0.31922096014022827 0.7545533776283264 -0.5733647346496582
vn -0.2344297617673874 0.7255398035049438 -0.6470198035240173
vn -0.25377699732780457 0.769501805305481 -0.5860582590103149
vn -0.1764233261346817 0.7435922026634216 -0.6449382901191711
vn -0.19293175637722015 0.778208315372467 -0.5976362824440002
vn -0.11358560621738434 0.7574671506881714 -0.6429166197776794
vn -0.13228736817836761 0.7809658050537109 -0.6104034781455994
vn -0.06301820278167725 0.7648833990097046 -0.6410788893699646
vn -0.07705027610063553 0.7793540954589844 -0.6218283176422119
vn -0.02216450311243534 0.768579363822937 -0.6393703818321228
vn -0.028036581352353096 0.774997353553772 -0.6313422918319702
vn 0.009726075455546379 0.7711561918258667 -0.6365716457366943
vn 0.007976754568517208 0.7692582607269287 -0.6388881802558899
vn 0.04573490470647812 0.7713640332221985 -0.634748637676239
vn 0.040366481989622116 0.7619774341583252 -0.6463443636894226
vn 0.11743336170911789 0.7583662271499634 -0.6411631107330322
vn 0.1088963970541954 0.7356348633766174 -0.6685677766799927
vn 0.2293994128704071 0.7229803800582886 -0.6516711711883545
vn 0.222217857837677 0.6735538840293884 -0.7049427628517151
vn 0.33318614959716797 0.6775107979774475 -0.6557180881500244
vn 0.33197978138923645 0.5954157114028931 -0.7316211462020874
vn 0.3797852694988251 0.6571871638298035 -0.6510515809059143
vn 0.38615554571151733 0.554537296295166 -0.7371379733085632
vn 0.33427131175994873 0.6840985417366028 -0.6482837796211243
vn 0.3442724049091339 0.5907124280929565 -0.7297502160072327
vn 0.23047515749931335 0.7265351414680481 -0.6473236680030823
vn 0.24206441640853882 0.6627843379974365 -0.7086054086685181
vn 0.13050056993961334 0.7533990740776062 -0.6444838643074036
vn 0.13733260333538055 0.719781756401062 -0.6804807782173157
vn 0.05471797287464142 0.7645019292831421 -0.6422948837280273
vn 0.05914822220802307 0.7511396408081055 -0.6574881672859192
vn -0.0168523620814085 0.7735234498977661 -0.6335435509681702
vn -0.008877743035554886 0.7744774222373962 -0.6325392127037048
vn -0.0848347544670105 0.7910259962081909 -0.6058720946311951
vn -0.07789493352174759 0.8024448156356812 -0.5916204452514648
vn -0.12990596890449524 0.8086113929748535 -0.5738223791122437
vn -0.12928014993667603 0.8275210857391357 -0.5463473796844482
vn -0.15064458549022675 0.8154923319816589 -0.5588187575340271
vn -0.15363527834415436 0.8385567665100098 -0.522703230381012
vn -0.14021994173526764 0.8083956837654114 -0.5716946125030518
vn -0.14658378064632416 0.8322796821594238 -0.5346248149871826
vn -0.10304705053567886 0.7911184430122375 -0.6029202938079834
vn -0.11011791974306107 0.8100324869155884 -0.5759526491165161
vn -0.0520627424120903 0.7729637622833252 -0.6323103904724121
vn -0.05455237627029419 0.782197117805481 -0.6206381320953369
vn 0.006108473055064678 0.7679824829101562 -0.6404417753219604
vn 0.010545946657657623 0.7669540047645569 -0.6416153907775879
vn 0.07306985557079315 0.7641264200210571 -0.640914797782898
vn 0.07009810954332352 0.756226122379303 -0.6505446434020996
vn 0.1250208020210266 0.7488110661506653 -0.6508854031562805
vn 0.12247604876756668 0.735836923122406 -0.6659907698631287
vn 0.15537810325622559 0.7361510992050171 -0.6587406992912292
vn 0.15425840020179749 0.7211302518844604 -0.6754076480865479
vn 0.16826973855495453 0.7324866056442261 -0.6596580147743225
vn 0.167546808719635 0.7175764441490173 -0.6760266423225403
vn 0.1600741446018219 0.7408531308174133 -0.6523134708404541
vn 0.1608073115348816 0.7283757925033569 -0.6660403609275818
vn 0.13358598947525024 0.7581231594085693 -0.638282060623169
vn 0.13425016403198242 0.750394880771637 -0.6472128033638
vn 0.08844958245754242 0.7746177315711975 -0.6262139678001404
vn 0.08686867356300354 0.7724453806877136 -0.6291120648384094
vn 0.06064317375421524 0.7813552021980286 -0.6211331486701965
vn 0.06033852696418762 0.7808927893638611 -0.6217440962791443
vn -0.0784602090716362 0.7745060920715332 0.6276816725730896
vn -0.03236836567521095 0.7939990162849426 0.6070566773414612
vn -0.050122398883104324 0.7884638905525208 0.6130355000495911
vn -0.055839747190475464 0.7805349230766296 0.6226131319999695
vn -0.012496386654675007 0.802892804145813 0.5959924459457397
vn -0.020601529628038406 0.7948488593101501 0.606457531452179
vn 0.0065386248752474785 0.8108575940132141 0.585206925868988
vn 0.00120327970944345 0.8085663914680481 0.5884037613868713
vn 0.02216331660747528 0.8169755339622498 0.5762462615966797
vn 0.01927022635936737 0.8191264271736145 0.5732892751693726
vn 0.03290208801627159 0.8198210597038269 0.5716737508773804
vn 0.03762470558285713 0.8261309862136841 0.562220573425293
vn 0.04120539128780365 0.8195853233337402 0.5714735984802246
vn 0.04306872934103012 0.8277912139892578 0.5593807697296143
vn 0.0452013798058033 0.8162349462509155 0.5759490728378296
vn 0.045251522213220596 0.8255942463874817 0.5624468922615051
vn 0.04703224077820778 0.8123260140419006 0.5813040733337402
vn 0.04833509027957916 0.821815013885498 0.5677003860473633
vn 0.0637492761015892 0.8001070022583008 0.5964601635932922
vn 0.06135457009077072 0.8079487681388855 0.5860497355461121
vn 0.09653069823980331 0.76558518409729 0.6360512971878052
vn 0.07512534409761429 0.7719128727912903 0.6312738656997681
vn 0.10399409383535385 0.7405405044555664 0.6639164686203003
vn 0.07626666873693466 0.7405493259429932 0.6676601767539978
vn 0.1032005250453949 0.7233208417892456 0.6827566623687744
vn 0.07397366315126419 0.7338424921035767 0.6752800345420837
vn 0.09521831572055817 0.7311739325523376 0.6755133271217346
vn 0.06667894124984741 0.7521545886993408 0.6556045413017273
vn 0.07488762587308884 0.7574951648712158 0.6485313773155212
vn 0.051378555595874786 0.7827736735343933 0.6201819777488708
vn 0.050099488347768784 0.7886235117912292 0.6128319501876831
vn 0.03537362441420555 0.8053359389305115 0.591762363910675
vn 0.02582186833024025 0.8082244396209717 0.5883082151412964
vn 0.021606070920825005 0.8146495223045349 0.5795510411262512
vn 0.011786497198045254 0.8130578398704529 0.5820635557174683
vn 0.011843126267194748 0.8155102729797363 0.5786213278770447
vn 0.004173459485173225 0.8071469664573669 0.5903357267379761
vn 0.005078287795186043 0.8089817762374878 0.5878117680549622
vn -0.0010424903593957424 0.79917311668396 0.6011000275611877
vn 0.00042214259156025946 0.8023083806037903 0.5969095826148987
vn -0.0033446026500314474 0.7938205599784851 0.6081427931785583
vn -0.003362990915775299 0.7953211069107056 0.6061791181564331
vn -0.006498250644654036 0.7936250567436218 0.6083725094795227
vn -0.00627869600430131 0.7924760580062866 0.6098706722259521
vn -0.007568690925836563 0.7997058033943176 0.6003443598747253
vn -0.00667381938546896 0.7952272295951843 0.6062747240066528
vn -0.005684123374521732 0.810145378112793 0.5862014889717102
vn -0.007302073296159506 0.8058359622955322 0.592093825340271
vn 0.0027377416845411062 0.8171631693840027 0.5763999223709106
vn 0.0033725297544151545 0.8178385496139526 0.5754378437995911
vn 0.023546043783426285 0.7955199480056763 0.6054697036743164
vn 0.024523593485355377 0.7919615507125854 0.6100782155990601
vn 0.034567344933748245 0.7674899697303772 0.6401282548904419
vn 0.0353219136595726 0.7558559775352478 0.653784453868866
vn 0.0404495932161808 0.7399522662162781 0.6714420914649963
vn 0.03886489197611809 0.7365902662277222 0.6752217411994934
vn 0.0413261242210865 0.729597806930542 0.6826267242431641
vn 0.038128145039081573 0.7322646379470825 0.6799519062042236
vn 0.038024917244911194 0.7340742945671082 0.6780036091804504
vn 0.03462196886539459 0.742756724357605 0.6686657071113586
vn 0.03193240612745285 0.7537785768508911 0.656352162361145
vn 0.026709754019975662 0.7691940069198608 0.6384567618370056
vn 0.018560132011771202 0.7888056039810181 0.6143624186515808
vn 0.015163467265665531 0.7960820198059082 0.6049987077713013
vn 0.004117535427212715 0.8182458281517029 0.5748537182807922
vn 0.004252739250659943 0.8181797862052917 0.5749466419219971
vt -2.9802322387695312e-08 1.1920928955078125e-07
vt 0.03125004470348358 1.0000001192092896
vt 4.569557887634801e-08 1.0000001192092896
vt 0.031249970197677612 1.1920928955078125e-07
vt 0.06250004470348358 1.0000001192092896
vt 0.06249997019767761 1.1920928955078125e-07
vt 0.09375004470348358 1.0000001192092896
vt 0.09374997019767761 1.1920928955078125e-07
vt 0.12500004470348358 1.0000001192092896
vt 0.12499997019767761 1.1920928955078125e-07
vt 0.15625004470348358 1.0000001192092896
vt 0.1562499701976776 1.1920928955078125e-07
vt 0.18750004470348358 1.0000001192092896
vt 0.1874999701976776 1.1920928955078125e-07
vt 0.21875004470348358 1.0000001192092896
vt 0.2187499701976776 1.1920928955078125e-07
vt 0.2500000596046448 1.0000001192092896
vt 0.2499999701976776 1.1920928955078125e-07
vt 0.2812500596046448 1.0000001192092896
vt 0.2812499701976776 1.1920928955078125e-07
vt 0.3125000596046448 1.0000001192092896
vt 0.3124999701976776 1.1920928955078125e-07
vt 0.3437500596046448 1.0000001192092896
vt 0.3437499701976776 1.1920928955078125e-07
vt 0.3750000596046448 1.0000001192092896
vt 0.3749999701976776 1.1920928955078125e-07
vt 0.4062500596046448 1.0000000596046448
vt 0.4062499701976776 5.960464477539063e-08
vt 0.4375000596046448 1.0000000596046448
vt 0.4374999701976776 5.960464477539063e-08
vt 0.4687500596046448 1.0000000596046448
vt 0.4687499701976776 5.960464477539063e-08
vt 0.5 1.0000000596046448
vt 0.4999999701976776 5.960464477539063e-08
vt 0.53125 1.0000000596046448
vt 0.53125 5.960464477539063e-08
vt 0.5625 1.0000000596046448
vt 0.5625 5.960464477539063e-08
vt 0.59375 1.0000000596046448
vt 0.59375 5.960464477539063e-08
vt 0.625 1.0000000596046448
vt 0.625 5.960464477539063e-08
vt 0.65625 1.0000000596046448
vt 0.65625 5.960464477539063e-08
vt 0.6875 1.0000000596046448
vt 0.6875 5.960464477539063e-08
vt 0.71875 1.0000000596046448
vt 0.71875 5.960464477539063e-08
vt 0.75 1.0000000596046448
vt 0.75 5.960464477539063e-08
vt 0.78125 1.0000000596046448
vt 0.78125 5.960464477539063e-08
vt 0.8125 1.0000000596046448
vt 0.8125 5.960464477539063e-08
vt 0.84375 1.0000000596046448
vt 0.84375 5.960464477539063e-08
vt 0.875 1.0000000596046448
vt 0.875 5.960464477539063e-08
vt 0.90625 1.0000000596046448
vt 0.90625 5.960464477539063e-08
vt 0.9375 1.0000000596046448
vt 0.9375 5.960464477539063e-08
vt 0.96875 1.0000000596046448
vt 0.96875 5.960464477539063e-08
vt 1.0000001192092896 1.0000000596046448
vt 1.0 5.960464477539063e-08
vt -5.960464477539063e-08 0.0
vt 0.031250014901161194 1.0
vt 1.5893256488652696e-08 1.0
vt 0.031249940395355225 0.0
vt 0.0625000149011612 1.0
vt 0.062499940395355225 0.0
vt 0.0937500149011612 1.0
vt 0.09374994039535522 0.0
vt 0.1250000149011612 1.0
vt 0.12499994039535522 0.0
vt 0.1562500149011612 1.0
vt 0.15624994039535522 0.0
vt 0.1875000149011612 1.0
vt 0.18749994039535522 0.0
vt 0.2187500149011612 1.0
vt 0.21874994039535522 0.0
vt 0.2500000298023224 1.0
vt 0.24999994039535522 0.0
vt 0.2812500298023224 1.0
vt 0.2812499403953552 0.0
vt 0.3125000298023224 1.0
vt 0.3124999403953552 0.0
vt 0.3437500298023224 1.0
vt 0.3437499403953552 0.0
vt 0.3750000298023224 1.0
vt 0.3749999403953552 0.0
vt 0.4062500298023224 0.9999999403953552
vt 0.4062499403953552 0.0
vt 0.4375000298023224 0.9999999403953552
vt 0.4374999403953552 0.0
vt 0.4687500298023224 0.9999999403953552
vt 0.4687499403953552 0.0
vt 0.5 0.9999999403953552
vt 0.4999999403953552 0.0
vt 0.53125 0.9999999403953552
vt 0.5312499403953552 0.0
vt 0.5625 0.9999999403953552
vt 0.5624999403953552 0.0
vt 0.59375 0.9999999403953552
vt 0.5937499403953552 0.0
vt 0.625 0.9999999403953552
vt 0.6249999403953552 0.0
vt 0.65625 0.9999999403953552
vt 0.6562499403953552 0.0
vt 0.6875 0.9999999403953552
vt 0.6874999403953552 0.0
vt 0.71875 0.9999999403953552
vt 0.7187499403953552 0.0
vt 0.75 0.9999999403953552
vt 0.7499999403953552 0.0
vt 0.78125 0.9999999403953552
vt 0.7812499403953552 0.0
vt 0.8125 0.9999999403953552
vt 0.8124999403953552 -1.1920928955078125e-07
vt 0.84375 0.9999999403953552
vt 0.8437499403953552 -1.1920928955078125e-07
vt 0.875 0.9999999403953552
vt 0.8749999403953552 -1.1920928955078125e-07
vt 0.90625 0.9999999403953552
vt 0.9062499403953552 -1.1920928955078125e-07
vt 0.9375 0.9999999403953552
vt 0.9374999403953552 -1.1920928955078125e-07
vt 0.96875 0.9999999403953552
vt 0.9687499403953552 -1.1920928955078125e-07
vt 1.0 0.9999999403953552
vt 0.9999999403953552 -1.1920928955078125e-07

g liuti3
s 1
usemtl liuti3
f 3/3/3 2/2/2 1/1/1 
f 4/4/4 1/1/1 2/2/2 
f 2/2/2 5/5/5 4/4/4 
f 6/6/6 4/4/4 5/5/5 
f 5/5/5 7/7/7 6/6/6 
f 8/8/8 6/6/6 7/7/7 
f 7/7/7 9/9/9 8/8/8 
f 10/10/10 8/8/8 9/9/9 
f 9/9/9 11/11/11 10/10/10 
f 12/12/12 10/10/10 11/11/11 
f 11/11/11 13/13/13 12/12/12 
f 14/14/14 12/12/12 13/13/13 
f 13/13/13 15/15/15 14/14/14 
f 16/16/16 14/14/14 15/15/15 
f 15/15/15 17/17/17 16/16/16 
f 18/18/18 16/16/16 17/17/17 
f 17/17/17 19/19/19 18/18/18 
f 20/20/20 18/18/18 19/19/19 
f 19/19/19 21/21/21 20/20/20 
f 22/22/22 20/20/20 21/21/21 
f 21/21/21 23/23/23 22/22/22 
f 24/24/24 22/22/22 23/23/23 
f 23/23/23 25/25/25 24/24/24 
f 26/26/26 24/24/24 25/25/25 
f 25/25/25 27/27/27 26/26/26 
f 28/28/28 26/26/26 27/27/27 
f 27/27/27 29/29/29 28/28/28 
f 30/30/30 28/28/28 29/29/29 
f 29/29/29 31/31/31 30/30/30 
f 32/32/32 30/30/30 31/31/31 
f 31/31/31 33/33/33 32/32/32 
f 34/34/34 32/32/32 33/33/33 
f 33/33/33 35/35/35 34/34/34 
f 36/36/36 34/34/34 35/35/35 
f 35/35/35 37/37/37 36/36/36 
f 38/38/38 36/36/36 37/37/37 
f 37/37/37 39/39/39 38/38/38 
f 40/40/40 38/38/38 39/39/39 
f 39/39/39 41/41/41 40/40/40 
f 42/42/42 40/40/40 41/41/41 
f 41/41/41 43/43/43 42/42/42 
f 44/44/44 42/42/42 43/43/43 
f 43/43/43 45/45/45 44/44/44 
f 46/46/46 44/44/44 45/45/45 
f 45/45/45 47/47/47 46/46/46 
f 48/48/48 46/46/46 47/47/47 
f 47/47/47 49/49/49 48/48/48 
f 50/50/50 48/48/48 49/49/49 
f 49/49/49 51/51/51 50/50/50 
f 52/52/52 50/50/50 51/51/51 
f 51/51/51 53/53/53 52/52/52 
f 54/54/54 52/52/52 53/53/53 
f 53/53/53 55/55/55 54/54/54 
f 56/56/56 54/54/54 55/55/55 
f 55/55/55 57/57/57 56/56/56 
f 58/58/58 56/56/56 57/57/57 
f 57/57/57 59/59/59 58/58/58 
f 60/60/60 58/58/58 59/59/59 
f 59/59/59 61/61/61 60/60/60 
f 62/62/62 60/60/60 61/61/61 
f 61/61/61 63/63/63 62/62/62 
f 64/64/64 62/62/62 63/63/63 
f 63/63/63 65/65/65 64/64/64 
f 66/66/66 64/64/64 65/65/65 
f 69/69/69 68/68/68 67/67/67 
f 70/70/70 67/67/67 68/68/68 
f 68/68/68 71/71/71 70/70/70 
f 72/72/72 70/70/70 71/71/71 
f 71/71/71 73/73/73 72/72/72 
f 74/74/74 72/72/72 73/73/73 
f 73/73/73 75/75/75 74/74/74 
f 76/76/76 74/74/74 75/75/75 
f 75/75/75 77/77/77 76/76/76 
f 78/78/78 76/76/76 77/77/77 
f 77/77/77 79/79/79 78/78/78 
f 80/80/80 78/78/78 79/79/79 
f 79/79/79 81/81/81 80/80/80 
f 82/82/82 80/80/80 81/81/81 
f 81/81/81 83/83/83 82/82/82 
f 84/84/84 82/82/82 83/83/83 
f 83/83/83 85/85/85 84/84/84 
f 86/86/86 84/84/84 85/85/85 
f 85/85/85 87/87/87 86/86/86 
f 88/88/88 86/86/86 87/87/87 
f 87/87/87 89/89/89 88/88/88 
f 90/90/90 88/88/88 89/89/89 
f 89/89/89 91/91/91 90/90/90 
f 92/92/92 90/90/90 91/91/91 
f 91/91/91 93/93/93 92/92/92 
f 94/94/94 92/92/92 93/93/93 
f 93/93/93 95/95/95 94/94/94 
f 96/96/96 94/94/94 95/95/95 
f 95/95/95 97/97/97 96/96/96 
f 98/98/98 96/96/96 97/97/97 
f 97/97/97 99/99/99 98/98/98 
f 100/100/100 98/98/98 99/99/99 
f 99/99/99 101/101/101 100/100/100 
f 102/102/102 100/100/100 101/101/101 
f 101/101/101 103/103/103 102/102/102 
f 104/104/104 102/102/102 103/103/103 
f 103/103/103 105/105/105 104/104/104 
f 106/106/106 104/104/104 105/105/105 
f 105/105/105 107/107/107 106/106/106 
f 108/108/108 106/106/106 107/107/107 
f 107/107/107 109/109/109 108/108/108 
f 110/110/110 108/108/108 109/109/109 
f 109/109/109 111/111/111 110/110/110 
f 112/112/112 110/110/110 111/111/111 
f 111/111/111 113/113/113 112/112/112 
f 114/114/114 112/112/112 113/113/113 
f 113/113/113 115/115/115 114/114/114 
f 116/116/116 114/114/114 115/115/115 
f 115/115/115 117/117/117 116/116/116 
f 118/118/118 116/116/116 117/117/117 
f 117/117/117 119/119/119 118/118/118 
f 120/120/120 118/118/118 119/119/119 
f 119/119/119 121/121/121 120/120/120 
f 122/122/122 120/120/120 121/121/121 
f 121/121/121 123/123/123 122/122/122 
f 124/124/124 122/122/122 123/123/123 
f 123/123/123 125/125/125 124/124/124 
f 126/126/126 124/124/124 125/125/125 
f 125/125/125 127/127/127 126/126/126 
f 128/128/128 126/126/126 127/127/127 
f 127/127/127 129/129/129 128/128/128 
f 130/130/130 128/128/128 129/129/129 
f 129/129/129 131/131/131 130/130/130 
f 132/132/132 130/130/130 131/131/131 

