[
	{
		"ID": 1,
		"Name": "Test Points Event 1",
		"PageImage": "UI/TextImages/English_Uncharted_ABS/1/Points_001.png",
		"UIState": "Normal",
		"BackgroundImage": "UI/CommonBG_ABS/BG_Vague.png",
		"ScoreName": "Test Points 1",
		"BonusHeroIdList": [
			{
				"Key": 1,
				"Value": 20
			},
			{
				"Key": 5,
				"Value": 20
			},
			{
				"Key": 3,
				"Value": 10
			},
			{
				"Key": 4,
				"Value": 10
			}
		],
		"UnchartedScoreRewardGroupId": 1,
		"ScoreItemId": 3504,
		"ScoreLevelBonusCount": 3,
		"ScoreLevelBonus": 100,
		"ModelIdList": [
			1
		]
	},
	{
		"ID": 2,
		"Name": "Test Points Event 2",
		"PageImage": "UI/TextImages/English_Uncharted_ABS/1/Points_001.png",
		"UIState": "Normal",
		"BackgroundImage": "UI/CommonBG_ABS/BG_Vague.png",
		"ScoreName": "Test Points 2",
		"BonusHeroIdList": [
			{
				"Key": 5,
				"Value": 30
			},
			{
				"Key": 6,
				"Value": 30
			},
			{
				"Key": 7,
				"Value": 15
			},
			{
				"Key": 8,
				"Value": 15
			}
		],
		"UnchartedScoreRewardGroupId": 2,
		"ScoreItemId": 3504,
		"ScoreLevelBonusCount": 4,
		"ScoreLevelBonus": 150,
		"ModelIdList": [
			1
		]
	},
	{
		"ID": 3,
		"Name": "Ever-Dark Contract",
		"PageImage": "UI/TextImages/English_Uncharted_ABS/1/Points_001.png",
		"UIState": "Normal",
		"BackgroundImage": "UI/CommonBG_ABS/BG_Vague.png",
		"ScoreName": "Points",
		"BonusHeroIdList": [
			{
				"Key": 12,
				"Value": 40
			},
			{
				"Key": 15,
				"Value": 40
			},
			{
				"Key": 10,
				"Value": 40
			},
			{
				"Key": 1,
				"Value": 40
			},
			{
				"Key": 5,
				"Value": 40
			},
			{
				"Key": 17,
				"Value": 40
			},
			{
				"Key": 20,
				"Value": 40
			},
			{
				"Key": 23,
				"Value": 40
			},
			{
				"Key": 22,
				"Value": 40
			},
			{
				"Key": 19,
				"Value": 40
			}
		],
		"UnchartedScoreRewardGroupId": 3,
		"ScoreItemId": 3504,
		"ChallengeLevelIdList": [
			1,
			2,
			3,
			4,
			5
		],
		"ScoreLevelIdList": [
			41,
			42,
			43,
			44,
			45,
			46,
			47,
			48,
			49
		],
		"ScoreLevelBonusCount": 2,
		"ScoreLevelBonus": 300,
		"ModelIdList": [
			1
		]
	},
	{
		"ID": 4,
		"Name": "Swimsuit Summer Festival",
		"PageImage": "UI/TextImages/English_Uncharted_ABS/1/Points_002.png",
		"UIState": "Swimsuit",
		"BackgroundImage": "UI/UnchartedScore_ABS/BG/SeaImage.png",
		"ScoreName": "Points",
		"BonusHeroIdList": [
			{
				"Key": 26,
				"Value": 40
			},
			{
				"Key": 8,
				"Value": 40
			},
			{
				"Key": 29,
				"Value": 40
			},
			{
				"Key": 49,
				"Value": 40
			},
			{
				"Key": 11,
				"Value": 40
			},
			{
				"Key": 33,
				"Value": 40
			},
			{
				"Key": 39,
				"Value": 40
			},
			{
				"Key": 13,
				"Value": 40
			},
			{
				"Key": 1,
				"Value": 40
			},
			{
				"Key": 4,
				"Value": 40
			}
		],
		"UnchartedScoreRewardGroupId": 4,
		"ScoreItemId": 3504,
		"ChallengeLevelIdList": [
			11,
			12,
			13,
			14,
			15,
			16,
			17,
			18
		],
		"ScoreLevelIdList": [
			11,
			12,
			13,
			14,
			15,
			16,
			17,
			18,
			19,
			20,
			21,
			22,
			23,
			24,
			25,
			26,
			27,
			28,
			29,
			30,
			31
		],
		"ScoreLevelBonusCount": 2,
		"ScoreLevelBonus": 300,
		"ModelIdList": [
			2,
			3,
			4,
			5,
			6,
			7
		]
	},
	{
		"ID": 5,
		"Name": "Epic Eatery",
		"PageImage": "UI/TextImages/English_Uncharted_ABS/1/Points_003.png",
		"UIState": "CoffeRoom",
		"BackgroundImage": "UI/UnchartedScore_ABS/BG/CoffeRoom.png",
		"ScoreName": "Points",
		"UnchartedScoreRewardGroupId": 5,
		"ScoreItemId": 3504,
		"ChallengeLevelIdList": [
			21,
			22,
			23,
			24,
			25,
			26,
			27,
			28
		],
		"ScoreLevelIdList": [
			32,
			33,
			34,
			35,
			36,
			37,
			38,
			39,
			40
		],
		"ScoreLevelBonusCount": 2,
		"ScoreLevelBonus": 200,
		"ModelIdList": [
			8,
			9,
			10,
			11
		]
	},
	{
		"ID": 6,
		"Name": "Ever-Dark Contract Reprisal",
		"PageImage": "UI/TextImages/English_Uncharted_ABS/1/Points_001.png",
		"UIState": "Normal",
		"BackgroundImage": "UI/CommonBG_ABS/BG_Vague.png",
		"ScoreName": "Points",
		"BonusHeroIdList": [
			{
				"Key": 10,
				"Value": 40
			},
			{
				"Key": 12,
				"Value": 40
			},
			{
				"Key": 7,
				"Value": 40
			},
			{
				"Key": 8,
				"Value": 40
			},
			{
				"Key": 25,
				"Value": 40
			},
			{
				"Key": 28,
				"Value": 40
			},
			{
				"Key": 17,
				"Value": 40
			},
			{
				"Key": 22,
				"Value": 40
			},
			{
				"Key": 20,
				"Value": 40
			},
			{
				"Key": 39,
				"Value": 40
			}
		],
		"UnchartedScoreRewardGroupId": 6,
		"ScoreItemId": 3504,
		"ChallengeLevelIdList": [
			31,
			32,
			33,
			34,
			35
		],
		"ScoreLevelIdList": [
			1,
			2,
			3,
			4,
			5,
			6,
			7,
			8,
			9
		],
		"ScoreLevelBonusCount": 2,
		"ScoreLevelBonus": 300,
		"ModelIdList": [
			1
		]
	}
]