[
	{
		"ID": 1,
		"Fragment": 10,
		"Gold": 1000
	},
	{
		"ID": 2,
		"Fragment": 30,
		"Gold": 1000
	},
	{
		"ID": 3,
		"Fragment": 60,
		"Gold": 1000
	},
	{
		"ID": 4,
		"Fragment": 110,
		"Gold": 1000
	},
	{
		"ID": 5,
		"Fragment": 210,
		"Gold": 1000
	},
	{
		"ID": 6,
		"Fragment": 360,
		"Gold": 1000
	}
]