v 1.5099580252808664e-08 0.0 -0.19999998807907104
v 0.20000001788139343 0.0 -0.19999997317790985
v 0.20000001788139343 0.03901806101202965 -0.1961570382118225
v 1.4809445225694162e-08 0.03901806101202965 -0.1961570531129837
v 0.20000001788139343 0.07653669267892838 -0.18477588891983032
v 1.395019300076683e-08 0.07653669267892838 -0.18477590382099152
v 0.20000001788139343 0.11111404001712799 -0.1662939041852951
v 1.2554841610779022e-08 0.11111404001712799 -0.1662939190864563
v 0.20000001788139343 0.1414213478565216 -0.1414213329553604
v 1.067701482782013e-08 0.1414213478565216 -0.1414213478565216
v 0.19999998807907104 0.1662939190864563 -0.1111140102148056
v 8.388876260312372e-09 0.1662939190864563 -0.1111140325665474
v 0.19999998807907104 0.18477590382099152 -0.07653667032718658
v 5.7783591245197385e-09 0.18477590382099152 -0.07653668522834778
v 0.19999998807907104 0.1961570531129837 -0.03901805728673935
v 2.9457825068135435e-09 0.1961570531129837 -0.039018068462610245
v 0.19999998807907104 0.19999998807907104 0.0
v 1.1399864918422518e-15 0.19999998807907104 -1.5099580252808664e-08
v 0.19999998807907104 0.1961570531129837 0.03901805356144905
v -2.9457798422782844e-09 0.1961570531129837 0.03901803866028786
v -2.9457798422782844e-09 0.1961570531129837 0.03901803866028786
v 0.19999998807907104 0.1961570531129837 0.03901805356144905
v 0.19999998807907104 0.18477590382099152 0.07653667032718658
v -5.778356904073689e-09 0.18477590382099152 0.07653665542602539
v 0.19999998807907104 0.1662939190864563 0.11111405491828918
v -8.388876260312372e-09 0.1662939190864563 0.1111140325665474
v 0.19999997317790985 0.1414213478565216 0.141421377658844
v -1.067701482782013e-08 0.1414213478565216 0.1414213478565216
v 0.19999997317790985 0.1111140325665474 0.1662939488887787
v -1.2554841610779022e-08 0.1111140325665474 0.1662939190864563
v 0.19999997317790985 0.07653665542602539 0.1847759336233139
v -1.395019477712367e-08 0.07653665542602539 0.1847759187221527
v 0.19999997317790985 0.039018016308546066 0.1961570680141449
v -1.4809445225694162e-08 0.039018016308546066 0.1961570531129837
v 0.19999997317790985 -6.516827255609314e-08 0.20000001788139343
v -1.5099580252808664e-08 -6.516827255609314e-08 0.19999998807907104
v 0.19999997317790985 -0.039018142968416214 0.1961570531129837
v -1.4809444337515743e-08 -0.039018142968416214 0.1961570382118225
v 0.19999997317790985 -0.07653677463531494 0.18477588891983032
v -1.3950189448053152e-08 -0.07653677463531494 0.18477585911750793
v 0.19999997317790985 -0.11111413687467575 0.1662938892841339
v -1.2554837169886923e-08 -0.11111413687467575 0.16629385948181152
v 0.19999997317790985 -0.14142145216464996 0.14142128825187683
v -1.0677009498749612e-08 -0.14142145216464996 0.14142127335071564
v 0.19999998807907104 -0.16629399359226227 0.11111394315958023
v -8.388868266706595e-09 -0.16629399359226227 0.11111392825841904
v 0.19999998807907104 -0.1847759634256363 0.07653655111789703
v -5.7783475782002824e-09 -0.1847759634256363 0.07653653621673584
v 0.19999998807907104 -0.1961570829153061 0.03901790454983711
v -2.945768962092643e-09 -0.1961570829153061 0.03901788964867592
v 0.19999998807907104 -0.19999998807907104 -1.7802024387947313e-07
v 1.4580140751414145e-14 -0.19999998807907104 -1.9311983123770915e-07
v 0.19999998807907104 -0.19615700840950012 -0.03901825472712517
v 2.9457976058466784e-09 -0.19615700840950012 -0.03901826962828636
v 0.19999998807907104 -0.18477579951286316 -0.0765368789434433
v 5.778375111731293e-09 -0.18477579951286316 -0.07653689384460449
v 0.19999998807907104 -0.16629378497600555 -0.11111423373222351
v 8.388893135702347e-09 -0.16629378497600555 -0.1111142486333847
v 0.20000001788139343 -0.14142116904258728 -0.14142151176929474
v 1.0677029038674846e-08 -0.14142116904258728 -0.14142152667045593
v 0.20000001788139343 -0.11111382395029068 -0.16629405319690704
v 1.2554853157098478e-08 -0.11111382395029068 -0.16629406809806824
v 0.20000001788139343 -0.07653641700744629 -0.18477599322795868
v 1.3950200994372608e-08 -0.07653641700744629 -0.18477602303028107
v 0.20000001788139343 -0.03901776298880577 -0.1961570829153061
v 1.480944966658626e-08 -0.03901776298880577 -0.19615711271762848
vn -0.0 3.526941156906105e-07 -1.0
vn -0.0 3.526941156906105e-07 -1.0
vn -0.0 0.19509029388427734 -0.9807852506637573
vn -0.0 0.19509029388427734 -0.9807852506637573
vn -0.0 0.38268333673477173 -0.9238795638084412
vn -0.0 0.3826833963394165 -0.9238795638084412
vn -0.0 0.5555702447891235 -0.8314696550369263
vn -0.0 0.5555702447891235 -0.8314695954322815
vn -0.0 0.7071067690849304 -0.7071067690849304
vn -0.0 0.7071068286895752 -0.7071067690849304
vn -0.0 0.8314696550369263 -0.5555702447891235
vn -0.0 0.8314696550369263 -0.5555702447891235
vn -0.0 0.9238795042037964 -0.38268348574638367
vn -0.0 0.9238795042037964 -0.3826834261417389
vn -0.0 0.9807852506637573 -0.1950903683900833
vn -0.0 0.9807852506637573 -0.1950903683900833
vn -0.0 1.0 0.0
vn -0.0 1.0 0.0
vn -0.0 0.9807852506637573 0.1950903683900833
vn -0.0 0.9807852506637573 0.1950903683900833
vn -0.0 0.9807852506637573 0.1950903683900833
vn -0.0 0.9807852506637573 0.1950903683900833
vn -0.0 0.9238796234130859 0.38268324732780457
vn -0.0 0.9238796234130859 0.38268324732780457
vn -0.0 0.8314697742462158 0.5555700063705444
vn -0.0 0.8314697742462158 0.5555700063705444
vn -0.0 0.70710688829422 0.7071067094802856
vn -0.0 0.7071068286895752 0.7071067690849304
vn -0.0 0.5555702447891235 0.8314696550369263
vn -0.0 0.5555702447891235 0.8314695954322815
vn -0.0 0.3826831877231598 0.9238796830177307
vn -0.0 0.3826832175254822 0.9238796234130859
vn -0.0 0.19509001076221466 0.9807853102684021
vn -0.0 0.19508999586105347 0.9807853102684021
vn -0.0 -2.430729750813043e-07 1.0
vn -0.0 -2.430729750813043e-07 1.0
vn -0.0 -0.19509077072143555 0.9807851910591125
vn -0.0 -0.19509077072143555 0.9807851910591125
vn -0.0 -0.38268372416496277 0.9238794445991516
vn -0.0 -0.38268372416496277 0.9238794445991516
vn -0.0 -0.5555706024169922 0.8314693570137024
vn -0.0 -0.5555706024169922 0.8314693570137024
vn -0.0 -0.7071073055267334 0.7071062326431274
vn -0.0 -0.7071073055267334 0.7071062922477722
vn -0.0 -0.8314701318740845 0.5555695295333862
vn -0.0 -0.8314701318740845 0.5555694699287415
vn -0.0 -0.923879861831665 0.3826826810836792
vn -0.0 -0.923879861831665 0.3826826512813568
vn -0.0 -0.9807854294776917 0.19508953392505646
vn -0.0 -0.9807854294776917 0.19508950412273407
vn -0.0 -1.0 -9.627598274164484e-07
vn -0.0 -1.0 -9.675260344010894e-07
vn -0.0 -0.9807850122451782 -0.19509147107601166
vn -0.0 -0.9807850122451782 -0.19509148597717285
vn -0.0 -0.9238791465759277 -0.3826844394207001
vn -0.0 -0.9238791465759277 -0.38268446922302246
vn -0.0 -0.831468939781189 -0.5555712580680847
vn -0.0 -0.831468939781189 -0.5555713176727295
vn -0.0 -0.7071058750152588 -0.707107663154602
vn -0.0 -0.7071058750152588 -0.707107663154602
vn -0.0 -0.5555691719055176 -0.8314703106880188
vn -0.0 -0.5555691719055176 -0.8314703106880188
vn -0.0 -0.3826819360256195 -0.9238801002502441
vn -0.0 -0.3826819658279419 -0.9238801002502441
vn -0.0 -0.195089191198349 -0.9807854890823364
vn -0.0 -0.195089191198349 -0.9807854890823364
vt 0.7178749442100525 0.9979999999050051
vt 0.7178749442100525 0.0020000338554382324
vt 0.7489999532699585 0.0020000338554382324
vt 0.7489999532699585 0.9979999999050051
vt 0.7801249623298645 0.0020000338554382324
vt 0.7801249623298645 0.9979999999050051
vt 0.8112499117851257 0.0020000338554382324
vt 0.8112499117851257 0.9979999999050051
vt 0.8423749804496765 0.0020000338554382324
vt 0.8423749804496765 0.9979999999050051
vt 0.8734999299049377 0.0020000338554382324
vt 0.8734999299049377 0.9979999999050051
vt 0.904624879360199 0.0020000338554382324
vt 0.904624879360199 0.9979999999050051
vt 0.9357499480247498 0.0020000338554382324
vt 0.9357499480247498 0.9979999999050051
vt 0.966874897480011 0.0020000338554382324
vt 0.966874897480011 0.9979999999050051
vt 0.9979999661445618 0.0020000338554382324
vt 0.9979999661445618 0.9979999999050051
vt 0.0020000000949949026 0.9979999999050051
vt 0.0020000000949949026 0.0020000338554382324
vt 0.03312496840953827 0.0020000338554382324
vt 0.03312496840953827 0.9979999999050051
vt 0.06424999982118607 0.0020000338554382324
vt 0.06424999982118607 0.9979999999050051
vt 0.09537499397993088 0.0020000338554382324
vt 0.09537499397993088 0.9979999999050051
vt 0.1264999657869339 0.0020000338554382324
vt 0.1264999657869339 0.9979999999050051
vt 0.1576250046491623 0.0020000338554382324
vt 0.1576250046491623 0.9979999999050051
vt 0.18875005841255188 0.0020000338554382324
vt 0.18875005841255188 0.9979999999050051
vt 0.21987506747245789 0.0020000338554382324
vt 0.21987506747245789 0.9979999999050051
vt 0.2510000765323639 0.0020000338554382324
vt 0.2510000765323639 0.9979999999050051
vt 0.2821250557899475 0.0020000338554382324
vt 0.2821250557899475 0.9979999999050051
vt 0.3132500946521759 0.0020000338554382324
vt 0.3132500946521759 0.9979999999050051
vt 0.3443751037120819 0.0020000338554382324
vt 0.3443751037120819 0.9979999999050051
vt 0.3755001127719879 0.0020000338554382324
vt 0.3755001127719879 0.9979999999050051
vt 0.4066251218318939 0.0020000338554382324
vt 0.4066251218318939 0.9979999999050051
vt 0.4377501308917999 0.0020000338554382324
vt 0.4377501308917999 0.9979999999050051
vt 0.46887511014938354 0.0020000338554382324
vt 0.46887511014938354 0.9979999999050051
vt 0.5000001788139343 0.0020000338554382324
vt 0.5000001788139343 0.9979999999050051
vt 0.5311251282691956 0.0020000338554382324
vt 0.5311251282691956 0.9979999999050051
vt 0.5622501373291016 0.0020000338554382324
vt 0.5622501373291016 0.9979999999050051
vt 0.5933751463890076 0.0020000338554382324
vt 0.5933751463890076 0.9979999999050051
vt 0.6245002150535583 0.0020000338554382324
vt 0.6245002150535583 0.9979999999050051
vt 0.6556252241134644 0.0020000338554382324
vt 0.6556252241134644 0.9979999999050051
vt 0.6867501735687256 0.0020000338554382324
vt 0.6867501735687256 0.9979999999050051

g Mesh_FX_Cone_02
s 1
usemtl Mesh_FX_Cone_02
f 3/3/3 2/2/2 1/1/1 
f 4/4/4 3/3/3 1/1/1 
f 5/5/5 3/3/3 4/4/4 
f 6/6/6 5/5/5 4/4/4 
f 7/7/7 5/5/5 6/6/6 
f 8/8/8 7/7/7 6/6/6 
f 9/9/9 7/7/7 8/8/8 
f 10/10/10 9/9/9 8/8/8 
f 11/11/11 9/9/9 10/10/10 
f 12/12/12 11/11/11 10/10/10 
f 13/13/13 11/11/11 12/12/12 
f 14/14/14 13/13/13 12/12/12 
f 15/15/15 13/13/13 14/14/14 
f 16/16/16 15/15/15 14/14/14 
f 17/17/17 15/15/15 16/16/16 
f 18/18/18 17/17/17 16/16/16 
f 19/19/19 17/17/17 18/18/18 
f 20/20/20 19/19/19 18/18/18 
f 23/23/23 22/22/22 21/21/21 
f 24/24/24 23/23/23 21/21/21 
f 25/25/25 23/23/23 24/24/24 
f 26/26/26 25/25/25 24/24/24 
f 27/27/27 25/25/25 26/26/26 
f 28/28/28 27/27/27 26/26/26 
f 29/29/29 27/27/27 28/28/28 
f 30/30/30 29/29/29 28/28/28 
f 31/31/31 29/29/29 30/30/30 
f 32/32/32 31/31/31 30/30/30 
f 33/33/33 31/31/31 32/32/32 
f 34/34/34 33/33/33 32/32/32 
f 35/35/35 33/33/33 34/34/34 
f 36/36/36 35/35/35 34/34/34 
f 37/37/37 35/35/35 36/36/36 
f 38/38/38 37/37/37 36/36/36 
f 39/39/39 37/37/37 38/38/38 
f 40/40/40 39/39/39 38/38/38 
f 41/41/41 39/39/39 40/40/40 
f 42/42/42 41/41/41 40/40/40 
f 43/43/43 41/41/41 42/42/42 
f 44/44/44 43/43/43 42/42/42 
f 45/45/45 43/43/43 44/44/44 
f 46/46/46 45/45/45 44/44/44 
f 47/47/47 45/45/45 46/46/46 
f 48/48/48 47/47/47 46/46/46 
f 49/49/49 47/47/47 48/48/48 
f 50/50/50 49/49/49 48/48/48 
f 51/51/51 49/49/49 50/50/50 
f 52/52/52 51/51/51 50/50/50 
f 53/53/53 51/51/51 52/52/52 
f 54/54/54 53/53/53 52/52/52 
f 55/55/55 53/53/53 54/54/54 
f 56/56/56 55/55/55 54/54/54 
f 57/57/57 55/55/55 56/56/56 
f 58/58/58 57/57/57 56/56/56 
f 59/59/59 57/57/57 58/58/58 
f 60/60/60 59/59/59 58/58/58 
f 61/61/61 59/59/59 60/60/60 
f 62/62/62 61/61/61 60/60/60 
f 63/63/63 61/61/61 62/62/62 
f 64/64/64 63/63/63 62/62/62 
f 65/65/65 63/63/63 64/64/64 
f 66/66/66 65/65/65 64/64/64 
f 2/2/2 65/65/65 66/66/66 
f 1/1/1 2/2/2 66/66/66 

