v 20.0 0.0 0.0
v 19.31851577758789 5.1763811111450195 0.0
v 19.31851577758789 5.1763811111450195 100.0
v 20.0 0.0 100.0
v 17.320507049560547 10.0 100.0
v 17.320507049560547 10.0 0.0
v 14.142135620117188 14.142135620117188 100.0
v 14.142135620117188 14.142135620117188 0.0
v 9.999999046325684 17.32050895690918 100.0
v 9.999999046325684 17.32050895690918 0.0
v 5.176381587982178 19.31851577758789 100.0
v 5.176381587982178 19.31851577758789 0.0
v 1.509957996859157e-06 20.0 100.0
v 1.509957996859157e-06 20.0 0.0
v -5.17637825012207 19.318517684936523 100.0
v -5.17637825012207 19.318517684936523 0.0
v 19.318511962890625 -5.176395416259766 0.0
v 19.318511962890625 -5.176395416259766 100.0
v 17.32050132751465 -10.000011444091797 0.0
v 17.32050132751465 -10.000011444091797 100.0
v 14.14212703704834 -14.142145156860352 0.0
v 14.14212703704834 -14.142145156860352 100.0
v 9.99998950958252 -17.320514678955078 0.0
v 9.99998950958252 -17.320514678955078 100.0
v 5.176370620727539 -19.318519592285156 0.0
v 5.176370620727539 -19.318519592285156 100.0
v -9.298245458921883e-06 -20.0 0.0
v -9.298245458921883e-06 -20.0 100.0
v -5.176388740539551 -19.318513870239258 0.0
v -5.176388740539551 -19.318513870239258 100.0
v -10.000005722045898 -17.32050323486328 0.0
v -10.000005722045898 -17.32050323486328 100.0
v -14.142143249511719 -14.142127990722656 0.0
v -14.142143249511719 -14.142127990722656 100.0
v -17.320512771606445 -9.999991416931152 0.0
v -17.320512771606445 -9.999991416931152 100.0
v -19.318519592285156 -5.176372528076172 0.0
v -19.318519592285156 -5.176372528076172 100.0
v -20.0 7.788286893628538e-06 0.0
v -20.0 7.788286893628538e-06 100.0
v -19.31851577758789 5.176387310028076 0.0
v -19.31851577758789 5.176387310028076 100.0
v -17.320505142211914 10.000004768371582 0.0
v -17.320505142211914 10.000004768371582 100.0
v -14.142131805419922 14.142139434814453 0.0
v -14.142131805419922 14.142139434814453 100.0
v -9.99999713897705 17.320510864257812 0.0
v -9.99999713897705 17.320510864257812 100.0
v -5.17637825012207 19.318517684936523 0.0
v -5.17637825012207 19.318517684936523 100.0
vn -1.0 0.0 0.0
vn -0.9659257531166077 -0.2588191330432892 0.0
vn -0.9659257531166077 -0.2588191330432892 0.0
vn -1.0 0.0 0.0
vn -0.866025447845459 -0.4999999701976776 0.0
vn -0.866025447845459 -0.4999999701976776 0.0
vn -0.7071068286895752 -0.7071067094802856 0.0
vn -0.7071068286895752 -0.7071067094802856 0.0
vn -0.4999999701976776 -0.866025447845459 0.0
vn -0.4999999701976776 -0.866025447845459 0.0
vn -0.258819043636322 -0.9659258127212524 0.0
vn -0.258819043636322 -0.9659258127212524 0.0
vn -0.0 -1.0 0.0
vn -0.0 -1.0 0.0
vn 0.2588188648223877 -0.9659258723258972 0.0
vn 0.2588188648223877 -0.9659258723258972 0.0
vn -0.9659256339073181 0.258819580078125 0.0
vn -0.9659256339073181 0.258819580078125 0.0
vn -0.8660250902175903 0.5000004172325134 0.0
vn -0.8660250902175903 0.5000004172325134 0.0
vn -0.707106351852417 0.7071071863174438 0.0
vn -0.707106351852417 0.7071071863174438 0.0
vn -0.4999994933605194 0.8660256862640381 0.0
vn -0.4999994933605194 0.8660256862640381 0.0
vn -0.25881847739219666 0.9659259915351868 0.0
vn -0.25881847739219666 0.9659259915351868 0.0
vn -0.0 1.0 0.0
vn -0.0 1.0 0.0
vn 0.2588195204734802 0.9659256935119629 0.0
vn 0.2588195204734802 0.9659256935119629 0.0
vn 0.5000003576278687 0.8660252094268799 0.0
vn 0.5000003576278687 0.8660252094268799 0.0
vn 0.7071070671081543 0.7071065306663513 0.0
vn 0.7071070671081543 0.7071065306663513 0.0
vn 0.8660256266593933 0.49999964237213135 0.0
vn 0.8660256266593933 0.49999964237213135 0.0
vn 0.965925931930542 0.258818656206131 0.0
vn 0.965925931930542 0.258818656206131 0.0
vn 1.0 0.0 0.0
vn 1.0 0.0 0.0
vn 0.9659256935119629 -0.2588193416595459 0.0
vn 0.9659256935119629 -0.2588193416595459 0.0
vn 0.8660252094268799 -0.5000004172325134 0.0
vn 0.8660252094268799 -0.5000004172325134 0.0
vn 0.7071066498756409 -0.70710688829422 0.0
vn 0.7071066498756409 -0.70710688829422 0.0
vn 0.49999985098838806 -0.8660255074501038 0.0
vn 0.49999985098838806 -0.8660255074501038 0.0
vn 0.2588188648223877 -0.9659258723258972 0.0
vn 0.2588188648223877 -0.9659258723258972 0.0
vt 0.75 1.0
vt 0.7916666865348816 1.0
vt 0.7916666865348816 0.0
vt 0.75 0.0
vt 0.8333333134651184 0.0
vt 0.8333333134651184 1.0
vt 0.875 0.0
vt 0.875 1.0
vt 0.9166666865348816 0.0
vt 0.9166666865348816 1.0
vt 0.9583333134651184 0.0
vt 0.9583333134651184 1.0
vt 0.9999999403953552 0.0
vt 0.9999999403953552 1.0
vt 1.0416666269302368 0.0
vt 1.0416666269302368 1.0
vt 0.7083332538604736 1.0
vt 0.7083332538604736 0.0
vt 0.666666567325592 1.0
vt 0.666666567325592 0.0
vt 0.6249998807907104 1.0
vt 0.6249998807907104 0.0
vt 0.5833332538604736 1.0
vt 0.5833332538604736 0.0
vt 0.541666567325592 1.0
vt 0.541666567325592 0.0
vt 0.49999991059303284 1.0
vt 0.49999991059303284 0.0
vt 0.45833325386047363 1.0
vt 0.45833325386047363 0.0
vt 0.41666659712791443 1.0
vt 0.41666659712791443 0.0
vt 0.37499991059303284 1.0
vt 0.37499991059303284 0.0
vt 0.33333325386047363 1.0
vt 0.33333325386047363 0.0
vt 0.29166659712791443 1.0
vt 0.29166659712791443 0.0
vt 0.24999994039535522 1.0
vt 0.24999994039535522 0.0
vt 0.20833328366279602 1.0
vt 0.20833328366279602 0.0
vt 0.16666662693023682 1.0
vt 0.16666662693023682 0.0
vt 0.12499997019767761 1.0
vt 0.12499997019767761 0.0
vt 0.08333331346511841 1.0
vt 0.08333331346511841 0.0
vt 0.041666656732559204 1.0
vt 0.041666656732559204 0.0

g Mesh_FX_RiftBG_Cylinder
s 1
usemtl Mesh_FX_RiftBG_Cylinder
f 3/3/3 2/2/2 1/1/1 
f 4/4/4 3/3/3 1/1/1 
f 3/3/3 5/5/5 2/2/2 
f 5/5/5 6/6/6 2/2/2 
f 5/5/5 7/7/7 6/6/6 
f 7/7/7 8/8/8 6/6/6 
f 7/7/7 9/9/9 8/8/8 
f 9/9/9 10/10/10 8/8/8 
f 9/9/9 11/11/11 10/10/10 
f 11/11/11 12/12/12 10/10/10 
f 11/11/11 13/13/13 12/12/12 
f 13/13/13 14/14/14 12/12/12 
f 13/13/13 15/15/15 14/14/14 
f 15/15/15 16/16/16 14/14/14 
f 4/4/4 1/1/1 17/17/17 
f 18/18/18 4/4/4 17/17/17 
f 18/18/18 17/17/17 19/19/19 
f 20/20/20 18/18/18 19/19/19 
f 20/20/20 19/19/19 21/21/21 
f 22/22/22 20/20/20 21/21/21 
f 22/22/22 21/21/21 23/23/23 
f 24/24/24 22/22/22 23/23/23 
f 24/24/24 23/23/23 25/25/25 
f 26/26/26 24/24/24 25/25/25 
f 26/26/26 25/25/25 27/27/27 
f 28/28/28 26/26/26 27/27/27 
f 28/28/28 27/27/27 29/29/29 
f 30/30/30 28/28/28 29/29/29 
f 30/30/30 29/29/29 31/31/31 
f 32/32/32 30/30/30 31/31/31 
f 32/32/32 31/31/31 33/33/33 
f 34/34/34 32/32/32 33/33/33 
f 34/34/34 33/33/33 35/35/35 
f 36/36/36 34/34/34 35/35/35 
f 36/36/36 35/35/35 37/37/37 
f 38/38/38 36/36/36 37/37/37 
f 38/38/38 37/37/37 39/39/39 
f 40/40/40 38/38/38 39/39/39 
f 40/40/40 39/39/39 41/41/41 
f 42/42/42 40/40/40 41/41/41 
f 42/42/42 41/41/41 43/43/43 
f 44/44/44 42/42/42 43/43/43 
f 44/44/44 43/43/43 45/45/45 
f 46/46/46 44/44/44 45/45/45 
f 46/46/46 45/45/45 47/47/47 
f 48/48/48 46/46/46 47/47/47 
f 48/48/48 47/47/47 49/49/49 
f 50/50/50 48/48/48 49/49/49 

