v 0.7733743786811829 -0.6410301327705383 0.39103010296821594
v 1.430769920349121 -0.5452664494514465 0.29526644945144653
v 0.7777892351150513 -0.14104966819286346 0.39104965329170227
v 1.275709867477417 -0.07059301435947418 0.3205930292606354
v 1.8252309560775757 -0.3019295930862427 0.05192966386675835
v 1.5191195011138916 0.07316165417432785 0.17683832347393036
v 1.8898708820343018 -0.052998464554548264 -0.19700153172016144
v 1.5366637706756592 0.18594245612621307 0.06405753642320633
v 1.7278820276260376 0.188572958111763 -0.4385729432106018
v 1.5072174072265625 0.24324363470077515 0.006756362970918417
v 1.1480231285095215 0.3214414417743683 -0.5714414715766907
v 1.1031670570373535 0.3234618008136749 -0.07346180081367493
v 0.506012499332428 0.3493335247039795 -0.5993335247039795
v 0.5046070218086243 0.34933552145957947 -0.09933547675609589
v 0.2123926430940628 0.34550991654396057 -0.5955098867416382
v 0.22532294690608978 0.34567707777023315 -0.09567710757255554
v -0.12788604199886322 0.3333708643913269 -0.5833708643913269
v -0.10613402724266052 0.33384448289871216 -0.08384449034929276
v -0.5181970000267029 0.31408342719078064 -0.564083456993103
v -0.49126189947128296 0.31480997800827026 -0.06480998545885086
v -0.9615591168403625 0.2887401282787323 -0.5387400984764099
v -0.931914210319519 0.2896205484867096 -0.03962055221199989
v -1.46078360080719 0.25840815901756287 -0.5084081292152405
v -1.4301519393920898 0.2593482434749603 -0.009348258376121521
v -2.018556833267212 0.22414728999137878 -0.4741472899913788
v -1.9881619215011597 0.22507289052009583 0.02492710016667843
v -2.6374850273132324 0.1870163232088089 -0.4370163381099701
v -2.6082077026367188 0.18787501752376556 0.06212497502565384
v -3.2959368228912354 0.149398073554039 -0.3993980586528778
v -3.267911911010742 0.1501847356557846 0.0998152494430542
v -3.712496042251587 0.12424716353416443 -0.37424716353416443
v -3.6804921627044678 0.12527351081371307 0.12472648173570633
v -4.141504287719727 0.09515868872404099 -0.34515872597694397
v -4.1061224937438965 0.09641368687152863 0.15358631312847137
v -4.581723690032959 0.0625312402844429 -0.3125312328338623
v -4.543485164642334 0.06399776041507721 0.1860022246837616
v -5.031907081604004 0.026762275025248528 -0.2767622768878937
v -4.991267681121826 0.02841930277645588 0.22158071398735046
v -5.490800857543945 -0.011751632206141949 -0.23824836313724518
v -5.44816780090332 -0.009927329607307911 0.25992733240127563
v -5.957146644592285 -0.05261417105793953 -0.19738581776618958
v -5.9128851890563965 -0.0506473146378994 0.3006473183631897
v -6.429679870605469 -0.09542938321828842 -0.15457060933113098
v -6.384125709533691 -0.09334544837474823 0.34334543347358704
v -6.907134056091309 -0.13980163633823395 -0.11019836366176605
v -6.860598564147949 -0.1376265287399292 0.3876265287399292
v -7.388238906860352 -0.18533511459827423 -0.06466487795114517
v -7.3410162925720215 -0.1830950826406479 0.4330950975418091
v -7.871719837188721 -0.23163428902626038 -0.018365707248449326
v -7.824092864990234 -0.2293555736541748 0.4793555736541748
v -8.355474472045898 -0.27822381258010864 0.028223838657140732
v -8.307719230651855 -0.2759327292442322 0.5259327292442322
v 0.7777892351150513 -0.39104965329170227 0.14104965329170227
v 1.2757097482681274 -0.320592999458313 0.07059299945831299
v 0.7733743786811829 -0.3910302221775055 0.6410302519798279
v 1.430769920349121 -0.2952665090560913 0.5452665686607361
v 1.5191195011138916 -0.17683829367160797 -0.07316169887781143
v 1.8252313137054443 -0.051929671317338943 0.30192965269088745
v 1.5366637706756592 -0.06405757367610931 -0.1859424114227295
v 1.8898711204528809 0.19700153172016144 0.05299846827983856
v 1.5072174072265625 -0.00675635552033782 -0.24324363470077515
v 1.7278820276260376 0.4385729432106018 -0.18857289850711823
v 1.1031670570373535 0.07346173375844955 -0.32346174120903015
v 1.1480231285095215 0.5714415311813354 -0.32144156098365784
v 0.5046070218086243 0.0993354469537735 -0.3493354618549347
v 0.506012499332428 0.5993335247039795 -0.3493335545063019
v 0.22532294690608978 0.09567711502313614 -0.3456771671772003
v 0.2123926430940628 0.5955098867416382 -0.34550994634628296
v -0.10613395273685455 0.08384446054697037 -0.33384445309638977
v -0.12788604199886322 0.5833709239959717 -0.33337095379829407
v -0.49126189947128296 0.06481000036001205 -0.31481000781059265
v -0.5181970000267029 0.564083456993103 -0.314083456993103
v -0.931914210319519 0.03962048515677452 -0.2896205186843872
v -0.9615591168403625 0.5387401580810547 -0.28874021768569946
v -1.4301519393920898 0.009348266758024693 -0.2593483030796051
v -1.46078360080719 0.5084081292152405 -0.25840818881988525
v -1.9881619215011597 -0.02492716908454895 -0.22507281601428986
v -2.018556833267212 0.47414737939834595 -0.22414731979370117
v -2.6082077026367188 -0.06212497130036354 -0.18787501752376556
v -2.6374850273132324 0.43701639771461487 -0.18701642751693726
v -3.267911911010742 -0.09981528669595718 -0.15018470585346222
v -3.2959368228912354 0.39939814805984497 -0.1493981033563614
v -3.6804921627044678 -0.12472648173570633 -0.12527351081371307
v -3.712496042251587 0.3742472231388092 -0.12424719333648682
v -4.1061224937438965 -0.15358631312847137 -0.09641368687152863
v -4.141504287719727 0.34515878558158875 -0.09515879303216934
v -4.543485164642334 -0.18600231409072876 -0.06399769335985184
v -4.581723690032959 0.31253132224082947 -0.06253127008676529
v -4.991267681121826 -0.22158077359199524 -0.028419196605682373
v -5.031907081604004 0.27676233649253845 -0.026762306690216064
v -5.44816780090332 -0.259927362203598 0.009927360340952873
v -5.490800857543945 0.23824843764305115 0.011751563288271427
v -5.9128851890563965 -0.3006473481655121 0.050647344440221786
v -5.957146644592285 0.19738586246967316 0.05261413753032684
v -6.384125709533691 -0.3433454930782318 0.09334547817707062
v -6.429679870605469 0.15457065403461456 0.09542933851480484
v -6.860598564147949 -0.3876265585422516 0.13762657344341278
v -6.907134056091309 0.11019843816757202 0.13980156183242798
v -7.3410162925720215 -0.43309515714645386 0.18309517204761505
v -7.388238906860352 0.06466490775346756 0.18533508479595184
v -7.824092864990234 -0.47935566306114197 0.22935564815998077
v -7.871719837188721 0.018365776166319847 0.2316342443227768
v -8.307719230651855 -0.5259327292442322 0.27593275904655457
v -8.355474472045898 -0.02822376973927021 0.27822378277778625
vn -0.14433708786964417 0.0013131508603692055 -0.989527702331543
vn -0.31260353326797485 -0.052611738443374634 -0.9484255909919739
vn -0.14301607012748718 0.00349129899404943 -0.9897142052650452
vn -0.3103387653827667 -0.04650971293449402 -0.9494876265525818
vn -0.6111590266227722 -0.2533460557460785 -0.7498669624328613
vn -0.6116006374359131 -0.26714664697647095 -0.7446994781494141
vn -0.7075933814048767 -0.5592696666717529 -0.4318900406360626
vn -0.7123984694480896 -0.5678287148475647 -0.4123821556568146
vn -0.46298494935035706 -0.8771103024482727 -0.12775948643684387
vn -0.49754682183265686 -0.8542980551719666 -0.15040630102157593
vn -0.12484533339738846 -0.9921759366989136 -0.0007382044568657875
vn -0.11936145275831223 -0.9928277134895325 -0.006781746633350849
vn -0.014910631813108921 -0.9998888373374939 1.9467384845484048e-05
vn -0.015275425277650356 -0.9998832941055298 -5.384960604715161e-05
vn 0.0243510901927948 -0.9997034072875977 -0.00028110307175666094
vn 0.024362681433558464 -0.9997031092643738 -0.00030113858520053327
vn 0.04247322678565979 -0.9990972280502319 -0.0008970474009402096
vn 0.042474109679460526 -0.9990971684455872 -0.0009041143348440528
vn 0.05313996225595474 -0.9985860586166382 -0.0014118128456175327
vn 0.05313926562666893 -0.9985860586166382 -0.0014141852734610438
vn 0.05875680595636368 -0.9982708096504211 -0.0017283631023019552
vn 0.05875631794333458 -0.9982708096504211 -0.0017290249234065413
vn 0.06086475029587746 -0.9981443285942078 -0.0018554270500317216
vn 0.060864705592393875 -0.9981443285942078 -0.0018555473070591688
vn 0.060485631227493286 -0.9981673955917358 -0.0018325214041396976
vn 0.060485854744911194 -0.9981673955917358 -0.0018324534175917506
vn 0.05836158245801926 -0.9982940554618835 -0.0017058850498870015
vn 0.058362022042274475 -0.9982939958572388 -0.0017060451209545135
vn 0.058550313115119934 -0.9982829689979553 -0.0017136052483692765
vn 0.05855594202876091 -0.9982826113700867 -0.0017144280718639493
vn 0.0638282373547554 -0.997958779335022 -0.0020408700220286846
vn 0.06382797658443451 -0.9979588389396667 -0.0020413671154528856
vn 0.07060466706752777 -0.9975012540817261 -0.0024985410273075104
vn 0.0706043690443039 -0.9975013136863708 -0.0024988462682813406
vn 0.07633582502603531 -0.9970778822898865 -0.0029219116549938917
vn 0.0763356015086174 -0.9970779418945312 -0.0029221384320408106
vn 0.08115074783563614 -0.9966963529586792 -0.0033034977968782187
vn 0.08115056157112122 -0.996696412563324 -0.0033036433160305023
vn 0.08515070378780365 -0.9963614344596863 -0.0036383732222020626
vn 0.08515055477619171 -0.996361494064331 -0.0036384696140885353
vn 0.0884157121181488 -0.9960759878158569 -0.003923906944692135
vn 0.08841559290885925 -0.9960759878158569 -0.003923994954675436
vn 0.0910080298781395 -0.9958415031433105 -0.004158368334174156
vn 0.09100793302059174 -0.9958415031433105 -0.004158409312367439
vn 0.09297501295804977 -0.9956589937210083 -0.004340847954154015
vn 0.09297499805688858 -0.9956589937210083 -0.004340925719588995
vn 0.09435159713029861 -0.9955288767814636 -0.004471057094633579
vn 0.09435159713029861 -0.9955288767814636 -0.00447112275287509
vn 0.09516158699989319 -0.9954514503479004 -0.004548545926809311
vn 0.09516153484582901 -0.9954514503479004 -0.004548531025648117
vn 0.09542715549468994 -0.9954259395599365 -0.004574050661176443
vn 0.09542713314294815 -0.9954259395599365 -0.004574012476950884
vn -0.14028316736221313 0.9901105761528015 -0.0012771505862474442
vn -0.30578312277793884 0.9507697820663452 0.05033401772379875
vn -0.14257659018039703 0.9897781610488892 -0.0033378032967448235
vn -0.31259411573410034 0.948664665222168 0.04816945642232895
vn -0.6256982088088989 0.7308686971664429 0.27264028787612915
vn -0.6120882034301758 0.7468961477279663 0.25979623198509216
vn -0.7113310694694519 0.4372481405735016 0.5502926707267761
vn -0.706865131855011 0.4383184313774109 0.5551744699478149
vn -0.46946001052856445 0.14492270350456238 0.8709791302680969
vn -0.4562586545944214 0.12594707310199738 0.8808889985084534
vn -0.1289980113506317 -0.00014576350804418325 0.9916448593139648
vn -0.1295732855796814 0.007709000259637833 0.9915398955345154
vn -0.015328843146562576 -1.9893574062734842e-05 0.9998824596405029
vn -0.014955885708332062 5.2758390665985644e-05 0.9998881220817566
vn 0.024354826658964157 0.0002806596748996526 0.9997033476829529
vn 0.024342872202396393 0.00030054859234951437 0.999703586101532
vn 0.04247141629457474 0.0008970494964160025 0.9990972876548767
vn 0.04246998205780983 0.0009041347075253725 0.9990973472595215
vn 0.05313824862241745 0.001411769655533135 0.998586118221283
vn 0.053138747811317444 0.0014141997089609504 0.998586118221283
vn 0.05875590071082115 0.0017284915084019303 0.9982708692550659
vn 0.05875629931688309 0.0017292139818891883 0.9982708096504211
vn 0.0608646385371685 0.0018554579000920057 0.9981443285942078
vn 0.06086471304297447 0.0018555620918050408 0.9981443285942078
vn 0.060485780239105225 0.0018326673889532685 0.9981673955917358
vn 0.06048553064465523 0.0018326237332075834 0.9981673955917358
vn 0.05836224928498268 0.0017061148537322879 0.9982939958572388
vn 0.058361805975437164 0.0017062111292034388 0.9982939958572388
vn 0.05855605751276016 0.0017140737036243081 0.9982826113700867
vn 0.0585504025220871 0.0017142259748652577 0.9982829689979553
vn 0.06382787972688675 0.0020409231074154377 0.9979588389396667
vn 0.06382805109024048 0.0020414695609360933 0.9979588389396667
vn 0.0706043615937233 0.0024986863136291504 0.9975013136863708
vn 0.07060454785823822 0.0024990651290863752 0.9975012540817261
vn 0.07633571326732635 0.002922105137258768 0.9970778822898865
vn 0.07633587718009949 0.0029223794117569923 0.9970778822898865
vn 0.08115042001008987 0.003303724806755781 0.996696412563324
vn 0.0811505913734436 0.0033039001282304525 0.996696412563324
vn 0.08515050262212753 0.0036385743878781796 0.996361494064331
vn 0.08515068888664246 0.0036386605352163315 0.9963614344596863
vn 0.08841559290885925 0.003924038261175156 0.9960759878158569
vn 0.08841568231582642 0.003924129530787468 0.9960759878158569
vn 0.09100793302059174 0.0041584898717701435 0.9958415031433105
vn 0.09100799262523651 0.00415857695043087 0.9958415031433105
vn 0.09297503530979156 0.0043410672806203365 0.9956589937210083
vn 0.09297502040863037 0.004341170657426119 0.9956589937210083
vn 0.09435155242681503 0.00447128526866436 0.9955288767814636
vn 0.09435155242681503 0.004471346735954285 0.9955288767814636
vn 0.09516146034002304 0.004548761527985334 0.9954514503479004
vn 0.09516151994466782 0.004548736847937107 0.9954514503479004
vn 0.09542711824178696 0.004574235063046217 0.9954259395599365
vn 0.09542719274759293 0.004574169404804707 0.9954259395599365
vt 0.0 0.0
vt 0.03999999910593033 0.0
vt 0.0 1.0
vt 0.03999999910593033 1.0
vt 0.07999999821186066 0.0
vt 0.07999999821186066 1.0
vt 0.11999999731779099 0.0
vt 0.11999999731779099 1.0
vt 0.1599999964237213 0.0
vt 0.1599999964237213 1.0
vt 0.19999998807907104 0.0
vt 0.19999998807907104 1.0
vt 0.23999997973442078 0.0
vt 0.23999997973442078 1.0
vt 0.2799999713897705 0.0
vt 0.2799999713897705 1.0
vt 0.31999996304512024 0.0
vt 0.31999996304512024 1.0
vt 0.35999995470046997 0.0
vt 0.35999995470046997 1.0
vt 0.3999999463558197 0.0
vt 0.3999999463558197 1.0
vt 0.43999993801116943 0.0
vt 0.43999993801116943 1.0
vt 0.47999992966651917 0.0
vt 0.47999992966651917 1.0
vt 0.5199999213218689 0.0
vt 0.5199999213218689 1.0
vt 0.559999942779541 0.0
vt 0.559999942779541 1.0
vt 0.5999999642372131 0.0
vt 0.5999999642372131 1.0
vt 0.6399999856948853 0.0
vt 0.6399999856948853 1.0
vt 0.6800000071525574 0.0
vt 0.6800000071525574 1.0
vt 0.7200000286102295 0.0
vt 0.7200000286102295 1.0
vt 0.7600000500679016 0.0
vt 0.7600000500679016 1.0
vt 0.8000000715255737 0.0
vt 0.8000000715255737 1.0
vt 0.8400000929832458 0.0
vt 0.8400000929832458 1.0
vt 0.880000114440918 0.0
vt 0.880000114440918 1.0
vt 0.9200001358985901 0.0
vt 0.9200001358985901 1.0
vt 0.9600001573562622 0.0
vt 0.9600001573562622 1.0
vt 1.0000001192092896 0.0
vt 1.0000001192092896 1.0
vt 0.0 0.0
vt 0.03999999910593033 0.0
vt 0.0 1.0
vt 0.03999999910593033 1.0
vt 0.07999999821186066 0.0
vt 0.07999999821186066 1.0
vt 0.11999999731779099 0.0
vt 0.11999999731779099 1.0
vt 0.1599999964237213 0.0
vt 0.1599999964237213 1.0
vt 0.19999998807907104 0.0
vt 0.19999998807907104 1.0
vt 0.23999997973442078 0.0
vt 0.23999997973442078 1.0
vt 0.2799999713897705 0.0
vt 0.2799999713897705 1.0
vt 0.31999996304512024 0.0
vt 0.31999996304512024 1.0
vt 0.35999995470046997 0.0
vt 0.35999995470046997 1.0
vt 0.3999999463558197 0.0
vt 0.3999999463558197 1.0
vt 0.43999993801116943 0.0
vt 0.43999993801116943 1.0
vt 0.47999992966651917 0.0
vt 0.47999992966651917 1.0
vt 0.5199999213218689 0.0
vt 0.5199999213218689 1.0
vt 0.559999942779541 0.0
vt 0.559999942779541 1.0
vt 0.5999999642372131 0.0
vt 0.5999999642372131 1.0
vt 0.6399999856948853 0.0
vt 0.6399999856948853 1.0
vt 0.6800000071525574 0.0
vt 0.6800000071525574 1.0
vt 0.7200000286102295 0.0
vt 0.7200000286102295 1.0
vt 0.7600000500679016 0.0
vt 0.7600000500679016 1.0
vt 0.8000000715255737 0.0
vt 0.8000000715255737 1.0
vt 0.8400000929832458 0.0
vt 0.8400000929832458 1.0
vt 0.880000114440918 0.0
vt 0.880000114440918 1.0
vt 0.9200001358985901 0.0
vt 0.9200001358985901 1.0
vt 0.9600001573562622 0.0
vt 0.9600001573562622 1.0
vt 1.0000001192092896 0.0
vt 1.0000001192092896 1.0

g Plane004
s 1
usemtl Plane004
f 3/3/3 2/2/2 1/1/1 
f 2/2/2 3/3/3 4/4/4 
f 4/4/4 5/5/5 2/2/2 
f 5/5/5 4/4/4 6/6/6 
f 6/6/6 7/7/7 5/5/5 
f 7/7/7 6/6/6 8/8/8 
f 8/8/8 9/9/9 7/7/7 
f 9/9/9 8/8/8 10/10/10 
f 10/10/10 11/11/11 9/9/9 
f 11/11/11 10/10/10 12/12/12 
f 12/12/12 13/13/13 11/11/11 
f 13/13/13 12/12/12 14/14/14 
f 14/14/14 15/15/15 13/13/13 
f 15/15/15 14/14/14 16/16/16 
f 16/16/16 17/17/17 15/15/15 
f 17/17/17 16/16/16 18/18/18 
f 18/18/18 19/19/19 17/17/17 
f 19/19/19 18/18/18 20/20/20 
f 20/20/20 21/21/21 19/19/19 
f 21/21/21 20/20/20 22/22/22 
f 22/22/22 23/23/23 21/21/21 
f 23/23/23 22/22/22 24/24/24 
f 24/24/24 25/25/25 23/23/23 
f 25/25/25 24/24/24 26/26/26 
f 26/26/26 27/27/27 25/25/25 
f 27/27/27 26/26/26 28/28/28 
f 28/28/28 29/29/29 27/27/27 
f 29/29/29 28/28/28 30/30/30 
f 30/30/30 31/31/31 29/29/29 
f 31/31/31 30/30/30 32/32/32 
f 32/32/32 33/33/33 31/31/31 
f 33/33/33 32/32/32 34/34/34 
f 34/34/34 35/35/35 33/33/33 
f 35/35/35 34/34/34 36/36/36 
f 36/36/36 37/37/37 35/35/35 
f 37/37/37 36/36/36 38/38/38 
f 38/38/38 39/39/39 37/37/37 
f 39/39/39 38/38/38 40/40/40 
f 40/40/40 41/41/41 39/39/39 
f 41/41/41 40/40/40 42/42/42 
f 42/42/42 43/43/43 41/41/41 
f 43/43/43 42/42/42 44/44/44 
f 44/44/44 45/45/45 43/43/43 
f 45/45/45 44/44/44 46/46/46 
f 46/46/46 47/47/47 45/45/45 
f 47/47/47 46/46/46 48/48/48 
f 48/48/48 49/49/49 47/47/47 
f 49/49/49 48/48/48 50/50/50 
f 50/50/50 51/51/51 49/49/49 
f 51/51/51 50/50/50 52/52/52 
f 55/55/55 54/54/54 53/53/53 
f 54/54/54 55/55/55 56/56/56 
f 56/56/56 57/57/57 54/54/54 
f 57/57/57 56/56/56 58/58/58 
f 58/58/58 59/59/59 57/57/57 
f 59/59/59 58/58/58 60/60/60 
f 60/60/60 61/61/61 59/59/59 
f 61/61/61 60/60/60 62/62/62 
f 62/62/62 63/63/63 61/61/61 
f 63/63/63 62/62/62 64/64/64 
f 64/64/64 65/65/65 63/63/63 
f 65/65/65 64/64/64 66/66/66 
f 66/66/66 67/67/67 65/65/65 
f 67/67/67 66/66/66 68/68/68 
f 68/68/68 69/69/69 67/67/67 
f 69/69/69 68/68/68 70/70/70 
f 70/70/70 71/71/71 69/69/69 
f 71/71/71 70/70/70 72/72/72 
f 72/72/72 73/73/73 71/71/71 
f 73/73/73 72/72/72 74/74/74 
f 74/74/74 75/75/75 73/73/73 
f 75/75/75 74/74/74 76/76/76 
f 76/76/76 77/77/77 75/75/75 
f 77/77/77 76/76/76 78/78/78 
f 78/78/78 79/79/79 77/77/77 
f 79/79/79 78/78/78 80/80/80 
f 80/80/80 81/81/81 79/79/79 
f 81/81/81 80/80/80 82/82/82 
f 82/82/82 83/83/83 81/81/81 
f 83/83/83 82/82/82 84/84/84 
f 84/84/84 85/85/85 83/83/83 
f 85/85/85 84/84/84 86/86/86 
f 86/86/86 87/87/87 85/85/85 
f 87/87/87 86/86/86 88/88/88 
f 88/88/88 89/89/89 87/87/87 
f 89/89/89 88/88/88 90/90/90 
f 90/90/90 91/91/91 89/89/89 
f 91/91/91 90/90/90 92/92/92 
f 92/92/92 93/93/93 91/91/91 
f 93/93/93 92/92/92 94/94/94 
f 94/94/94 95/95/95 93/93/93 
f 95/95/95 94/94/94 96/96/96 
f 96/96/96 97/97/97 95/95/95 
f 97/97/97 96/96/96 98/98/98 
f 98/98/98 99/99/99 97/97/97 
f 99/99/99 98/98/98 100/100/100 
f 100/100/100 101/101/101 99/99/99 
f 101/101/101 100/100/100 102/102/102 
f 102/102/102 103/103/103 101/101/101 
f 103/103/103 102/102/102 104/104/104 

